specimen_id,year,species_code,sex,fin_specimen_age,prim_specimen_age,sec_specimen_age
8269647,2004,442,1,21,21,21
8269653,2004,442,1,21,21,22
8269667,2004,442,1,23,23,23
8269685,2004,442,2,87,87,88
8269699,2004,442,2,41,41,44
8269713,2004,442,2,43,43,47
8269727,2004,442,2,29,29,29
8269741,2004,442,2,17,17,15
8315328,2004,442,2,56,56,54
8315338,2004,442,2,19,19,17
8315348,2004,442,2,62,62,50
8315358,2004,442,2,31,31,28
8315368,2004,442,2,31,31,32
8315382,2004,442,2,38,38,34
8315392,2004,442,2,23,23,24
8315402,2004,442,2,39,39,40
8315412,2004,442,2,17,17,17
8315422,2004,442,2,21,20,22
9067764,2004,442,1,22,22,23
9067778,2004,442,1,21,21,23
9067792,2004,442,1,21,21,21
9418122,2005,442,2,42,42,42
9418132,2005,442,2,21,21,21
9418142,2005,442,2,24,24,25
9418152,2005,442,2,21,21,21
9418162,2005,442,2,25,25,26
9418172,2005,442,2,60,60,58
9477510,2005,442,2,49,49,47
9477514,2005,442,2,48,48,49
9477520,2005,442,2,24,23,24
9477524,2005,442,2,43,41,43
9477530,2005,442,2,52,52,51
9477534,2005,442,2,19,18,19
9477540,2005,442,2,21,24,21
9477544,2005,442,2,24,24,23
9477550,2005,442,2,18,17,18
9477554,2005,442,2,24,24,23
9508213,2005,442,2,22,24,22
9508223,2005,442,2,29,31,29
9508233,2005,442,2,38,38,38
9508243,2005,442,2,61,58,60
10125651,2006,442,1,24,24,25
10125655,2006,442,1,15,15,14
10125661,2006,442,1,12,16,13
10125665,2006,442,1,21,24,22
10125671,2006,442,1,19,21,18
10125675,2006,442,1,30,30,30
10125681,2006,442,1,53,53,53
10125685,2006,442,1,39,39,31
10125691,2006,442,1,25,25,25
10125695,2006,442,1,19,19,19
11254124,2009,442,2,50,50,49
11254131,2009,442,2,32,32,38
11254138,2009,442,2,78,78,80
11254145,2009,442,2,29,29,27
11254152,2009,442,2,29,29,30
11254159,2009,442,2,29,29,26
11254166,2009,442,2,72,72,70
11254188,2009,442,2,29,29,28
11254221,2009,442,1,31,31,31
11254228,2009,442,1,28,28,27
11254235,2009,442,1,22,22,21
11254242,2009,442,1,26,28,26
11254249,2009,442,1,60,60,60
11254275,2009,442,2,66,66,66
11254294,2009,442,1,32,32,31
11254303,2009,442,1,23,23,25
11254313,2009,442,1,45,45,49
11254330,2009,442,1,39,39,41
11254337,2009,442,1,52,52,53
11254344,2009,442,1,60,60,59
11254411,2009,442,1,22,22,21
11254418,2009,442,1,28,28,29
11254425,2009,442,1,30,26,32
11254432,2009,442,1,46,46,48
11254439,2009,442,1,53,53,52
11254446,2009,442,1,61,61,61
11254505,2009,442,1,31,31,33
11254512,2009,442,1,30,30,28
11254519,2009,442,1,33,33,32
11254544,2009,442,2,28,28,29
11254551,2009,442,2,89,89,76
11254558,2009,442,2,52,52,52
11254565,2009,442,2,32,32,30
11254569,2009,442,2,30,30,29
11254570,2009,442,1,55,55,56
11254582,2009,442,1,29,29,30
11254591,2009,442,1,27,27,27
11254608,2009,442,1,27,27,27
11254615,2009,442,1,19,19,19
11254628,2009,442,2,29,30,28
11254635,2009,442,1,52,52,51
11254642,2009,442,1,47,49,47
11254649,2009,442,1,30,30,28
11254656,2009,442,1,28,28,28
11254663,2009,442,1,39,39,38
11254670,2009,442,1,26,26,25
11254677,2009,442,1,38,36,38
11254684,2009,442,1,32,33,32
11254693,2009,442,2,29,29,30
11254700,2009,442,2,32,32,29
11254707,2009,442,2,31,31,29
11254714,2009,442,2,64,64,62
11254741,2009,442,1,27,26,27
11254825,2009,442,0,28,28,32
11254832,2009,442,0,25,25,24
11254839,2009,442,0,29,29,29
11254846,2009,442,0,26,26,26
11254853,2009,442,0,28,34,28
11254860,2009,442,0,56,56,53
11254867,2009,442,0,62,62,47
11254876,2009,442,2,30,30,28
11254882,2009,442,2,28,27,24
11254888,2009,442,2,33,34,32
11254895,2009,442,2,27,27,25
11255046,2009,442,2,70,70,77
11255053,2009,442,2,21,26,24
11255059,2009,442,2,23,23,22
11255066,2009,442,2,23,23,24
11255072,2009,442,2,61,61,61
11255182,2009,442,1,21,19,24
11255439,2009,442,1,27,27,28
11255445,2009,442,1,40,40,41
11255452,2009,442,1,43,43,42
11255458,2009,442,1,56,58,54
11255488,2009,442,1,56,56,54
11255499,2009,442,1,26,26,24
11255506,2009,442,1,53,53,53
11255573,2009,442,0,32,36,32
11255579,2009,442,0,26,26,26
11255585,2009,442,0,33,33,32
11255591,2009,442,0,26,31,26
11255597,2009,442,0,60,60,59
11255603,2009,442,0,17,19,17
11255609,2009,442,0,25,25,23
11255615,2009,442,0,26,26,26
11255621,2009,442,0,27,28,27
11255627,2009,442,0,29,31,29
11255633,2009,442,2,26,24,26
11255639,2009,442,2,52,64,52
11255645,2009,442,2,76,76,76
11255651,2009,442,2,34,34,38
11255952,2009,442,1,30,30,28
11255956,2009,442,1,64,61,67
11255974,2009,442,1,42,44,40
11255981,2009,442,1,26,26,24
11255999,2009,442,2,106,98,101
11256042,2009,442,1,32,32,30
11256049,2009,442,1,49,49,51
11256056,2009,442,1,24,32,24
11256063,2009,442,1,26,23,26
11256070,2009,442,1,26,20,26
11256077,2009,442,1,30,30,27
11256084,2009,442,1,51,51,48
11256091,2009,442,1,38,38,36
11256098,2009,442,1,22,22,26
11256444,2009,442,2,29,29,27
11256451,2009,442,2,26,26,26
11256457,2009,442,2,115,119,105
11256464,2009,442,2,30,30,30
11256506,2009,442,1,29,29,26
11256576,2009,442,2,28,28,29
11256582,2009,442,2,27,35,27
11256589,2009,442,2,24,24,19
11256595,2009,442,2,14,14,15
11256602,2009,442,2,27,27,22
11256608,2009,442,2,48,50,48
11256615,2009,442,2,50,48,50
11256621,2009,442,2,27,27,26
11256628,2009,442,2,53,53,53
11256634,2009,442,2,26,26,22
11256641,2009,442,2,28,28,26
11256647,2009,442,2,22,22,22
11256654,2009,442,2,31,31,31
11256661,2009,442,2,51,49,51
11256710,2009,442,1,27,27,28
11256717,2009,442,1,29,29,28
11256723,2009,442,1,35,35,32
11256730,2009,442,1,27,27,25
11256736,2009,442,1,22,17,30
11256743,2009,442,1,28,28,30
11256749,2009,442,1,27,27,25
11256756,2009,442,1,25,25,24
11256867,2009,442,1,25,25,25
11256874,2009,442,1,30,30,29
11256880,2009,442,1,43,43,41
11256887,2009,442,1,27,27,30
11256893,2009,442,1,25,25,31
11256900,2009,442,1,56,56,62
11256906,2009,442,1,26,26,28
11256913,2009,442,1,25,25,26
11256919,2009,442,1,34,34,35
11256926,2009,442,1,33,33,33
11256932,2009,442,1,60,60,62
11256939,2009,442,1,56,56,52
11256970,2009,442,2,28,28,29
11256976,2009,442,2,21,21,20
11256982,2009,442,2,30,33,29
11257044,2009,442,1,29,29,29
11257050,2009,442,1,28,25,28
11257056,2009,442,1,49,49,51
11257062,2009,442,1,70,66,73
11257068,2009,442,1,41,44,41
11257082,2009,442,2,42,42,43
11257088,2009,442,2,25,25,24
11257094,2009,442,2,19,20,18
11257114,2009,442,2,65,65,65
11257120,2009,442,2,42,42,47
11257126,2009,442,2,30,30,30
11257308,2009,442,2,48,42,53
11257314,2009,442,2,32,32,30
11257320,2009,442,2,47,47,50
11257326,2009,442,2,55,51,55
11257332,2009,442,2,53,53,55
11257372,2009,442,2,39,39,38
11257379,2009,442,2,27,27,26
11257386,2009,442,2,27,27,30
11257393,2009,442,2,19,19,20
11257400,2009,442,2,24,24,24
11257615,2009,442,1,53,53,54
11257622,2009,442,1,47,47,48
11257629,2009,442,1,42,42,34
11257676,2009,442,2,47,47,46
11257683,2009,442,2,28,28,29
11257690,2009,442,2,27,27,29
11257697,2009,442,2,27,27,26
11257704,2009,442,2,30,30,28
11257707,2009,442,2,33,33,32
11257945,2009,442,2,58,58,51
11257949,2009,442,2,29,29,28
11257952,2009,442,2,28,28,28
11257955,2009,442,2,44,44,44
11257958,2009,442,2,35,35,34
11257962,2009,442,2,27,27,28
11257965,2009,442,2,27,27,29
11257969,2009,442,2,25,25,26
11257972,2009,442,2,30,30,29
11321152,2009,442,1,27,26,27
11321172,2009,442,2,27,29,27
11321179,2009,442,2,27,27,27
11321208,2009,442,2,30,30,31
11321215,2009,442,2,28,28,27
11321221,2009,442,2,28,28,27
11321228,2009,442,2,28,28,27
11321234,2009,442,2,22,24,22
11321258,2009,442,2,40,37,40
11321332,2009,442,1,19,19,18
11321358,2009,442,2,37,37,36
11321364,2009,442,2,28,28,27
11321371,2009,442,2,27,27,27
11321377,2009,442,2,27,29,27
11321384,2009,442,2,61,61,60
11321403,2009,442,2,53,53,53
11321410,2009,442,2,63,63,64
11321416,2009,442,2,35,33,35
11321578,2009,442,1,43,43,40
11321585,2009,442,1,30,30,29
11321592,2009,442,1,27,27,26
11321599,2009,442,1,28,28,26
11321606,2009,442,1,22,22,23
11321613,2009,442,1,28,28,25
11321659,2009,442,1,30,27,30
11321660,2009,442,1,48,46,49
11321741,2009,442,2,27,27,27
11321748,2009,442,2,19,19,19
11321755,2009,442,2,20,20,20
11321762,2009,442,2,20,24,20
11321769,2009,442,2,29,28,31
11321776,2009,442,2,12,14,12
11321783,2009,442,2,33,33,32
11321801,2009,442,1,12,12,13
11321808,2009,442,1,65,65,65
11321815,2009,442,1,27,26,27
11321822,2009,442,1,29,27,29
11321829,2009,442,1,27,29,27
11321836,2009,442,1,9,9,9
11321862,2009,442,2,63,60,65
11321873,2009,442,1,27,25,27
11321879,2009,442,1,34,32,37
11321885,2009,442,1,28,28,27
11321891,2009,442,1,27,27,28
11321897,2009,442,1,36,36,42
11321903,2009,442,1,31,31,36
11321909,2009,442,1,30,27,34
11321915,2009,442,1,33,33,35
11322013,2009,442,2,52,52,52
11322062,2009,442,1,29,29,29
11322086,2009,442,1,26,23,26
11322091,2009,442,1,26,23,24
11322095,2009,442,1,26,20,29
11322101,2009,442,1,21,18,21
11322106,2009,442,1,28,28,28
11322126,2009,442,1,27,24,28
11322139,2009,442,2,62,62,61
11322144,2009,442,2,39,41,33
11322149,2009,442,2,48,48,47
11322154,2009,442,2,28,28,25
11322159,2009,442,2,29,29,29
11322164,2009,442,2,35,35,32
11322169,2009,442,2,36,38,34
11322174,2009,442,2,26,27,26
11322179,2009,442,2,35,35,30
11322184,2009,442,2,37,37,57
11322189,2009,442,2,32,32,32
11322194,2009,442,2,13,14,13
11322199,2009,442,2,23,29,22
11322204,2009,442,2,26,31,29
11322209,2009,442,2,29,29,29
11322214,2009,442,2,29,26,29
11322219,2009,442,2,18,19,18
11322224,2009,442,2,26,26,27
11322229,2009,442,2,19,19,17
11322234,2009,442,2,28,28,28
11322235,2009,442,2,62,62,57
11322240,2009,442,2,32,32,25
11322245,2009,442,2,28,28,25
11322250,2009,442,2,26,28,26
11322255,2009,442,2,67,67,65
11322260,2009,442,2,58,63,58
11322265,2009,442,2,20,20,22
11322270,2009,442,2,63,53,63
11322275,2009,442,2,59,59,58
11322280,2009,442,2,25,25,25
11322286,2009,442,2,32,32,33
11322291,2009,442,2,35,32,35
11322296,2009,442,2,28,28,28
11322301,2009,442,2,27,28,26
11322306,2009,442,2,34,34,32
11322311,2009,442,2,18,18,18
11322316,2009,442,2,28,28,27
11322321,2009,442,2,34,34,29
11322326,2009,442,2,29,29,27
11322331,2009,442,2,30,30,30
11322335,2009,442,2,30,30,30
11322340,2009,442,2,66,66,67
11322345,2009,442,2,29,29,29
11322350,2009,442,2,30,30,28
11322355,2009,442,2,27,27,27
11322360,2009,442,2,27,24,27
11322365,2009,442,2,31,31,30
11322370,2009,442,2,26,26,25
11322376,2009,442,2,27,27,30
11322380,2009,442,2,29,26,30
11322385,2009,442,2,33,31,33
11322390,2009,442,2,27,27,28
11322395,2009,442,2,56,56,57
11322400,2009,442,2,29,29,28
11322405,2009,442,2,55,55,56
11322410,2009,442,2,30,27,30
11322415,2009,442,2,31,31,32
11322420,2009,442,2,17,17,18
11322425,2009,442,2,30,30,31
11322430,2009,442,2,29,29,30
11322438,2009,442,2,39,36,37
11322443,2009,442,2,30,30,30
11322448,2009,442,2,28,28,30
11322453,2009,442,2,26,28,27
11322458,2009,442,2,34,31,34
11322463,2009,442,2,28,35,26
11322468,2009,442,2,28,28,28
11322473,2009,442,2,51,51,53
11322478,2009,442,2,26,26,26
11322480,2009,442,2,35,35,35
11322483,2009,442,2,25,25,27
11322488,2009,442,1,28,28,28
11322493,2009,442,1,47,47,47
11322498,2009,442,1,27,26,27
11322503,2009,442,1,26,26,27
11322508,2009,442,1,28,28,28
11322513,2009,442,1,28,28,28
11322518,2009,442,1,33,29,34
11322523,2009,442,1,26,25,26
11322528,2009,442,1,24,26,23
11322533,2009,442,1,30,30,30
11322536,2009,442,1,13,13,12
11322542,2009,442,1,29,29,29
11322548,2009,442,1,17,17,17
11322554,2009,442,1,29,29,29
11322560,2009,442,1,50,50,46
11322566,2009,442,1,34,34,35
11322572,2009,442,1,45,45,45
11322578,2009,442,1,27,25,27
11322584,2009,442,1,28,28,27
11322593,2009,442,1,28,28,30
11322599,2009,442,1,19,19,17
11322605,2009,442,1,26,22,29
11322611,2009,442,1,28,28,28
11322617,2009,442,1,30,30,29
11322623,2009,442,1,25,25,26
11322629,2009,442,1,21,21,20
11322635,2009,442,1,28,27,29
11322656,2009,442,1,33,33,33
11322678,2009,442,1,20,19,22
11322684,2009,442,1,31,30,32
11322690,2009,442,1,27,27,26
11322696,2009,442,1,30,28,30
11322702,2009,442,1,22,22,21
11322708,2009,442,1,25,25,25
11322715,2009,442,2,20,20,19
11322721,2009,442,2,20,20,20
11322733,2009,442,2,22,22,19
11322739,2009,442,2,21,21,20
11322745,2009,442,2,26,26,25
11322772,2009,442,1,41,41,40
11322816,2009,442,1,37,37,37
11322821,2009,442,1,28,28,26
11322826,2009,442,1,28,28,28
11322831,2009,442,1,27,27,27
11322859,2009,442,1,24,24,26
11322881,2009,442,2,26,26,26
11322886,2009,442,2,30,30,27
11322892,2009,442,2,90,90,90
11322901,2009,442,2,26,32,30
11322911,2009,442,1,27,27,25
11322917,2009,442,1,28,28,27
11322923,2009,442,1,44,40,43
11322929,2009,442,1,24,23,25
11322941,2009,442,1,38,36,38
11322947,2009,442,1,34,34,34
11322953,2009,442,1,32,32,33
11322976,2009,442,1,36,36,39
11323025,2009,442,2,24,24,24
11323029,2009,442,1,29,24,29
11323035,2009,442,1,24,24,29
11323041,2009,442,1,27,25,27
11323047,2009,442,1,50,50,51
11323053,2009,442,1,22,22,25
11323059,2009,442,1,30,25,30
11323065,2009,442,1,31,27,31
11323116,2009,442,1,26,28,25
11323147,2009,442,2,13,13,14
11323165,2009,442,2,29,28,29
11323238,2009,442,1,33,33,34
11323245,2009,442,1,30,30,30
11323252,2009,442,1,37,37,39
11323274,2009,442,2,29,30,29
11323297,2009,442,2,38,38,40
11323307,2009,442,1,38,35,38
11323314,2009,442,2,26,26,27
11323321,2009,442,2,24,25,24
11323328,2009,442,2,25,25,26
11323335,2009,442,2,26,26,28
11323342,2009,442,2,27,29,28
11323349,2009,442,2,28,27,26
11323375,2009,442,1,31,31,30
11323391,2009,442,1,30,30,26
11323398,2009,442,1,23,23,23
11323404,2009,442,1,28,28,25
11323411,2009,442,1,54,54,53
11323417,2009,442,1,28,28,29
11323424,2009,442,1,72,72,66
11323434,2009,442,2,65,65,63
11323441,2009,442,2,21,21,22
11323447,2009,442,2,63,63,61
11323454,2009,442,2,26,26,25
11323460,2009,442,2,52,52,50
11323467,2009,442,2,28,28,27
11323500,2009,442,2,29,29,26
11323506,2009,442,2,25,25,24
11323513,2009,442,2,26,26,27
11323519,2009,442,1,26,26,26
11323526,2009,442,1,36,29,36
11323533,2009,442,1,27,27,26
11323540,2009,442,1,55,55,56
11323547,2009,442,1,31,31,31
11323554,2009,442,1,28,28,30
11323561,2009,442,1,29,27,29
11323571,2009,442,1,47,47,45
11323576,2009,442,1,29,29,27
11323581,2009,442,1,41,41,40
11323586,2009,442,1,26,26,26
11323591,2009,442,1,30,30,29
11323596,2009,442,1,57,60,57
11323601,2009,442,1,58,58,58
11323606,2009,442,1,57,57,57
11323611,2009,442,1,27,27,26
11323616,2009,442,1,56,59,56
11323660,2009,442,2,33,32,34
11323666,2009,442,2,28,28,28
11323673,2009,442,1,28,28,32
11323679,2009,442,1,28,28,29
11323685,2009,442,1,29,29,28
11323697,2009,442,1,31,31,30
11323703,2009,442,1,26,29,26
11323709,2009,442,1,24,24,26
11323715,2009,442,1,31,33,30
11323773,2009,442,2,32,32,30
11323778,2009,442,2,47,47,47
11323783,2009,442,2,31,28,32
11323788,2009,442,2,21,21,20
11323793,2009,442,2,25,25,26
11323798,2009,442,2,25,25,26
11323803,2009,442,2,32,30,32
11323808,2009,442,2,28,22,28
11323813,2009,442,2,27,27,29
11323818,2009,442,2,28,25,28
11323873,2009,442,2,33,33,33
11323935,2009,442,1,29,29,29
11323939,2009,442,1,15,15,15
11323942,2009,442,1,27,27,27
11323946,2009,442,1,15,15,15
11323997,2009,442,1,27,27,28
11324001,2009,442,1,28,28,26
11324055,2009,442,1,58,58,59
11324074,2009,442,2,27,29,27
11324083,2009,442,1,8,8,8
11324168,2009,442,1,18,18,18
11324175,2009,442,1,16,16,21
11324181,2009,442,1,28,28,29
11324188,2009,442,1,57,57,43
11324228,2009,442,2,74,74,74
11324234,2009,442,2,27,27,27
11324241,2009,442,1,27,27,26
11324247,2009,442,1,42,42,43
11324269,2009,442,1,26,26,27
11324271,2009,442,2,45,45,49
11324277,2009,442,2,44,44,44
11324283,2009,442,2,57,57,60
11324289,2009,442,2,28,28,29
11324295,2009,442,2,20,20,22
11324301,2009,442,2,33,33,37
11324307,2009,442,2,52,38,52
11324313,2009,442,2,78,78,76
11324319,2009,442,2,27,27,27
11324364,2009,442,1,26,25,28
11324374,2009,442,2,54,54,55
11324380,2009,442,2,56,52,56
11324445,2009,442,2,21,21,18
11324451,2009,442,2,29,29,31
11324458,2009,442,2,38,38,24
11324467,2009,442,2,74,74,76
11324520,2009,442,1,31,34,25
11324527,2009,442,1,29,29,30
11324538,2009,442,1,30,30,30
11324545,2009,442,1,70,70,69
11324551,2009,442,1,57,57,48
11324568,2009,442,2,63,60,62
11324573,2009,442,2,24,24,24
11324574,2009,442,2,25,25,25
11324602,2009,442,2,31,31,31
11324659,2009,442,2,74,70,78
11324666,2009,442,2,26,26,26
11324673,2009,442,2,44,44,44
11324703,2009,442,2,21,21,20
11324709,2009,442,2,22,22,21
11324715,2009,442,2,30,24,30
11324738,2009,442,1,39,39,41
11324739,2009,442,1,70,70,74
11324745,2009,442,1,31,31,31
11324752,2009,442,1,27,27,27
11324759,2009,442,1,20,20,20
11324766,2009,442,1,61,61,60
11324773,2009,442,2,32,32,33
11324780,2009,442,2,28,28,25
11324787,2009,442,2,53,53,65
11324796,2009,442,1,54,54,57
11324803,2009,442,1,18,18,18
11324810,2009,442,1,28,28,26
11324817,2009,442,1,37,37,37
11324824,2009,442,1,33,33,32
11324839,2009,442,1,90,90,88
11324874,2009,442,2,46,46,47
11324880,2009,442,2,33,35,33
11324886,2009,442,2,56,56,57
11324892,2009,442,1,28,27,28
11324898,2009,442,1,28,25,28
11324904,2009,442,1,52,53,51
11324914,2009,442,2,64,64,64
11324920,2009,442,2,44,40,38
11324932,2009,442,2,52,44,53
11324938,2009,442,2,31,31,28
11324944,2009,442,2,30,35,33
11324981,2009,442,2,32,32,32
11324987,2009,442,2,28,28,28
11324993,2009,442,2,27,27,28
11324999,2009,442,2,47,46,47
11325005,2009,442,2,28,28,27
11325011,2009,442,1,25,29,19
11325017,2009,442,1,28,28,28
11325023,2009,442,1,28,28,27
11325029,2009,442,1,21,20,21
11325062,2009,442,1,9,9,9
11325068,2009,442,1,39,27,39
11325074,2009,442,1,28,28,29
11325226,2009,442,2,19,19,20
11325233,2009,442,2,28,28,27
11325239,2009,442,2,27,27,26
11325246,2009,442,2,27,27,30
11325250,2009,442,2,29,29,29
11325255,2009,442,2,25,25,25
11325276,2009,442,1,17,17,17
11325281,2009,442,1,27,27,26
11325310,2009,442,2,54,54,53
11325316,2009,442,1,30,30,31
11325321,2009,442,1,33,33,35
11325326,2009,442,1,56,56,57
11325331,2009,442,1,31,31,31
11325336,2009,442,1,28,28,25
11566613,2010,442,1,14,14,14
11566617,2010,442,1,27,27,28
11566623,2010,442,1,27,27,28
11566627,2010,442,1,20,20,19
11566633,2010,442,1,28,27,29
11566637,2010,442,1,26,28,26
11566643,2010,442,1,25,25,25
11566647,2010,442,1,27,27,27
11566653,2010,442,1,27,28,27
11566657,2010,442,1,25,25,25
11694832,2010,442,1,36,36,36
11694840,2010,442,1,29,27,29
11694902,2010,442,1,29,29,29
11694924,2010,442,1,29,28,29
11694932,2010,442,1,20,20,20
11694940,2010,442,1,32,30,32
11694948,2010,442,1,83,83,83
11694956,2010,442,1,30,30,31
11694993,2010,442,2,21,24,19
11695001,2010,442,2,37,37,36
11695137,2010,442,2,38,38,38
11695145,2010,442,2,31,31,30
11695164,2010,442,2,30,29,30
11695177,2010,442,1,30,28,30
11695185,2010,442,1,64,64,65
11695196,2010,442,2,42,37,42
11695230,2010,442,2,60,60,60
11695238,2010,442,2,54,53,54
11695246,2010,442,2,40,40,39
11695279,2010,442,1,33,33,33
11695295,2010,442,1,25,25,28
11695307,2010,442,1,34,31,34
11695319,2010,442,1,31,31,36
11695327,2010,442,1,29,29,30
11695339,2010,442,1,58,58,57
11695347,2010,442,1,52,52,51
11695355,2010,442,1,68,65,71
11695367,2010,442,1,23,23,21
11695513,2010,442,2,34,34,34
11695521,2010,442,2,29,29,30
11695533,2010,442,2,26,26,28
11695542,2010,442,1,39,32,39
11695562,2010,442,1,85,85,85
11695574,2010,442,1,55,55,53
11695585,2010,442,1,27,27,27
11695597,2010,442,1,49,47,50
11695605,2010,442,1,27,33,27
11695621,2010,442,2,46,40,46
11695629,2010,442,2,27,27,28
11695639,2010,442,2,54,54,54
11695660,2010,442,2,53,53,55
11695668,2010,442,2,27,27,27
11695680,2010,442,2,39,39,36
11695688,2010,442,2,28,28,30
11695700,2010,442,2,28,25,28
11695708,2010,442,2,36,36,39
11695720,2010,442,2,90,95,90
11695758,2010,442,2,27,27,27
11695766,2010,442,2,46,46,48
11695807,2010,442,2,31,34,31
11695815,2010,442,2,56,53,56
11695827,2010,442,2,70,70,71
11695835,2010,442,2,26,26,27
11695847,2010,442,2,26,26,26
11695866,2010,442,2,33,33,31
11696033,2010,442,2,37,37,38
11696188,2010,442,2,36,36,35
11696233,2010,442,2,30,30,32
11696241,2010,442,2,32,32,32
11696249,2010,442,2,27,27,27
11696257,2010,442,2,53,47,55
11696265,2010,442,2,27,27,25
11696273,2010,442,2,35,35,32
11696281,2010,442,2,38,35,38
11696289,2010,442,2,26,26,25
11696297,2010,442,2,32,22,32
11696305,2010,442,2,28,25,34
11696331,2010,442,1,46,46,46
11696386,2010,442,2,33,33,32
11696398,2010,442,2,20,20,20
11696406,2010,442,2,19,19,20
11696418,2010,442,2,30,30,30
11696426,2010,442,2,30,30,28
11696438,2010,442,2,30,30,28
11696446,2010,442,2,33,32,33
11696458,2010,442,2,30,29,30
11696466,2010,442,2,38,38,36
11696478,2010,442,2,80,80,75
11696490,2010,442,2,32,32,31
11696498,2010,442,2,32,36,28
11696510,2010,442,2,49,49,36
11696518,2010,442,2,36,36,32
11696530,2010,442,2,33,33,30
11696538,2010,442,2,56,56,43
11696550,2010,442,2,24,24,24
11696558,2010,442,2,45,45,39
11696570,2010,442,2,29,29,29
11696578,2010,442,2,28,28,30
11696586,2010,442,2,22,22,23
11696598,2010,442,2,26,26,31
11696606,2010,442,2,36,30,43
11696618,2010,442,2,29,29,33
11696658,2010,442,1,51,51,51
11696670,2010,442,1,29,29,28
11696678,2010,442,1,28,28,31
11696690,2010,442,1,30,30,32
11696785,2010,442,1,32,32,36
11696850,2010,442,1,31,31,31
11696858,2010,442,1,86,86,79
11696870,2010,442,1,49,49,48
11696878,2010,442,1,25,25,24
11696931,2010,442,2,28,32,28
11697253,2010,442,1,30,30,28
11697297,2010,442,2,28,28,28
11697305,2010,442,2,33,33,28
11697317,2010,442,2,26,26,24
11697325,2010,442,2,29,29,28
11697329,2010,442,2,27,28,27
11697341,2010,442,2,54,54,54
11697349,2010,442,2,28,28,29
11697361,2010,442,2,28,28,29
11697373,2010,442,2,17,17,18
11697381,2010,442,2,29,29,28
11697414,2010,442,1,60,60,58
11697426,2010,442,1,25,35,25
11697434,2010,442,1,28,28,28
11697442,2010,442,1,28,28,27
11697454,2010,442,1,55,55,54
11697462,2010,442,1,28,28,24
11697474,2010,442,1,30,34,31
11697486,2010,442,1,62,61,62
11697494,2010,442,1,70,70,59
11697502,2010,442,1,64,64,53
11697514,2010,442,1,34,34,32
11697526,2010,442,1,28,28,27
11697534,2010,442,1,30,30,30
11697542,2010,442,1,31,31,28
11697613,2010,442,1,93,93,80
11697625,2010,442,1,34,30,34
11697633,2010,442,1,57,57,54
11697645,2010,442,1,51,47,51
11697653,2010,442,1,31,28,31
11697665,2010,442,1,45,34,45
11697673,2010,442,1,26,26,28
11697685,2010,442,1,53,55,55
11697693,2010,442,1,34,34,33
11697720,2010,442,1,31,31,31
11697728,2010,442,1,29,28,29
11697848,2010,442,0,30,27,30
11697864,2010,442,0,90,85,87
11697883,2010,442,0,52,52,53
11697891,2010,442,0,40,40,38
11697903,2010,442,0,31,27,31
11697911,2010,442,0,39,38,39
11697936,2010,442,1,30,30,28
11697944,2010,442,1,28,28,28
11697956,2010,442,1,39,39,37
11698061,2010,442,2,55,55,53
11698073,2010,442,2,46,46,43
11698081,2010,442,2,34,34,39
11698144,2010,442,1,16,16,16
11698248,2010,442,1,30,30,36
11698260,2010,442,1,16,16,15
11698268,2010,442,1,53,53,50
11698280,2010,442,1,23,23,22
11698288,2010,442,1,42,42,44
11698402,2010,442,2,15,15,17
11698410,2010,442,2,30,30,30
11698463,2010,442,1,28,28,29
11698489,2010,442,1,25,25,26
11698604,2010,442,2,32,32,30
11701057,2010,442,2,84,84,91
11701206,2010,442,1,42,40,45
11701385,2010,442,1,18,16,18
11701446,2010,442,1,61,53,72
11701588,2010,442,2,28,28,28
11701600,2010,442,2,53,53,53
11701686,2010,442,2,26,26,26
11701723,2010,442,1,59,50,59
11701760,2010,442,2,59,59,57
11701772,2010,442,2,60,60,59
11701784,2010,442,2,51,50,52
11701822,2010,442,1,34,39,34
11701834,2010,442,1,25,18,25
11701849,2010,442,2,29,29,28
11701861,2010,442,2,23,23,16
11701869,2010,442,2,37,37,35
11701881,2010,442,2,29,30,18
11701889,2010,442,2,35,35,36
11701901,2010,442,2,25,29,25
11701905,2010,442,2,32,32,32
11701913,2010,442,2,33,33,32
11701925,2010,442,2,20,20,17
11701933,2010,442,2,42,42,37
11701949,2010,442,1,27,27,26
11701957,2010,442,1,27,27,28
11701969,2010,442,1,35,35,35
11701988,2010,442,2,19,19,23
11702034,2010,442,1,27,27,26
11702089,2010,442,2,43,43,40
11702097,2010,442,2,28,28,28
11702144,2010,442,1,29,26,29
11702152,2010,442,1,32,32,33
11702164,2010,442,1,33,33,30
11702183,2010,442,2,32,32,31
11702210,2010,442,2,51,51,48
11702218,2010,442,2,10,10,11
11702459,2010,442,1,21,21,20
11702467,2010,442,1,12,12,13
11702587,2010,442,1,19,19,21
11702645,2010,442,2,30,30,30
11702677,2010,442,1,24,25,26
11702687,2010,442,2,29,29,30
11702699,2010,442,2,30,30,30
11702726,2010,442,2,30,30,33
11703060,2010,442,1,26,26,27
11703106,2010,442,2,26,26,28
11703118,2010,442,2,20,20,20
11703163,2010,442,2,20,19,21
11703199,2010,442,2,41,38,41
11703211,2010,442,2,25,23,26
11703219,2010,442,2,47,41,48
11703231,2010,442,2,29,29,28
11703239,2010,442,2,28,28,29
11703251,2010,442,2,30,30,31
11703259,2010,442,2,21,21,21
11703271,2010,442,1,25,25,26
11703279,2010,442,1,29,25,28
11703291,2010,442,1,34,23,34
11703299,2010,442,1,21,23,22
11703311,2010,442,1,20,20,23
11703345,2010,442,1,20,19,21
11703357,2010,442,1,60,56,64
11703374,2010,442,1,34,34,32
11703386,2010,442,1,25,25,28
11703394,2010,442,1,35,35,34
11703406,2010,442,1,37,37,36
11703414,2010,442,1,34,38,35
11703432,2010,442,1,23,23,22
11703440,2010,442,1,30,30,29
11703452,2010,442,1,32,32,31
11703460,2010,442,1,60,60,63
11703472,2010,442,1,46,46,48
11703480,2010,442,1,20,20,21
11703492,2010,442,1,18,18,20
11703500,2010,442,1,30,30,32
11703512,2010,442,1,25,25,27
11703520,2010,442,1,21,21,23
11703548,2010,442,2,21,22,21
11703560,2010,442,2,20,20,21
11703568,2010,442,2,23,23,23
11703588,2010,442,2,19,21,19
11703596,2010,442,2,38,38,40
11703608,2010,442,2,14,14,14
11703616,2010,442,2,32,32,31
11703631,2010,442,1,25,25,26
11703639,2010,442,1,28,28,31
11703651,2010,442,1,26,26,25
11703655,2010,442,1,27,26,28
11703667,2010,442,1,39,41,39
11703675,2010,442,2,24,24,25
11703687,2010,442,2,29,29,28
11703695,2010,442,2,23,20,25
11703707,2010,442,2,37,37,37
11703715,2010,442,2,29,29,28
11703753,2010,442,1,12,12,13
11703788,2010,442,1,29,29,28
11703800,2010,442,1,22,22,23
11703808,2010,442,2,30,30,30
11703820,2010,442,2,34,34,32
11703828,2010,442,2,29,29,31
11703840,2010,442,2,25,25,26
11703848,2010,442,2,48,48,46
11703885,2010,442,1,29,29,29
11703893,2010,442,1,20,20,22
11703927,2010,442,1,22,22,20
11703935,2010,442,1,30,30,29
11703952,2010,442,1,28,28,29
11703964,2010,442,1,29,29,31
11703972,2010,442,1,23,23,24
11704031,2010,442,2,18,18,19
11704081,2010,442,1,14,14,16
11704142,2010,442,2,20,20,21
11704150,2010,442,2,22,22,23
11704162,2010,442,2,26,26,27
11704170,2010,442,2,22,22,22
11704219,2010,442,2,8,8,12
11704227,2010,442,2,22,22,22
11704295,2010,442,1,27,22,28
11704307,2010,442,2,29,29,31
11704315,2010,442,2,22,22,21
11704327,2010,442,2,58,54,63
11704335,2010,442,2,29,29,30
11704376,2010,442,1,28,25,30
11704384,2010,442,1,30,23,31
11704396,2010,442,1,31,27,32
11704404,2010,442,1,30,28,31
11704416,2010,442,1,25,25,28
11704424,2010,442,1,31,31,31
11704485,2010,442,2,29,28,32
11704493,2010,442,2,32,28,34
11704529,2010,442,2,52,52,54
11704542,2010,442,1,32,32,37
11704550,2010,442,1,24,22,31
11704562,2010,442,1,32,30,32
11704570,2010,442,1,87,87,72
11704582,2010,442,1,27,27,29
11704610,2010,442,2,20,19,20
11704622,2010,442,2,37,37,38
11704630,2010,442,2,36,36,36
11704642,2010,442,2,24,24,29
11704666,2010,442,2,53,53,53
11704686,2010,442,2,34,34,34
11704749,2010,442,2,23,23,22
11704769,2010,442,2,29,29,28
11704822,2010,442,2,19,19,19
11704842,2010,442,1,48,48,49
11704862,2010,442,1,22,22,23
11704882,2010,442,1,26,26,26
11704910,2010,442,1,28,28,24
11704945,2010,442,1,23,20,23
11704973,2010,442,1,23,23,20
11704985,2010,442,2,26,26,27
11705001,2010,442,2,29,29,26
11705013,2010,442,2,27,27,29
11705029,2010,442,2,30,30,28
11705054,2010,442,2,33,33,34
11705111,2010,442,2,28,28,29
11705149,2010,442,1,56,56,52
11705176,2010,442,1,45,42,45
11705196,2010,442,1,30,30,28
11705219,2010,442,2,71,66,72
11705582,2010,442,1,21,21,20
11705652,2010,442,2,31,31,31
11705740,2010,442,1,47,47,47
11705760,2010,442,1,22,22,21
11705785,2010,442,1,24,24,24
11705821,2010,442,2,29,29,30
11705841,2010,442,2,32,32,27
11705871,2010,442,2,32,32,32
11705901,2010,442,1,48,42,48
11705921,2010,442,1,29,29,28
11705928,2010,442,2,13,12,14
11705948,2010,442,2,32,32,32
11705968,2010,442,2,51,51,50
11706011,2010,442,1,19,19,19
11706038,2010,442,2,32,24,33
11706086,2010,442,2,37,37,32
11706206,2010,442,2,37,40,36
11706231,2010,442,2,39,39,37
11706261,2010,442,2,31,31,30
11706429,2010,442,2,24,24,24
11706457,2010,442,2,34,34,33
11706512,2010,442,2,25,25,30
11706559,2010,442,2,23,23,22
11706610,2010,442,2,31,31,30
11706637,2010,442,2,28,28,26
12035682,2011,442,2,28,28,28
12035769,2011,442,1,32,32,31
12035789,2011,442,1,32,32,32
12035809,2011,442,1,29,29,30
12035942,2011,442,2,30,30,31
12035998,2011,442,1,23,23,21
12036031,2011,442,1,33,35,30
12036123,2011,442,1,28,28,28
12036143,2011,442,1,31,31,26
12036179,2011,442,1,33,33,30
12036195,2011,442,1,30,24,30
12036215,2011,442,1,32,32,32
12036255,2011,442,2,34,34,31
12036275,2011,442,2,38,38,38
12036295,2011,442,2,22,22,20
12036500,2011,442,0,32,32,26
12036520,2011,442,0,36,36,35
12036574,2011,442,2,67,69,60
12036594,2011,442,2,44,44,43
12036628,2011,442,1,30,30,30
12036648,2011,442,1,31,31,31
12036696,2011,442,2,32,32,31
12036734,2011,442,1,73,72,73
12036754,2011,442,1,54,54,55
12036774,2011,442,1,64,64,63
12036794,2011,442,1,32,32,31
12036820,2011,442,2,76,78,76
12036904,2011,442,1,26,26,23
12036924,2011,442,1,40,40,33
12037058,2011,442,1,16,16,15
12037076,2011,442,1,52,52,49
12037183,2011,442,2,33,33,30
12037191,2011,442,2,70,70,72
12037203,2011,442,2,31,31,30
12037211,2011,442,2,32,32,30
12037235,2011,442,1,34,34,32
12037293,2011,442,2,73,73,73
12037476,2011,442,2,33,33,32
12037491,2011,442,1,20,20,20
12037571,2011,442,2,42,42,40
12037629,2011,442,2,27,27,30
12037670,2011,442,1,54,54,54
12037689,2011,442,1,47,47,44
12037855,2011,442,2,45,45,45
12037875,2011,442,2,54,54,54
12037923,2011,442,2,29,29,30
12037943,2011,442,2,34,34,30
12038048,2011,442,2,25,25,24
12051066,2011,442,1,33,33,32
12051086,2011,442,1,63,63,68
12051123,2011,442,2,22,19,22
12051294,2011,442,1,12,12,11
12051314,2011,442,2,26,27,25
12051354,2011,442,2,32,32,32
12051374,2011,442,2,22,22,30
12051394,2011,442,1,34,34,34
12051414,2011,442,1,35,35,34
12051453,2011,442,1,43,43,32
12051473,2011,442,1,38,38,34
12051493,2011,442,1,38,38,35
12051537,2011,442,1,32,32,31
12051573,2011,442,1,17,17,14
12051593,2011,442,1,11,11,11
12051630,2011,442,2,30,30,29
12051655,2011,442,2,34,34,19
12051699,2011,442,2,29,29,25
12051719,2011,442,2,7,7,7
12052102,2011,442,2,22,22,22
12052122,2011,442,2,61,61,62
12052138,2011,442,2,30,30,30
12052158,2011,442,1,26,27,25
12052174,2011,442,1,30,32,30
12052194,2011,442,1,32,35,30
12052198,2011,442,1,65,65,65
12052218,2011,442,1,50,50,50
12052238,2011,442,1,33,33,32
12052265,2011,442,2,30,30,30
12052285,2011,442,2,38,37,38
12052355,2011,442,2,37,41,36
12052375,2011,442,2,35,35,35
12052415,2011,442,0,53,53,30
12052465,2011,442,0,32,32,33
12052485,2011,442,0,25,25,25
12052523,2011,442,1,60,58,60
12052543,2011,442,1,28,26,28
12052563,2011,442,1,49,54,49
12052583,2011,442,1,22,20,22
12052624,2011,442,0,33,33,30
12052673,2011,442,0,38,36,37
12052685,2011,442,0,14,14,44
12052733,2011,442,2,31,33,31
12052775,2011,442,2,62,62,9
12052783,2011,442,2,14,14,13
12052791,2011,442,2,13,13,31
12052838,2011,442,2,29,27,29
12052846,2011,442,2,11,11,28
12052861,2011,442,1,28,28,27
12052893,2011,442,1,24,23,25
12053024,2011,442,0,29,28,29
12053069,2011,442,0,102,96,103
12053165,2011,442,0,40,40,39
12053371,2011,442,2,29,29,29
12053406,2011,442,1,28,28,26
12053446,2011,442,1,24,24,23
12053466,2011,442,1,55,55,55
12053486,2011,442,2,32,32,33
12053506,2011,442,2,29,29,29
12053526,2011,442,2,42,42,44
12053628,2011,442,2,31,31,32
12053644,2011,442,2,31,31,30
12053664,2011,442,1,23,23,23
12053684,2011,442,1,21,24,21
12053704,2011,442,2,29,29,29
12053724,2011,442,2,23,23,23
12053744,2011,442,2,22,22,21
12053779,2011,442,2,17,18,17
12053799,2011,442,2,22,25,17
12053844,2011,442,0,53,53,52
12053885,2011,442,2,20,20,19
12053893,2011,442,2,11,11,11
12054021,2011,442,2,35,35,34
12054077,2011,442,0,32,32,32
12054097,2011,442,0,29,31,29
12054204,2011,442,0,31,31,32
12054393,2011,442,2,10,10,11
12054480,2011,442,1,26,29,24
12054562,2011,442,1,9,9,9
12054629,2011,442,1,25,25,25
12054649,2011,442,1,22,22,22
12054669,2011,442,1,22,23,22
12054692,2011,442,2,22,22,22
12054712,2011,442,2,23,14,24
12054749,2011,442,2,31,29,31
12054791,2011,442,2,31,31,30
12054831,2011,442,2,32,28,32
12054851,2011,442,2,64,64,63
12054907,2011,442,2,32,27,32
12054943,2011,442,1,31,26,31
12054963,2011,442,1,35,35,37
12055026,2011,442,2,26,26,26
12055065,2011,442,2,NA,33,53
12055085,2011,442,2,27,26,27
12055105,2011,442,2,30,29,31
12055125,2011,442,2,33,30,28
12055145,2011,442,2,62,62,62
12055212,2011,442,2,27,23,29
12055218,2011,442,1,32,30,32
12055330,2011,442,1,26,26,27
12055350,2011,442,1,28,28,30
12055370,2011,442,1,50,50,51
12055411,2011,442,2,32,32,32
12055431,2011,442,2,31,31,31
12055513,2011,442,1,31,31,30
12055533,2011,442,1,32,32,32
12055596,2011,442,1,25,25,24
12055751,2011,442,1,31,31,30
12055810,2011,442,2,39,40,39
12055889,2011,442,1,32,30,32
12055919,2011,442,1,31,31,33
12055981,2011,442,1,33,33,34
12056066,2011,442,2,31,31,31
12056086,2011,442,2,15,15,23
12056142,2011,442,2,32,32,31
12056237,2011,442,2,63,62,63
12056267,2011,442,2,32,32,32
12056287,2011,442,2,11,14,11
12056362,2011,442,2,17,17,17
12056428,2011,442,2,33,33,33
12056444,2011,442,2,31,36,31
12056487,2011,442,1,28,28,28
12056586,2011,442,1,70,70,69
12056602,2011,442,1,32,32,32
12056618,2011,442,1,30,35,28
12056634,2011,442,1,63,63,63
12056683,2011,442,1,45,43,45
12056757,2011,442,0,31,31,32
12056777,2011,442,0,31,31,31
12056797,2011,442,0,32,32,31
12056817,2011,442,0,32,32,32
12056837,2011,442,0,32,34,32
12056861,2011,442,0,56,58,56
12056882,2011,442,0,30,30,31
12287014,2012,442,1,71,71,70
12287054,2012,442,2,35,35,31
12287074,2012,442,1,29,29,29
12287086,2012,442,1,31,31,30
12287096,2012,442,1,30,30,29
12287123,2012,442,1,28,28,27
12287132,2012,442,1,31,31,30
12287174,2012,442,1,32,32,30
12287184,2012,442,1,20,21,19
12287205,2012,442,1,67,67,62
12287238,2012,442,1,28,28,26
12287248,2012,442,1,30,34,30
12287260,2012,442,1,37,37,37
12287273,2012,442,1,39,38,36
12287285,2012,442,1,33,33,32
12287295,2012,442,1,72,72,71
12287369,2012,442,1,32,32,31
12287377,2012,442,1,30,30,30
12287389,2012,442,1,39,39,40
12287399,2012,442,1,29,32,28
12287459,2012,442,1,75,73,80
12287469,2012,442,1,22,22,24
12287479,2012,442,1,27,27,30
12287489,2012,442,1,20,20,21
12287499,2012,442,1,25,25,23
12287525,2012,442,2,34,34,34
12287535,2012,442,2,54,54,53
12287545,2012,442,2,32,32,33
12287555,2012,442,2,32,32,31
12287565,2012,442,2,30,30,30
12287575,2012,442,2,31,31,32
12287576,2012,442,2,32,30,31
12287584,2012,442,1,44,40,44
12287592,2012,442,1,68,68,67
12287606,2012,442,2,88,75,88
12287614,2012,442,2,32,30,32
12287622,2012,442,2,29,29,25
12287640,2012,442,1,28,29,28
12287648,2012,442,1,35,33,35
12287656,2012,442,2,32,32,31
12287752,2012,442,1,32,37,32
12287762,2012,442,1,28,28,29
12287772,2012,442,1,32,32,32
12287952,2012,442,0,33,33,30
12287962,2012,442,0,62,62,60
12287972,2012,442,0,56,56,56
12288021,2012,442,1,30,30,26
12288119,2012,442,1,58,58,47
12288129,2012,442,1,43,43,42
12288193,2012,442,1,45,45,43
12288291,2012,442,1,31,31,31
12288365,2012,442,2,24,24,26
12288379,2012,442,2,33,33,33
12288400,2012,442,2,30,30,31
12288469,2012,442,1,75,78,73
12288483,2012,442,1,58,58,57
12288500,2012,442,2,23,21,31
12288514,2012,442,2,26,26,24
12288528,2012,442,2,30,30,28
12288542,2012,442,2,101,101,100
12288624,2012,442,2,30,30,31
12288636,2012,442,2,37,35,37
12288648,2012,442,2,32,32,39
12288749,2012,442,0,27,27,28
12288761,2012,442,0,35,30,35
12288773,2012,442,0,19,19,21
12288785,2012,442,0,31,34,27
12288842,2012,442,2,20,20,22
12288862,2012,442,2,88,90,87
12288887,2012,442,2,53,51,53
12288901,2012,442,1,30,27,30
12288911,2012,442,2,20,15,20
12288917,2012,442,2,22,22,24
12288923,2012,442,2,27,27,27
12288931,2012,442,1,38,57,38
12288937,2012,442,1,30,30,30
12288943,2012,442,1,61,61,59
12288949,2012,442,1,32,31,32
12289063,2012,442,2,29,29,27
12295564,2012,442,1,21,19,23
12295599,2012,442,1,17,17,17
12295763,2012,442,2,16,16,17
12295893,2012,442,2,24,24,23
12295976,2012,442,2,30,30,30
12296056,2012,442,2,33,33,35
12296091,2012,442,2,31,31,30
12296219,2012,442,2,52,52,53
12296309,2012,442,1,25,25,23
12296514,2012,442,2,10,10,10
12296625,2012,442,2,26,26,25
12296748,2012,442,2,85,82,87
12296851,2012,442,2,48,48,48
12296956,2012,442,1,10,10,9
12297086,2012,442,2,50,50,49
12297162,2012,442,1,26,26,27
12297257,2012,442,2,16,16,16
12297277,2012,442,2,40,40,38
12297311,2012,442,2,36,36,35
12297331,2012,442,2,31,31,31
12297974,2012,442,2,81,78,86
12298058,2012,442,1,31,31,24
12298170,2012,442,1,35,35,30
12298200,2012,442,1,25,26,23
12298292,2012,442,1,30,27,30
12298436,2012,442,2,24,25,23
12298473,2012,442,2,28,28,28
12298504,2012,442,1,31,31,28
12298535,2012,442,2,19,19,20
12298565,2012,442,2,30,30,27
12298627,2012,442,2,26,26,27
12298654,2012,442,2,30,30,29
12298726,2012,442,1,21,21,22
12298756,2012,442,2,52,52,51
12298786,2012,442,2,39,39,37
12298811,2012,442,1,39,39,39
12298836,2012,442,1,26,26,22
12298861,2012,442,2,28,28,28
12298886,2012,442,2,26,26,24
12298911,2012,442,1,19,19,21
12298936,2012,442,1,62,62,61
12298961,2012,442,2,56,56,53
12298986,2012,442,2,50,50,49
12299041,2012,442,1,31,31,31
12299066,2012,442,1,56,57,56
12299190,2012,442,2,78,78,76
12299220,2012,442,2,65,65,65
12299253,2012,442,1,84,84,84
12299301,2012,442,2,14,14,15
12299331,2012,442,2,56,56,52
12299360,2012,442,2,20,20,20
12299425,2012,442,2,24,24,23
12299478,2012,442,1,18,18,18
12299508,2012,442,1,29,29,28
12299538,2012,442,2,18,18,23
12299635,2012,442,1,34,34,33
12299660,2012,442,1,64,64,65
12299766,2012,442,2,22,22,22
12299790,2012,442,2,25,24,25
12299815,2012,442,2,30,29,30
12299844,2012,442,2,32,32,31
12299875,2012,442,2,28,30,28
12299907,2012,442,1,34,34,36
12300067,2012,442,1,28,28,28
12300092,2012,442,1,11,11,16
12300235,2012,442,1,31,31,29
12300255,2012,442,1,26,30,24
12300275,2012,442,1,30,33,32
12300359,2012,442,2,27,27,31
12300379,2012,442,2,31,31,31
12300399,2012,442,2,9,9,8
12300439,2012,442,2,32,30,32
12300457,2012,442,1,21,22,21
12300564,2012,442,2,46,46,46
12300598,2012,442,1,54,54,55
12300652,2012,442,1,26,26,28
12300700,2012,442,3,8,8,10
12300744,2012,442,1,11,11,11
12300926,2012,442,2,10,8,10
12300951,2012,442,2,27,27,29
12301006,2012,442,1,27,28,27
12301058,2012,442,2,28,28,29
12301063,2012,442,2,7,6,7
12301115,2012,442,2,26,26,26
12301140,2012,442,2,41,41,39
12301238,2012,442,2,10,9,10
12301258,2012,442,2,27,28,27
12301465,2012,442,2,54,54,53
12301485,2012,442,2,27,27,27
12301533,2012,442,1,30,30,31
12301615,2012,442,1,27,27,30
12301653,2012,442,1,21,23,21
12301698,2012,442,1,15,15,17
12301783,2012,442,2,29,29,30
12301821,2012,442,1,46,46,46
13216607,2014,442,1,38,38,40
13216695,2014,442,2,26,26,26
13216787,2014,442,1,19,19,20
13216819,2014,442,1,33,33,36
13216865,2014,442,1,36,36,34
13216888,2014,442,2,32,32,32
13216900,2014,442,2,14,14,14
13216948,2014,442,1,29,29,30
13217063,2014,442,2,32,33,32
13217073,2014,442,2,25,25,24
13217078,2014,442,1,74,74,73
13217084,2014,442,1,35,35,34
13217089,2014,442,1,22,23,22
13217095,2014,442,1,14,14,13
13217101,2014,442,1,31,31,33
13217107,2014,442,1,34,36,34
13217136,2014,442,1,27,25,27
13217142,2014,442,1,30,30,29
13217148,2014,442,1,20,20,21
13217233,2014,442,1,12,12,12
13217438,2014,442,1,33,33,33
13217562,2014,442,2,30,30,32
13217735,2014,442,1,46,46,47
13217753,2014,442,2,26,26,29
13217794,2014,442,2,32,32,31
13217832,2014,442,1,46,46,49
13217896,2014,442,2,13,13,12
13217908,2014,442,2,14,20,14
13217920,2014,442,2,34,34,34
13217963,2014,442,1,34,34,34
13217975,2014,442,1,38,38,38
13218027,2014,442,1,40,40,40
13218039,2014,442,1,34,34,34
13218154,2014,442,1,50,50,47
13218208,2014,442,1,34,34,34
13218220,2014,442,1,33,33,33
13218267,2014,442,2,33,33,34
13218279,2014,442,2,58,58,62
13218318,2014,442,2,54,54,44
13218330,2014,442,2,12,15,20
13218342,2014,442,2,33,33,34
13218354,2014,442,2,31,31,34
13218366,2014,442,2,23,23,25
13218383,2014,442,1,22,22,28
13218395,2014,442,1,38,38,39
13218407,2014,442,1,33,33,31
13218419,2014,442,1,22,22,25
13218452,2014,442,1,33,33,33
13218462,2014,442,1,32,32,31
13218472,2014,442,1,55,55,55
13218482,2014,442,1,66,66,64
13218492,2014,442,1,73,73,72
13218528,2014,442,1,35,35,35
13218538,2014,442,1,42,42,35
13218548,2014,442,1,31,31,31
13218558,2014,442,1,38,45,34
13218568,2014,442,1,34,40,34
13218593,2014,442,2,32,32,32
13218642,2014,442,2,20,20,24
13218656,2014,442,2,61,61,72
13218670,2014,442,2,45,45,45
13218724,2014,442,2,27,27,28
13218738,2014,442,2,55,47,57
13218752,2014,442,2,27,27,27
13218766,2014,442,2,39,35,39
13218794,2014,442,1,31,31,30
13218808,2014,442,1,46,46,47
13218827,2014,442,1,34,34,33
13218860,2014,442,2,17,17,16
13218874,2014,442,2,22,22,24
13218960,2014,442,1,33,34,33
13219056,2014,442,1,61,72,62
13219121,2014,442,1,40,43,33
13219131,2014,442,1,36,43,36
13219179,2014,442,2,32,32,30
13219255,2014,442,1,13,13,12
13219322,2014,442,2,26,27,26
13219446,2014,442,2,34,34,33
13219496,2014,442,2,39,45,36
13219506,2014,442,2,32,32,31
13219536,2014,442,1,33,33,31
13219546,2014,442,1,39,39,36
13219556,2014,442,1,39,24,29
13219566,2014,442,1,42,43,41
13219598,2014,442,1,35,35,33
13219608,2014,442,1,29,29,25
13219618,2014,442,1,62,62,61
13219628,2014,442,1,63,63,61
13219657,2014,442,2,31,31,29
13219667,2014,442,2,24,24,25
13219677,2014,442,2,34,34,39
13219687,2014,442,2,24,24,23
13219697,2014,442,2,46,46,44
13219713,2014,442,1,30,30,32
13219723,2014,442,1,43,43,37
13219733,2014,442,1,33,33,31
13219743,2014,442,1,59,59,58
13219753,2014,442,1,33,33,33
13219763,2014,442,2,27,27,35
13219785,2014,442,1,35,35,37
13219845,2014,442,2,62,62,59
13219857,2014,442,2,32,32,31
13219869,2014,442,2,36,36,34
13219881,2014,442,2,43,43,44
13219902,2014,442,1,51,51,50
13219914,2014,442,1,35,35,34
13219926,2014,442,1,34,34,35
13219938,2014,442,1,35,35,36
13220107,2014,442,2,38,38,36
13220117,2014,442,2,32,34,32
13220127,2014,442,2,33,33,34
13220167,2014,442,2,28,28,28
13220177,2014,442,2,20,16,21
13220187,2014,442,2,33,33,33
13220216,2014,442,1,14,14,14
13220226,2014,442,1,34,34,34
13220236,2014,442,1,24,24,24
13220244,2014,442,1,31,31,36
13220247,2014,442,2,50,50,50
13220264,2014,442,1,34,34,32
13220272,2014,442,1,33,33,31
13220282,2014,442,1,36,36,33
13220290,2014,442,1,43,43,43
13220300,2014,442,1,31,31,31
13220354,2014,442,2,39,39,38
13220364,2014,442,2,40,40,41
13220372,2014,442,2,24,21,22
13220382,2014,442,2,30,30,30
13220407,2014,442,1,40,40,42
13220419,2014,442,1,25,25,25
13220431,2014,442,1,38,38,38
13220443,2014,442,1,25,25,25
13220472,2014,442,2,42,42,42
13220484,2014,442,2,34,34,34
13220496,2014,442,2,33,33,34
13220508,2014,442,2,24,24,26
13220528,2014,442,2,57,57,59
13220538,2014,442,2,14,13,14
13220548,2014,442,1,84,84,80
13220558,2014,442,1,12,12,13
13220568,2014,442,1,36,36,33
13220578,2014,442,1,36,36,34
13220622,2014,442,2,26,26,24
13220658,2014,442,2,36,36,36
13220692,2014,442,1,34,35,33
13220725,2014,442,1,14,14,14
13220773,2014,442,1,32,32,32
13220783,2014,442,1,24,24,25
13220850,2014,442,2,14,14,13
13220888,2014,442,2,30,30,32
13220929,2014,442,1,29,30,29
13221005,2014,442,2,14,14,14
13221011,2014,442,2,65,65,64
13221022,2014,442,2,25,25,24
13221028,2014,442,2,33,33,33
13221034,2014,442,2,32,32,33
13221040,2014,442,2,25,26,25
13221046,2014,442,2,24,24,23
13221071,2014,442,1,32,35,32
13221085,2014,442,1,32,32,32
13221099,2014,442,1,45,45,45
13221113,2014,442,1,38,38,40
13221200,2014,442,2,27,27,27
13221214,2014,442,2,32,32,32
13221228,2014,442,2,36,36,36
13221242,2014,442,2,26,26,25
13221280,2014,442,1,16,16,18
13221294,2014,442,1,32,34,32
13221308,2014,442,1,14,15,14
13221353,2014,442,2,33,30,35
13221390,2014,442,2,32,32,33
13221418,2014,442,2,21,21,22
13221432,2014,442,2,35,35,35
13458320,2014,442,2,39,39,38
13458336,2014,442,1,43,43,43
13458343,2014,442,1,34,34,35
13458363,2014,442,3,20,20,21
13458390,2014,442,1,33,33,34
13458396,2014,442,1,26,26,26
13458403,2014,442,1,32,32,31
13458419,2014,442,2,34,34,34
13458542,2014,442,1,27,27,27
13458548,2014,442,1,35,35,35
13458573,2014,442,1,57,57,57
13458579,2014,442,1,34,34,34
13458586,2014,442,1,36,36,35
13458599,2014,442,1,25,25,26
13458658,2014,442,2,32,30,34
13458664,2014,442,2,36,36,36
13458670,2014,442,2,29,29,29
13458676,2014,442,1,79,79,79
13458683,2014,442,2,43,50,43
13458689,2014,442,2,41,32,41
13458717,2014,442,2,32,31,32
13458723,2014,442,2,48,50,47
13458729,2014,442,2,62,61,62
13458745,2014,442,2,68,68,70
13458770,2014,442,1,34,34,35
13458776,2014,442,1,43,43,42
13458785,2014,442,1,34,32,35
13458792,2014,442,1,34,30,34
13458798,2014,442,1,28,28,29
13458826,2014,442,1,33,31,34
13458843,2014,442,2,39,40,37
13458850,2014,442,2,25,21,29
13458857,2014,442,2,24,24,23
13458864,2014,442,2,34,34,32
13458871,2014,442,2,24,24,24
13458906,2014,442,0,31,31,33
13458913,2014,442,0,35,33,36
13458920,2014,442,0,32,32,31
13458927,2014,442,0,29,26,29
13458934,2014,442,0,99,90,99
13458941,2014,442,0,44,30,44
13458948,2014,442,0,27,27,30
13459030,2014,442,2,18,18,24
13459120,2014,442,1,33,33,31
13459125,2014,442,1,37,37,35
13459130,2014,442,1,62,62,65
13459135,2014,442,1,32,32,32
13459140,2014,442,1,34,34,34
13459145,2014,442,1,75,75,59
13459150,2014,442,1,85,85,87
13459155,2014,442,1,36,36,37
13459160,2014,442,1,65,65,65
13459165,2014,442,1,34,34,32
13459210,2014,442,3,37,37,37
13459214,2014,442,3,38,41,38
13459218,2014,442,3,31,31,29
13459222,2014,442,3,51,51,54
13459227,2014,442,3,32,32,32
13459231,2014,442,3,34,34,34
13459240,2014,442,2,70,70,71
13459244,2014,442,2,34,34,33
13459248,2014,442,2,31,34,32
13459252,2014,442,2,40,40,36
13459258,2014,442,3,50,50,48
13459276,2014,442,2,33,33,31
13459282,2014,442,2,25,25,27
13459288,2014,442,2,42,42,46
13459294,2014,442,2,34,34,32
13459300,2014,442,2,30,30,31
13459306,2014,442,2,35,35,37
13459312,2014,442,2,25,25,24
13459318,2014,442,2,37,37,30
13459324,2014,442,2,31,31,31
13459330,2014,442,2,33,33,34
13459336,2014,442,2,32,32,31
13459349,2014,442,2,70,70,67
13459412,2014,442,1,28,28,26
13459419,2014,442,1,31,31,30
13459428,2014,442,1,22,22,17
13459435,2014,442,1,31,30,35
13459448,2014,442,2,34,33,34
13459455,2014,442,2,50,52,50
13459462,2014,442,2,30,30,27
13459484,2014,442,1,49,49,48
13459491,2014,442,1,32,32,31
13459588,2014,442,1,60,57,60
13459619,2014,442,2,22,22,22
13459655,2014,442,2,53,53,53
13459662,2014,442,2,33,33,32
13459669,2014,442,2,30,30,30
13459676,2014,442,2,17,16,17
13459787,2014,442,2,42,42,44
13459792,2014,442,2,16,16,16
13459805,2014,442,1,18,18,18
13459812,2014,442,1,32,32,32
13459882,2014,442,1,66,66,64
13460048,2014,442,2,33,39,33
13460080,2014,442,2,50,50,51
13460167,2014,442,2,30,30,28
13460179,2014,442,2,30,30,30
13460190,2014,442,1,25,25,28
13460355,2014,442,2,32,30,32
13460392,2014,442,1,31,31,31
13460421,2014,442,2,31,31,30
13460428,2014,442,2,34,34,37
13460435,2014,442,2,34,34,34
13512441,2015,442,1,26,26,26
13512448,2015,442,1,38,33,38
13512455,2015,442,1,34,37,34
13512484,2015,442,2,30,30,31
13512490,2015,442,2,34,32,34
13512497,2015,442,2,62,62,64
13512504,2015,442,2,45,45,46
13512511,2015,442,2,30,24,33
13512518,2015,442,2,37,33,37
13512525,2015,442,2,20,20,19
13512532,2015,442,2,61,59,64
13512539,2015,442,2,42,42,35
13512546,2015,442,2,31,31,31
13512553,2015,442,2,38,38,35
13512560,2015,442,2,54,47,54
13512567,2015,442,2,57,52,57
13512574,2015,442,2,26,26,25
13512582,2015,442,2,33,33,30
13512589,2015,442,2,33,33,34
13512596,2015,442,2,27,27,28
13512603,2015,442,2,59,54,62
13512610,2015,442,2,42,45,41
13512644,2015,442,1,38,38,37
13512653,2015,442,1,79,79,77
13512684,2015,442,1,52,52,52
13512691,2015,442,1,37,37,38
13512698,2015,442,1,34,34,33
13512705,2015,442,1,32,28,32
13512712,2015,442,1,35,35,33
13512719,2015,442,1,36,36,32
13512726,2015,442,1,36,36,34
13512733,2015,442,1,33,33,35
13512740,2015,442,1,31,31,30
13512758,2015,442,1,35,35,35
13512764,2015,442,1,28,30,28
13512770,2015,442,1,58,58,56
13512776,2015,442,1,37,37,35
13512782,2015,442,1,44,44,44
13512800,2015,442,1,27,29,26
13512864,2015,442,2,40,40,40
13512870,2015,442,2,34,36,34
13512892,2015,442,1,34,32,34
13512962,2015,442,1,38,38,38
13513075,2015,442,2,29,29,26
13513080,2015,442,2,68,68,68
13513085,2015,442,2,57,57,62
13513090,2015,442,2,35,35,32
13513136,2015,442,2,32,32,31
13513141,2015,442,2,26,26,27
13513146,2015,442,2,14,10,20
13513151,2015,442,2,21,21,22
13513156,2015,442,2,31,25,30
13513161,2015,442,2,30,30,30
13513173,2015,442,1,30,30,29
13513177,2015,442,1,25,25,25
13513181,2015,442,1,33,33,33
13513197,2015,442,1,17,17,18
13513201,2015,442,1,25,25,25
13513205,2015,442,1,24,22,26
13513209,2015,442,1,56,56,57
13513243,2015,442,1,35,35,35
13513254,2015,442,1,65,65,67
13513258,2015,442,1,13,13,14
13513274,2015,442,2,43,43,41
13513277,2015,442,2,28,32,28
13513282,2015,442,2,32,48,33
13513285,2015,442,2,32,38,32
13513288,2015,442,2,18,24,15
13513291,2015,442,2,62,62,56
13513363,2015,442,1,38,38,38
13513384,2015,442,2,24,28,25
13513444,2015,442,0,20,20,21
13513513,2015,442,1,47,50,47
13513520,2015,442,1,35,35,34
13513524,2015,442,1,37,35,37
13513559,2015,442,1,35,35,35
13513566,2015,442,1,31,31,42
13513573,2015,442,1,32,32,31
13513580,2015,442,1,33,27,34
13513587,2015,442,1,25,25,27
13513594,2015,442,1,56,56,55
13513627,2015,442,2,23,23,25
13513634,2015,442,1,31,31,32
13513649,2015,442,1,26,23,26
13513656,2015,442,1,34,34,31
13513663,2015,442,1,33,33,38
13513670,2015,442,1,75,70,72
13513677,2015,442,1,39,39,40
13513718,2015,442,0,61,61,60
13513724,2015,442,0,33,33,33
13513731,2015,442,0,26,25,26
13513738,2015,442,0,30,30,30
13513765,2015,442,2,34,32,35
13513791,2015,442,1,41,41,42
13513798,2015,442,1,34,34,34
13513805,2015,442,1,57,57,58
13513812,2015,442,1,35,37,35
13513823,2015,442,2,45,51,45
13513880,2015,442,1,78,73,75
13513890,2015,442,1,34,34,34
13513914,2015,442,2,36,34,37
13513924,2015,442,1,34,30,34
13513930,2015,442,1,34,33,34
13513936,2015,442,1,36,36,35
13513942,2015,442,1,24,24,26
13513948,2015,442,1,26,25,26
13513954,2015,442,1,33,29,34
13513960,2015,442,1,42,37,42
13513966,2015,442,1,35,33,35
13513972,2015,442,1,36,36,36
13514036,2015,442,1,47,45,47
13514042,2015,442,1,35,35,35
13514067,2015,442,1,42,32,42
13514081,2015,442,2,33,33,32
13523711,2015,442,2,32,32,31
13523737,2015,442,1,74,74,74
13523924,2015,442,2,69,66,70
13523934,2015,442,2,46,46,48
13523987,2015,442,1,44,44,48
13524011,2015,442,2,55,55,55
13524130,2015,442,2,73,73,72
13524185,2015,442,1,11,11,11
13524267,2015,442,1,20,20,19
13524277,2015,442,1,25,26,24
13524290,2015,442,2,32,32,34
13524300,2015,442,2,29,29,31
13524310,2015,442,2,33,29,39
13524320,2015,442,2,23,23,23
13524330,2015,442,2,33,22,36
13524340,2015,442,2,24,21,26
13524350,2015,442,2,59,59,59
13524360,2015,442,2,47,41,47
13524370,2015,442,2,8,8,7
13524380,2015,442,2,33,33,32
13524398,2015,442,2,26,26,24
13524406,2015,442,2,27,35,22
13524414,2015,442,2,27,27,26
13524422,2015,442,2,34,34,33
13524430,2015,442,2,27,27,25
13524437,2015,442,2,47,47,42
13524445,2015,442,2,16,16,16
13524453,2015,442,2,65,65,65
13524461,2015,442,2,43,43,41
13524469,2015,442,2,36,40,35
13524479,2015,442,2,24,24,27
13524491,2015,442,2,30,30,34
13524503,2015,442,2,27,27,27
13524515,2015,442,2,56,56,56
13524542,2015,442,1,65,65,63
13524554,2015,442,1,36,28,37
13524566,2015,442,1,32,32,33
13524593,2015,442,1,32,29,31
13524605,2015,442,1,30,30,32
13524617,2015,442,1,29,29,30
13524646,2015,442,1,24,24,26
13524658,2015,442,1,32,32,33
13524671,2015,442,1,36,36,38
13524683,2015,442,1,25,25,28
13524696,2015,442,1,27,27,28
13524710,2015,442,1,34,34,35
13524722,2015,442,1,19,19,19
13524734,2015,442,2,29,29,28
13524746,2015,442,2,16,15,19
13524758,2015,442,2,27,27,28
13524808,2015,442,1,12,12,12
13524832,2015,442,1,15,14,15
13524856,2015,442,1,35,35,33
13524866,2015,442,1,28,24,28
13524876,2015,442,1,19,19,20
13524885,2015,442,1,25,28,26
13524895,2015,442,1,64,64,61
13524974,2015,442,2,30,30,29
13524986,2015,442,2,36,36,36
13525037,2015,442,2,35,36,34
13525049,2015,442,2,21,21,20
13525112,2015,442,1,65,65,52
13525124,2015,442,1,36,36,35
13525136,2015,442,1,65,65,61
13525148,2015,442,1,38,38,38
13525174,2015,442,1,67,67,67
13525186,2015,442,1,18,20,18
13525221,2015,442,1,26,26,22
13525237,2015,442,1,32,32,36
13525254,2015,442,2,29,29,29
13525286,2015,442,2,52,52,52
13525302,2015,442,2,31,31,33
13525351,2015,442,2,16,15,17
13525435,2015,442,1,13,13,12
13525443,2015,442,1,37,37,33
13525469,2015,442,1,32,31,32
13525485,2015,442,1,12,12,12
13525516,2015,442,1,25,25,24
13525526,2015,442,1,31,31,31
13525544,2015,442,1,31,28,31
13525554,2015,442,1,18,18,18
13525581,2015,442,1,42,42,42
13525591,2015,442,1,64,64,63
13525627,2015,442,1,15,15,15
13525637,2015,442,1,45,45,44
13525662,2015,442,2,30,30,32
13525672,2015,442,2,33,31,33
13525681,2015,442,2,32,18,34
13525691,2015,442,2,57,57,62
13525714,2015,442,1,34,34,35
13525724,2015,442,1,32,32,33
13525749,2015,442,1,6,10,5
13525759,2015,442,1,18,14,18
13525786,2015,442,2,13,13,13
13525796,2015,442,2,14,14,14
13525827,2015,442,2,33,33,33
13525848,2015,442,1,36,36,35
13525869,2015,442,2,31,31,34
13525879,2015,442,2,47,47,47
13525885,2015,442,1,37,37,32
13525918,2015,442,1,21,21,22
13525928,2015,442,1,19,19,19
13525938,2015,442,2,34,34,34
13525948,2015,442,2,31,31,29
13525958,2015,442,2,62,62,58
13525968,2015,442,2,55,55,53
13525978,2015,442,2,60,60,58
13526003,2015,442,1,37,37,36
13526013,2015,442,1,36,36,34
13526033,2015,442,2,75,75,79
13526045,2015,442,2,29,29,26
13526057,2015,442,2,29,29,26
13526071,2015,442,1,68,68,60
13526083,2015,442,1,40,33,40
13526118,2015,442,1,65,58,65
13526209,2015,442,1,35,35,36
13526223,2015,442,1,64,64,65
13526274,2015,442,1,22,22,20
13526288,2015,442,1,18,18,16
13526382,2015,442,1,25,25,24
13526477,2015,442,2,58,58,64
13526487,2015,442,2,32,32,33
13526497,2015,442,2,89,89,90
13526613,2015,442,1,39,35,44
13526623,2015,442,1,41,41,40
13526669,2015,442,1,62,63,62
13526679,2015,442,1,19,19,20
13526726,2015,442,2,30,26,32
13526738,2015,442,2,31,31,32
13526776,2015,442,2,28,30,27
13526786,2015,442,2,35,35,35
13526796,2015,442,2,30,33,30
13526835,2015,442,2,29,29,27
13526845,2015,442,2,27,32,31
13526890,2015,442,2,25,25,27
13526900,2015,442,2,31,31,31
13526949,2015,442,2,38,38,35
13526959,2015,442,2,20,20,20
13527094,2015,442,2,13,13,11
13527301,2015,442,2,25,25,26
13527357,2015,442,2,86,86,85
13527462,2015,442,2,26,26,26
13527603,2015,442,1,31,31,30
13527625,2015,442,2,29,31,29
13527639,2015,442,2,28,28,28
13527675,2015,442,2,48,48,49
13527689,2015,442,2,47,47,30
13527717,2015,442,2,32,32,26
13527731,2015,442,2,36,36,33
13527743,2015,442,2,32,32,33
13527755,2015,442,2,15,15,15
13527763,2015,442,2,14,20,12
13527777,2015,442,2,24,24,25
13527829,2015,442,1,12,12,12
13527878,2015,442,2,33,28,33
13527915,2015,442,2,60,55,58
13527929,2015,442,2,55,55,55
13527943,2015,442,2,30,28,30
13527957,2015,442,2,31,29,31
13527978,2015,442,1,48,43,48
13527998,2015,442,1,36,33,36
13528037,2015,442,2,13,13,13
13528051,2015,442,2,37,35,37
13528068,2015,442,2,10,10,10
13528194,2015,442,2,67,67,68
13528212,2015,442,1,10,10,11
13528240,2015,442,2,31,31,28
13528250,2015,442,2,35,35,31
13528293,2015,442,1,13,13,14
13528303,2015,442,1,31,32,31
13528337,2015,442,1,35,35,31
13528347,2015,442,1,36,36,34
13528385,2015,442,1,34,34,34
13528395,2015,442,1,55,60,58
13528429,2015,442,1,42,42,37
13528454,2015,442,2,31,31,31
13528494,2015,442,1,33,33,33
13528596,2015,442,2,21,21,21
13528606,2015,442,2,15,16,15
13528616,2015,442,1,36,36,38
13528653,2015,442,2,32,32,35
13528663,2015,442,2,40,40,40
13528673,2015,442,2,50,43,50
13528683,2015,442,2,37,37,37
13528716,2015,442,1,20,25,20
13528729,2015,442,1,30,30,26
13528790,2015,442,1,12,12,12
13528859,2015,442,2,30,30,29
13528876,2015,442,2,28,28,28
13528900,2015,442,2,52,52,50
13528921,2015,442,2,30,35,30
13528980,2015,442,1,34,36,34
13528992,2015,442,1,37,37,35
13529019,2015,442,1,22,22,23
15082399,2016,442,1,42,42,40
15082411,2016,442,1,37,37,37
15082423,2016,442,1,34,34,32
15082453,2016,442,2,36,36,35
15082490,2016,442,1,7,8,7
15082518,2016,442,1,27,27,26
15082556,2016,442,1,17,18,16
15082580,2016,442,1,36,36,35
15082603,2016,442,1,36,36,36
15082627,2016,442,1,27,27,35
15082663,2016,442,1,34,34,37
15082671,2016,442,1,36,36,37
15082708,2016,442,2,28,28,30
15082724,2016,442,2,30,30,32
15082740,2016,442,2,16,16,16
15082789,2016,442,2,26,26,26
15082797,2016,442,2,40,40,36
15082846,2016,442,2,38,38,33
15082854,2016,442,2,36,36,38
15083079,2016,442,2,25,25,24
15083111,2016,442,2,38,38,36
15083123,2016,442,2,36,36,37
15083135,2016,442,2,41,41,39
15083168,2016,442,1,52,52,50
15083331,2016,442,2,10,11,10
15083363,2016,442,2,34,33,34
15083385,2016,442,1,35,37,35
15083420,2016,442,2,35,35,35
15083470,2016,442,2,22,23,22
15083490,2016,442,2,39,39,38
15083526,2016,442,2,15,15,14
15083556,2016,442,1,43,43,37
15083576,2016,442,2,36,36,34
15083607,2016,442,1,12,12,11
15083636,2016,442,1,41,41,39
15083651,2016,442,2,40,40,39
15083686,2016,442,2,43,43,41
15083757,2016,442,2,13,13,12
15083769,2016,442,2,29,29,25
15083808,2016,442,2,38,38,31
15083908,2016,442,2,19,19,17
15084014,2016,442,2,21,21,21
15084020,2016,442,2,15,15,14
15084052,2016,442,1,17,17,15
15084162,2016,442,2,16,16,14
15084566,2016,442,1,40,40,39
15084603,2016,442,2,12,12,14
15084615,2016,442,2,32,32,33
15084648,2016,442,2,12,12,12
15084680,2016,442,2,29,29,27
15084700,2016,442,2,17,17,16
15084766,2016,442,1,30,30,29
15084786,2016,442,1,37,37,37
15084806,2016,442,1,34,34,33
15084826,2016,442,2,35,35,36
15084896,2016,442,2,28,28,28
15084921,2016,442,2,20,20,21
15084946,2016,442,1,33,33,35
15084971,2016,442,1,34,34,35
15085023,2016,442,1,34,32,34
15085048,2016,442,1,31,25,31
15085139,2016,442,1,75,72,77
15085185,2016,442,2,28,28,28
15085200,2016,442,2,45,41,45
15085353,2016,442,2,36,36,36
15085683,2016,442,1,26,26,24
15085713,2016,442,1,37,37,38
15085769,2016,442,2,38,38,36
15085851,2016,442,2,51,51,49
15085876,2016,442,2,21,21,22
15085938,2016,442,2,38,38,39
15085987,2016,442,1,77,77,77
15086006,2016,442,2,60,60,58
15086031,2016,442,2,27,27,27
15086063,2016,442,1,37,37,36
15086105,2016,442,1,34,34,37
15086146,2016,442,1,30,30,32
15086174,2016,442,2,39,39,37
15086204,2016,442,2,38,38,40
15086244,2016,442,1,29,29,27
15086299,2016,442,2,36,36,38
15086392,2016,442,2,20,20,22
15086422,2016,442,2,15,15,16
15086484,2016,442,1,31,31,31
15137543,2016,442,2,45,45,45
15137568,2016,442,1,22,22,22
15137595,2016,442,1,31,31,31
15137620,2016,442,1,41,41,39
15137632,2016,442,1,44,36,45
15137644,2016,442,1,33,33,35
15137778,2016,442,2,56,56,55
15137790,2016,442,2,29,29,27
15137802,2016,442,2,34,34,36
15137814,2016,442,2,26,26,26
15137877,2016,442,2,60,55,60
15137895,2016,442,2,37,37,37
15137906,2016,442,1,25,25,30
15137931,2016,442,1,37,41,39
15137960,2016,442,1,34,34,36
15138010,2016,442,1,42,42,40
15138060,2016,442,1,36,36,38
15138145,2016,442,1,37,37,37
15138175,2016,442,1,34,34,34
15138258,2016,442,1,34,34,34
15138316,2016,442,1,37,37,39
15138355,2016,442,1,29,29,29
15138393,2016,442,1,30,30,28
15138408,2016,442,2,37,37,37
15138477,2016,442,2,36,36,38
15138497,2016,442,2,45,45,45
15138535,2016,442,1,47,47,48
15138582,2016,442,2,25,25,23
15138594,2016,442,2,26,26,25
15138651,2016,442,1,37,37,37
15138787,2016,442,1,23,23,23
15138793,2016,442,1,15,15,15
15138822,2016,442,2,35,35,35
15138842,2016,442,1,11,11,12
15138875,2016,442,1,60,59,63
15138935,2016,442,1,19,19,21
15138981,2016,442,2,36,36,38
15139007,2016,442,2,33,33,33
15139019,2016,442,2,29,29,28
15139035,2016,442,2,37,37,37
15139059,2016,442,2,33,33,33
15139122,2016,442,2,36,33,41
15139177,2016,442,2,40,40,42
15139195,2016,442,1,40,41,39
15139205,2016,442,1,20,20,25
15139215,2016,442,1,38,38,38
15139227,2016,442,1,35,35,36
15139237,2016,442,1,29,29,29
15139247,2016,442,1,67,67,68
15139257,2016,442,1,33,33,31
15139297,2016,442,1,35,35,33
15139305,2016,442,1,19,19,18
15139313,2016,442,1,37,37,35
15139376,2016,442,2,33,33,34
15139461,2016,442,0,18,18,17
15139481,2016,442,0,27,27,28
15139552,2016,442,1,46,46,48
15139569,2016,442,1,60,60,54
15139585,2016,442,1,35,35,34
15139601,2016,442,1,37,37,32
15598565,2017,442,2,43,43,43
15598688,2017,442,2,38,38,38
15598718,2017,442,2,31,31,32
15598846,2017,442,2,32,32,32
15599054,2017,442,2,10,10,10
15599109,2017,442,1,15,17,13
15599207,2017,442,2,13,13,14
15599261,2017,442,1,37,37,37
15599324,2017,442,1,38,38,38
15599354,2017,442,1,41,41,36
15599378,2017,442,1,37,37,38
15599403,2017,442,2,37,37,35
15599428,2017,442,2,51,51,53
15599906,2017,442,2,33,33,32
15599931,2017,442,1,13,13,12
15599956,2017,442,2,13,13,14
15599960,2017,442,2,36,36,35
15600005,2017,442,2,32,32,32
15600030,2017,442,2,21,21,23
15600140,2017,442,1,17,22,18
15600174,2017,442,1,43,43,44
15600218,2017,442,2,28,28,28
15600226,2017,442,2,18,18,19
15600263,2017,442,1,12,12,12
15600296,2017,442,1,8,8,8
15600335,2017,442,1,15,14,15
15600343,2017,442,1,8,8,8
15600369,2017,442,1,16,15,16
15600437,2017,442,1,34,34,35
15600502,2017,442,1,22,22,23
15600541,2017,442,2,92,92,90
15600553,2017,442,2,65,67,62
15600564,2017,442,2,49,49,44
15600582,2017,442,2,60,71,50
15600594,2017,442,2,26,29,21
15600612,2017,442,2,42,42,35
15600630,2017,442,2,62,65,55
15600642,2017,442,2,21,25,11
15600780,2017,442,1,29,24,29
15600786,2017,442,1,54,54,52
15600845,2017,442,2,36,39,35
15600853,2017,442,2,38,38,38
15600863,2017,442,2,16,16,15
15600917,2017,442,2,99,99,101
15600950,2017,442,2,20,20,19
15601012,2017,442,2,55,55,56
15601037,2017,442,2,70,70,71
15601047,2017,442,2,54,55,53
15601145,2017,442,2,9,9,10
15601212,2017,442,1,20,20,19
15601536,2017,442,1,18,18,17
15601640,2017,442,2,31,31,29
15601808,2017,442,1,12,12,10
15601850,2017,442,2,29,29,29
15601862,2017,442,2,35,35,32
15601879,2017,442,2,27,27,23
15601885,2017,442,2,15,15,15
15601896,2017,442,2,26,26,25
15601902,2017,442,2,59,59,59
15601908,2017,442,2,11,11,12
15602023,2017,442,2,47,47,47
15602137,2017,442,2,37,37,35
15602159,2017,442,2,29,29,29
15602186,2017,442,2,18,18,18
15602206,2017,442,2,26,26,27
15602246,2017,442,1,13,13,13
15602320,2017,442,1,31,31,28
15602383,2017,442,1,40,40,39
15602410,2017,442,1,26,26,26
15602430,2017,442,1,21,21,21
15602460,2017,442,1,29,29,29
15602494,2017,442,2,56,56,56
15602524,2017,442,1,30,30,30
15602546,2017,442,1,22,21,24
15602576,2017,442,1,17,17,18
15602618,2017,442,2,17,17,17
15602686,2017,442,1,33,33,32
15602696,2017,442,1,29,29,28
15602812,2017,442,1,25,25,24
15602865,2017,442,1,27,27,26
15602889,2017,442,1,16,16,16
15602908,2017,442,2,28,28,28
15602957,2017,442,2,11,11,12
15602991,2017,442,2,37,37,36
15602996,2017,442,2,18,18,18
15603024,2017,442,2,29,29,29
15603039,2017,442,2,58,58,59
15603054,2017,442,2,34,34,33
15603093,2017,442,2,40,40,38
15603105,2017,442,2,36,36,37
15603113,2017,442,2,41,41,41
15603150,2017,442,2,29,31,28
15603164,2017,442,2,36,36,32
15603188,2017,442,2,58,58,58
15603194,2017,442,2,39,42,36
15607130,2017,442,1,38,38,37
15607190,2017,442,1,29,29,28
15607213,2017,442,2,36,36,34
15607234,2017,442,1,28,28,25
15607310,2017,442,2,28,28,26
15607324,2017,442,2,31,31,31
15607338,2017,442,2,59,59,57
15607464,2017,442,1,19,19,20
15607534,2017,442,1,38,38,35
15607555,2017,442,1,24,24,22
15607597,2017,442,1,29,29,28
15607624,2017,442,1,35,37,36
15607637,2017,442,2,16,17,15
15607647,2017,442,1,34,34,32
15607660,2017,442,2,39,39,38
15607668,2017,442,2,26,26,26
15607683,2017,442,1,62,68,62
15607695,2017,442,1,38,42,38
15607769,2017,442,1,24,24,24
15607886,2017,442,0,49,44,49
15607906,2017,442,0,67,64,69
15607949,2017,442,2,25,25,41
15607969,2017,442,2,24,24,26
15607989,2017,442,2,38,38,36
15608033,2017,442,1,45,42,48
15608053,2017,442,1,18,20,18
15608090,2017,442,2,33,31,35
15608154,2017,442,1,35,40,35
15608158,2017,442,1,31,31,32
15608181,2017,442,1,38,38,38
15608189,2017,442,1,19,19,19
15608199,2017,442,1,27,27,28
15608224,2017,442,1,30,30,30
15608270,2017,442,1,65,59,64
15608293,2017,442,1,38,38,37
15608418,2017,442,1,39,39,38
15608428,2017,442,1,36,36,35
15608438,2017,442,1,35,35,37
15608481,2017,442,2,32,32,32
15608510,2017,442,2,23,23,24
15608545,2017,442,2,55,55,55