# mseR batch design file,  Fri Nov  1 16:33:57 2019 
"parFile","blobName","scenarioLabel","mpLabel","dataName","methodName","ruleName","scCol","scLty","scLwd","scSym","mpCol","mpLty","mpLwd","mpSym","join"
"job1.txt","simjob1","'estMsen_TvSelIphc_0.9AgeslikWt'","'base'","data","method","rule","black",1,1,1,"black",1,1,1,0
"job2.txt","simjob2","'estMsen_TvSelIphc_0.75AgeslikWt'","'base'","data","method","rule","black",1,1,1,"black",1,1,1,0
"job3.txt","simjob3","'estMsen_TvSelIphc_0.5AgeslikWt'","'base'","data","method","rule","black",1,1,1,"black",1,1,1,0
"job4.txt","simjob4","'estMsen_noTvSelIphc_0.25AgeslikWt'","'base'","data","method","rule","black",1,1,1,"black",1,1,1,0
"job5.txt","simjob5","'estMsen_noTvSelIphc_0.1AgeslikWt'","'base'","data","method","rule","black",1,1,1,"black",1,1,1,0
"job6.txt","simjob6","'estMsen_noTvSelIphc_0.9AgeslikWt'","'base'","data","method","rule","black",1,1,1,"black",1,1,1,0
"job7.txt","simjob7","'estMsen_noTvSelIphc_0.75AgeslikWt'","'base'","data","method","rule","black",1,1,1,"black",1,1,1,0
"job8.txt","simjob8","'estMsen_noTvSelIphc_0.5AgeslikWt'","'base'","data","method","rule","black",1,1,1,"black",1,1,1,0
"job9.txt","simjob9","'estMsen_noTvSelIphc_0.25AgeslikWt'","'base'","data","method","rule","black",1,1,1,"black",1,1,1,0
"job10.txt","simjob10","'estMsen_noTvSelIphc_0.2AgeslikWt'","'base'","data","method","rule","black",1,1,1,"black",1,1,1,0
