"Year","surveyType","mgmtArea","nStations","totalHooksSampled","meanBaitPerc","Za","cw.meanBaitPerc","Zcw","areaWeight","wcw.meanBaitPerc","Zwcw","HAF","HAFw"
2003,"iphcNorth","5B",44,35046,0.356894419796844,1.03031528380903,0.266815836090549,1.32119661104042,0.201194678,0.230837677900937,1.46604050853438,0.88906495020699,0.840542922376879
2003,"iphcNorth","5C",41,32461,0.284823349361188,1.25588611768838,0.266815836090549,1.32119661104042,0.37985338,0.230837677900937,1.46604050853438,0.974501603050939,0.921316744180148
2003,"iphcNorth","5D",20,15822,0.0845326844638289,2.47061702101771,0.266815836090549,1.32119661104042,0.217757263,0.230837677900937,1.46604050853438,1.49764268848133,1.41590663512198
2003,"iphcNorth","5E",10,7939,0.161205566626666,1.82507491708235,0.266815836090549,1.32119661104042,0.201194678,0.230837677900937,1.46604050853438,1.20745452058833,1.14155591347539
2003,"iphcSouth","3C",21,16768,0.0670110165888325,2.70289824640877,0.184576376439064,1.68969193672182,0.190224571,0.196793671677166,1.62559945099296,1.39807007003155,1.43141893700506
2003,"iphcSouth","3D",13,10400,0.0773011314827009,2.56004668594478,0.184576376439064,1.68969193672182,0.392778512,0.196793671677166,1.62559945099296,1.33894782736125,1.37088642181104
2003,"iphcSouth","5A",21,16554,0.368550221262282,0.998178290988093,0.184576376439064,1.68969193672182,0.416996918,0.196793671677166,1.62559945099296,0.762860384555249,0.78105727613402
2004,"iphcNorth","5B",48,38325,0.222730874191759,1.50179107853191,0.226832344587959,1.48354410447509,0.201194678,0.231419492586899,1.4635232301433,1.00695791108145,1.01467707494764
2004,"iphcNorth","5C",38,30310,0.223153503463706,1.49989538799109,0.226832344587959,1.48354410447509,0.37985338,0.231419492586899,1.4635232301433,1.00623396746544,1.01394758170603
2004,"iphcNorth","5D",20,15869,0.226636220335968,1.48440910054931,0.226832344587959,1.48354410447509,0.217757263,0.231419492586899,1.4635232301433,1.00032931374621,1.00799766394038
2004,"iphcNorth","5E",10,7969,0.260891247265862,1.34365163563578,0.226832344587959,1.48354410447509,0.201194678,0.231419492586899,1.4635232301433,0.94743964876649,0.954702556005881
2004,"iphcSouth","3C",21,16660,0.0786558686249134,2.54267303528872,0.169179102790463,1.77679734540403,0.190224571,0.192932320620962,1.64541582193419,1.29044101602921,1.35363922291706
2004,"iphcSouth","3D",13,10360,0.180167768249974,1.71386681634375,0.169179102790463,1.77679734540403,0.392778512,0.192932320620962,1.64541582193419,0.977510872011886,1.0253836019989
2004,"iphcSouth","5A",20,15875,0.257085866115608,1.35834514048978,0.169179102790463,1.77679734540403,0.416996918,0.192932320620962,1.64541582193419,0.854950611832455,0.896821061527046
2005,"iphcNorth","5B",43,30102,0.232483014199249,1.45893811383106,0.224164390904997,1.49537560832245,0.201194678,0.219875672718486,1.51469301637941,0.986207477318393,0.97901212954826
2005,"iphcNorth","5C",43,30050,0.244989869130049,1.40653841978196,0.224164390904997,1.49537560832245,0.37985338,0.219875672718486,1.51469301637941,0.966536450046911,0.959484621653248
2005,"iphcNorth","5D",20,13986,0.162741510712677,1.81559216077357,0.224164390904997,1.49537560832245,0.217757263,0.219875672718486,1.51469301637941,1.12506640238079,1.11685794298883
2005,"iphcNorth","5E",10,6995,0.221690514756629,1.50647294741303,0.224164390904997,1.49537560832245,0.201194678,0.219875672718486,1.51469301637941,1.00421899163407,0.996892232257
2005,"iphcSouth","3C",21,14747,0.128624255363102,2.05085987405283,0.158652472556957,1.84103917609513,0.190224571,0.161412746494418,1.82379055170193,1.07558048470124,1.08219074757422
2005,"iphcSouth","3D",14,9874,0.0958891947304206,2.34456197569913,0.158652472556957,1.84103917609513,0.392778512,0.161412746494418,1.82379055170193,1.18509304753126,1.1923763486738
2005,"iphcSouth","5A",19,13370,0.238088180485508,1.43511416768952,0.158652472556957,1.84103917609513,0.416996918,0.161412746494418,1.82379055170193,0.860783896669396,0.866074070593844
2006,"iphcNorth","5B",48,28673,0.200114387718023,1.60886613733853,0.1882679030638,1.66988931422755,0.201194678,0.188833816848219,1.66688792664767,0.977725763274727,0.978803383295954
2006,"iphcNorth","5C",38,22591,0.191513093514401,1.65279909925544,0.1882679030638,1.66988931422755,0.37985338,0.188833816848219,1.66688792664767,0.993738486347571,0.994833755112061
2006,"iphcNorth","5D",20,11956,0.129386464063781,2.04495150776723,0.1882679030638,1.66988931422755,0.217757263,0.188833816848219,1.66688792664767,1.14178052765207,1.14303896391575
2006,"iphcNorth","5E",10,5973,0.236835931011288,1.44038765179342,0.1882679030638,1.66988931422755,0.201194678,0.188833816848219,1.66688792664767,0.917458667513326,0.918469862948588
2006,"iphcSouth","3C",21,12539,0.127543020102521,2.05930155872568,0.138225349921299,1.97886995522726,0.190224571,0.134614441195952,2.00534057780931,1.02790359922583,1.01858535701131
2006,"iphcSouth","3D",13,7806,0.0868323957128859,2.44377550444734,0.138225349921299,1.97886995522726,0.392778512,0.134614441195952,2.00534057780931,1.16543289277395,1.15486790789812
2006,"iphcSouth","5A",20,11991,0.182847216466485,1.69910435754618,0.138225349921299,1.97886995522726,0.416996918,0.134614441195952,2.00534057780931,0.90550999679996,0.897301287846897
2006,"phmaNorth","5B",11,5478,0.47296259528643,0.748738973349877,0.407875584195524,0.896793091779089,0.052495974,0.407145181850123,0.898585444983735,0.938014854229808,0.937298613732114
2006,"phmaNorth","5C",79,39426,0.390440005771557,0.940480955893185,0.407875584195524,0.896793091779089,0.450563607,0.407145181850123,0.898585444983735,1.01871866799969,1.01794080444829
2006,"phmaNorth","5D",57,28504,0.382658769142832,0.960611629112192,0.407875584195524,0.896793091779089,0.258293076,0.407145181850123,0.898585444983735,1.02740877698636,1.02662427792385
2006,"phmaNorth","5E",49,24429,0.4507084827975,0.796934528079251,0.407875584195524,0.896793091779089,0.238647343,0.407145181850123,0.898585444983735,0.95794476068936,0.957213302302463
2007,"iphcNorth","5B",46,22857,0.144967869322166,1.93124315199806,0.15127639425995,1.88864668979205,0.201194678,0.157805249055067,1.84639360714979,1.01500943999193,1.0302503345452
2007,"iphcNorth","5C",39,19441,0.147632351782802,1.91303020531306,0.15127639425995,1.88864668979205,0.37985338,0.157805249055067,1.84639360714979,1.00858017975767,1.02372453562526
2007,"iphcNorth","5D",20,9975,0.148652499043612,1.90614391808424,0.15127639425995,1.88864668979205,0.217757263,0.157805249055067,1.84639360714979,1.00615382340892,1.02126174627422
2007,"iphcNorth","5E",10,4967,0.199755165067309,1.61066283701144,0.15127639425995,1.88864668979205,0.201194678,0.157805249055067,1.84639360714979,0.904476563851528,0.918057749791708
2007,"iphcSouth","3C",21,10493,0.10646195692885,2.23996756958372,0.160010793250326,1.83251400820895,0.190224571,0.164877794865565,1.80255071666717,1.14909275255868,1.16142513718771
2007,"iphcSouth","3D",14,7015,0.0768146876747293,2.56635941134895,0.160010793250326,1.83251400820895,0.392778512,0.164877794865565,1.80255071666717,1.27425103265853,1.28792665093538
2007,"iphcSouth","5A",20,10005,0.274474345290794,1.29289748217872,0.160010793250326,1.83251400820895,0.416996918,0.164877794865565,1.80255071666717,0.816841357632881,0.825607927416565
2007,"phmaSouth","3C",25,11226,0.192296557706676,1.64871652718893,0.366738410643764,1.00310646261168,0.190224571,0.362737359496895,1.01407623414644,1.28863575074787,1.28274967022671
2007,"phmaSouth","3D",57,25562,0.402611249263706,0.909783824627543,0.366738410643764,1.00310646261168,0.392778512,0.362737359496895,1.01407623414644,0.961429157610432,0.957037653313113
2007,"phmaSouth","5A4B",64,28766,0.402930512551428,0.908991157333128,0.366738410643764,1.00310646261168,0.416996918,0.362737359496895,1.01407623414644,0.961105138024478,0.956715113746142
2008,"iphcNorth","5B",43,21510,0.301064452363213,1.20043090970274,0.311284760114526,1.16704715835605,0.201194678,0.296232265864669,1.21661145038479,1.01356435299728,0.99352200950572
2008,"iphcNorth","5C",42,20900,0.401572208884883,0.912367913982973,0.311284760114526,1.16704715835605,0.37985338,0.296232265864669,1.21661145038479,0.899724480450785,0.881933220298791
2008,"iphcNorth","5D",20,9945,0.20209299028078,1.59902733958388,0.311284760114526,1.16704715835605,0.217757263,0.296232265864669,1.21661145038479,1.18264635189681,1.15926056061117
2008,"iphcNorth","5E",10,4967,0.194408338277165,1.6377944955034,0.311284760114526,1.16704715835605,0.201194678,0.296232265864669,1.21661145038479,1.19976374036371,1.17603946777857
2008,"iphcSouth","3C",21,10383,0.3069876782457,1.1809476682079,0.347935952951839,1.05573685938754,0.190224571,0.348765179929121,1.05335642011534,1.05250524106192,1.05354226575928
2008,"iphcSouth","3D",14,6957,0.22802955724761,1.47828002137893,0.347935952951839,1.05573685938754,0.392778512,0.348765179929121,1.05335642011534,1.18274359747957,1.18390894495091
2008,"iphcSouth","5A",19,9521,0.481546653409108,0.730752160622281,0.347935952951839,1.05573685938754,0.416996918,0.348765179929121,1.05335642011534,0.870552559109446,0.87141030733618
2008,"phmaNorth","5B",11,4975,0.546016559447225,0.605105975039215,0.473999231452883,0.746549578695796,0.052495974,0.47713388823965,0.739958139345901,0.939115813271084,0.941834885936638
2008,"phmaNorth","5C",82,37104,0.549467896283049,0.598804930351915,0.473999231452883,0.746549578695796,0.450563607,0.47713388823965,0.739958139345901,0.936455939295235,0.939167310684207
2008,"phmaNorth","5D",52,23359,0.342188900523852,1.0723923536905,0.473999231452883,0.746549578695796,0.258293076,0.47713388823965,0.739958139345901,1.14863021290351,1.15195590391052
2008,"phmaNorth","5E",50,22581,0.471469553138845,0.751900753460569,0.473999231452883,0.746549578695796,0.238647343,0.47713388823965,0.739958139345901,1.00234731971973,1.00524946997631
2009,"iphcNorth","5B",50,35118,0.26563971816318,1.32561433128301,0.256522478342359,1.36053898334803,0.201194678,0.252915461484874,1.37469999042183,0.9864268006252,0.981001857213992
2009,"iphcNorth","5C",36,25370,0.254506213432686,1.36843002901577,0.256522478342359,1.36053898334803,0.37985338,0.252915461484874,1.37469999042183,1.00307965110184,0.997563123833203
2009,"iphcNorth","5D",20,14109,0.240079797434239,1.42678392159314,0.256522478342359,1.36053898334803,0.217757263,0.252915461484874,1.37469999042183,1.02599930997958,1.02035673397389
2009,"iphcNorth","5E",10,7050,0.251080194729313,1.38198288996631,0.256522478342359,1.36053898334803,0.201194678,0.252915461484874,1.37469999042183,1.00837995256327,1.00283427580734
2009,"iphcSouth","3C",20,14077,0.193788267147936,1.64098912239047,0.259395898831092,1.34939981743645,0.190224571,0.272135527407152,1.3014550742514,1.11712572729431,1.13835554887389
2009,"iphcSouth","3D",15,10556,0.203107571839597,1.59401952975347,0.259395898831092,1.34939981743645,0.392778512,0.272135527407152,1.3014550742514,1.09784089231381,1.11870422550644
2009,"iphcSouth","5A",19,13111,0.37289471664875,0.986459160176761,0.259395898831092,1.34939981743645,0.416996918,0.272135527407152,1.3014550742514,0.86334447859204,0.879751449440902
2009,"phmaSouth","3C",17,7578,0.439751708179377,0.821545010939093,0.480292850416528,0.733359256084179,0.190224571,0.477663229979588,0.738849334587131,1.03918467902378,1.03668194342159
2009,"phmaSouth","3D",55,24771,0.50237463696599,0.688409148848534,0.480292850416528,0.733359256084179,0.392778512,0.477663229979588,0.738849334587131,0.980361030402241,0.977999963593501
2009,"phmaSouth","5A4B",61,27527,0.471681393987202,0.751451534059232,0.480292850416528,0.733359256084179,0.416996918,0.477663229979588,0.738849334587131,1.00796855370338,1.00554099791261
2010,"iphcNorth","5B",46,36819,0.270174611528591,1.308686819645,0.294361293590115,1.22294737634814,0.201194678,0.316974155767413,1.148935035976,1.03464505596557,1.06600299523838
2010,"iphcNorth","5C",39,31393,0.286470512991791,1.25011966961874,0.294361293590115,1.22294737634814,0.37985338,0.316974155767413,1.148935035976,1.01091418068102,1.04155288649133
2010,"iphcNorth","5D",20,16146,0.284069507215695,1.25853632704855,0.294361293590115,1.22294737634814,0.217757263,0.316974155767413,1.148935035976,1.01430722971792,1.04504877178597
2010,"iphcNorth","5E",10,8085,0.45697764815543,0.783120799228417,0.294361293590115,1.22294737634814,0.201194678,0.316974155767413,1.148935035976,0.832119458616751,0.857339268348192
2010,"iphcSouth","3C",21,16778,0.145243939698585,1.9293406073661,0.214578318810557,1.53908048459518,0.190224571,0.213800801409073,1.54271053199283,1.15188273960982,1.15030992990284
2010,"iphcSouth","3D",13,10350,0.0920223458964278,2.38572384124758,0.214578318810557,1.53908048459518,0.392778512,0.213800801409073,1.54271053199283,1.34086966108977,1.33903880387988
2010,"iphcSouth","5A",21,16783,0.359780681155086,1.02226065219494,0.214578318810557,1.53908048459518,0.416996918,0.213800801409073,1.54271053199283,0.814843909702658,0.813731301303569
2010,"phmaNorth","5B",10,4495,0.458488790075288,0.779819436711465,0.491070313586122,0.711167956580734,0.052495974,0.494477228571115,0.70425417838086,1.0305574529128,1.03370804222383
2010,"phmaNorth","5C",87,39098,0.614653179597747,0.486697105860534,0.491070313586122,0.711167956580734,0.450563607,0.494477228571115,0.70425417838086,0.9038421451637,0.906605344239469
2010,"phmaNorth","5D",53,23854,0.271666548193954,1.30317989050536,0.491070313586122,0.711167956580734,0.258293076,0.494477228571115,0.70425417838086,1.28044142709252,1.28435595418871
2010,"phmaNorth","5E",47,21072,0.516655536094249,0.660378901012399,0.491070313586122,0.711167956580734,0.238647343,0.494477228571115,0.70425417838086,0.977736987641439,0.980726095811545
2011,"iphcNorth","5B",49,28835,0.190929783151744,1.65584954600483,0.164683510796245,1.80372976340893,0.201194678,0.155168194646115,1.86324562363823,0.947794625674467,0.927971855007883
2011,"iphcNorth","5C",36,21389,0.137297507711004,1.98560511851423,0.164683510796245,1.80372976340893,0.37985338,0.155168194646115,1.86324562363823,1.06588760974001,1.04359496841046
2011,"iphcNorth","5D",20,12054,0.155768348793973,1.85938531898244,0.164683510796245,1.80372976340893,0.217757263,0.155168194646115,1.86324562363823,1.01996988710023,0.998637597792909
2011,"iphcNorth","5E",10,6015,0.152496711365712,1.8806122479822,0.164683510796245,1.80372976340893,0.201194678,0.155168194646115,1.86324562363823,1.02763160114703,1.00613906995149
2011,"iphcSouth","3C",20,11900,0.144964961565236,1.93126321013995,0.196866906192073,1.62522738165268,0.190224571,0.198925409207967,1.61482535262392,1.11617154452914,1.12048217707032
2011,"iphcSouth","3D",15,8874,0.0755208728370015,2.58334619951834,0.196866906192073,1.62522738165268,0.392778512,0.198925409207967,1.61482535262392,1.38088938679889,1.38622235443785
2011,"iphcSouth","5A",20,11931,0.339778375835215,1.07946170968802,0.196866906192073,1.62522738165268,0.416996918,0.198925409207967,1.61482535262392,0.807961912027873,0.811082245033218
2011,"phmaSouth","3C",30,13527,0.224728957133387,1.49286023789637,0.248781204494946,1.39118146560521,0.190224571,0.248724347763537,1.39141003282984,1.03979625831071,1.03970413582828
2011,"phmaSouth","3D",61,27448,0.250880710345111,1.38277771041023,0.248781204494946,1.39118146560521,0.392778512,0.248724347763537,1.39141003282984,0.996744969684579,0.996656661402811
2011,"phmaSouth","5A4B",67,30075,0.257639377091763,1.35619443505298,0.248781204494946,1.39118146560521,0.416996918,0.248724347763537,1.39141003282984,0.986483198555207,0.986395799432155
2012,"iphcNorth","5B",46,27717,0.176110579454692,1.73664318888079,0.198413926215186,1.61739989397788,0.201194678,0.197124900299401,1.62391773947255,1.04465869730367,1.04213896475281
2012,"iphcNorth","5C",39,23461,0.249390660573414,1.38873469401792,0.198413926215186,1.61739989397788,0.37985338,0.197124900299401,1.62391773947255,0.916933995814434,0.914722337172036
2012,"iphcNorth","5D",20,12004,0.181123744289318,1.70857481120553,0.198413926215186,1.61739989397788,0.217757263,0.197124900299401,1.62391773947255,1.03406651284545,1.03157232880343
2012,"iphcNorth","5E",10,6097,0.136780421168115,1.98937840415247,0.198413926215186,1.61739989397788,0.201194678,0.197124900299401,1.62391773947255,1.14216505906678,1.13941013969912
2012,"iphcSouth","3C",21,12643,0.222741112583918,1.50174511204035,0.252921154824108,1.3746774798362,0.190224571,0.258235035207717,1.35388511958212,1.05001656660562,1.05855891062333
2012,"iphcSouth","3D",14,8488,0.23151598252018,1.46310636887487,0.252921154824108,1.3746774798362,0.392778512,0.258235035207717,1.35388511958212,1.03468149477302,1.04309908127423
2012,"iphcSouth","5A",20,12047,0.299593819789057,1.20532765575926,0.252921154824108,1.3746774798362,0.416996918,0.258235035207717,1.35388511958212,0.9352350456583,0.942843591800826
2012,"phmaNorth","5B",11,4949,0.439992150337469,0.820998392371083,0.492392846705438,0.708478412183053,0.052495974,0.4923435777661,0.708578477415038,1.05038691801276,1.05034052007476
2012,"phmaNorth","5C",89,39988,0.535781525017214,0.624028803583671,0.492392846705438,0.708478412183053,0.450563607,0.4923435777661,0.708578477415038,0.963126489322239,0.963083945872424
2012,"phmaNorth","5D",51,22565,0.445207289403675,0.809215286391171,0.492392846705438,0.708478412183053,0.258293076,0.4923435777661,0.708578477415038,1.0450436820099,1.04499752009458
2012,"phmaNorth","5E",45,19840,0.472865706987426,0.748943848376581,0.492392846705438,0.708478412183053,0.238647343,0.4923435777661,0.708578477415038,1.01795621825519,1.01791125285369
2014,"iphcNorth","5B",48,33760,0.24822753132049,1.39340948842895,0.186718439302163,1.67815346897195,0.201194678,0.159582856617275,1.83519201441453,0.898259041471415,0.848800718679954
2014,"iphcNorth","5C",37,25825,0.187164861808211,1.67576543657322,0.186718439302163,1.67815346897195,0.37985338,0.159582856617275,1.83519201441453,0.999125423077811,0.944113377106316
2014,"iphcNorth","5D",20,14005,0.0781061416450207,2.54968658700782,0.186718439302163,1.67815346897195,0.217757263,0.159582856617275,1.83519201441453,1.34034046240558,1.26654104800556
2014,"iphcNorth","5E",10,6998,0.107047629656099,2.23448140659142,0.186718439302163,1.67815346897195,0.201194678,0.159582856617275,1.83519201441453,1.21271207398594,1.14593990422292
2014,"iphcSouth","3C",20,14091,0.259704623494317,1.34821035725929,0.248651451968108,1.39170315443322,0.190224571,0.244505388729309,1.40851793051741,0.983212660132647,0.976835902387216
2014,"iphcSouth","3D",15,10640,0.228165472104885,1.4776841584144,0.248651451968108,1.39170315443322,0.392778512,0.244505388729309,1.40851793051741,1.03359941435165,1.02689586654516
2014,"iphcSouth","5A",20,14215,0.252962765339316,1.37451297365744,0.248651451968108,1.39170315443322,0.416996918,0.244505388729309,1.40851793051741,0.993348028822502,0.986905536782329
2014,"phmaSouth","3C",30,13606,0.678298015725239,0.388168536398913,0.62588234038441,0.468592880205221,0.190224571,0.626315822107054,0.467900526945258,0.963338935461648,0.963646539022797
2014,"phmaSouth","3D",59,26247,0.645764416866677,0.437320521484321,0.62588234038441,0.468592880205221,0.392778512,0.626315822107054,0.467900526945258,0.985644258369011,0.985958984238318
2014,"phmaSouth","5A4B",66,29711,0.584283662010491,0.537368691458254,0.62588234038441,0.468592880205221,0.416996918,0.626315822107054,0.467900526945258,1.03201923039959,1.03234876425186
2015,"iphcNorth","5B",48,33724,0.16988959135053,1.77260651556804,0.165183499090163,1.80069830732615,0.201194678,0.162700449416558,1.81584450252028,0.989980294835146,0.984642742995249
2015,"iphcNorth","5C",38,26772,0.151383861997219,1.88793653548825,0.165183499090163,1.80069830732615,0.37985338,0.162700449416558,1.81584450252028,1.03139773419925,1.02583687717759
2015,"iphcNorth","5D",20,14083,0.187896708807587,1.67186288837558,0.165183499090163,1.80069830732615,0.217757263,0.162700449416558,1.81584450252028,0.954419832725264,0.949274007741904
2015,"iphcNorth","5E",10,7080,0.149606457758744,1.8997470475369,0.165183499090163,1.80069830732615,0.201194678,0.162700449416558,1.81584450252028,1.03568072346058,1.03009677438615
2015,"iphcSouth","3C",20,13959,0.258835594842382,1.35156218778204,0.212233058834362,1.55007027401104,0.190224571,0.200866845681391,1.60511304974274,0.926761199585749,0.907893700283174
2015,"iphcSouth","3D",14,9775,0.204322257852768,1.58805683618747,0.212233058834362,1.55007027401104,0.392778512,0.200866845681391,1.60511304974274,1.01432048369778,0.993670405741011
2015,"iphcSouth","5A",20,13956,0.171168083513459,1.76510926072996,0.212233058834362,1.55007027401104,0.416996918,0.200866845681391,1.60511304974274,1.08230955069426,1.06027531501195
2015,"phmaNorth","5B",11,4973,0.565828677466997,0.569463936586453,0.552726800975107,0.592891430319643,0.052495974,0.552726159591388,0.592892590719482,0.989470371041059,0.989469853349923
2015,"phmaNorth","5C",88,39575,0.628817273147518,0.463914568226118,0.552726800975107,0.592891430319643,0.450563607,0.552726159591388,0.592892590719482,0.942861615004918,0.942861121699495
2015,"phmaNorth","5D",50,22455,0.498156949711839,0.696840091546051,0.552726800975107,0.592891430319643,0.258293076,0.552726159591388,0.592892590719482,1.0475214324873,1.04752088442383
2015,"phmaNorth","5E",47,20978,0.465246170561926,0.765188614419119,0.552726800975107,0.592891430319643,0.238647343,0.552726159591388,0.592892590719482,1.07947427883939,1.07947371405819
2016,"iphcNorth","5B",45,27045,0.202169379667546,1.59864941973106,0.168440778822746,1.78117105195921,0.201194678,0.151692806367003,1.88589781387725,0.935470485007093,0.901316925968208
2016,"iphcNorth","5C",40,23993,0.185557971041695,1.68438793340231,0.168440778822746,1.78117105195921,0.37985338,0.151692806367003,1.88589781387725,0.965538287447314,0.930286967995599
2016,"iphcNorth","5D",20,12104,0.0911161462546582,2.3956202538164,0.168440778822746,1.78117105195921,0.217757263,0.151692806367003,1.88589781387725,1.23054398945103,1.18561744450147
2016,"iphcNorth","5E",10,5847,0.102842571281528,2.27455589415948,0.168440778822746,1.78117105195921,0.201194678,0.151692806367003,1.88589781387725,1.1836287663507,1.14041507270715
2016,"iphcSouth","3C",21,12541,0.114503948960915,2.16714596784095,0.193812787502834,1.64086259871549,0.190224571,0.21249731547366,1.54882592376259,1.20244501067566,1.24437411709015
2016,"iphcSouth","3D",14,8453,0.184355071324267,1.69089164546274,0.193812787502834,1.64086259871549,0.392778512,0.21249731547366,1.54882592376259,1.01854055835755,1.05405693963045
2016,"iphcSouth","5A",20,11622,0.283707469296846,1.25981160936147,0.193812787502834,1.64086259871549,0.416996918,0.21249731547366,1.54882592376259,0.864129582366737,0.894261672311217
2016,"phmaSouth","3C",30,13559,0.464366054021739,0.767082128251826,0.515532578174451,0.662554780287354,0.190224571,0.515690173338363,0.66224913310316,1.04716847211512,1.0473109741344
2016,"phmaSouth","3D",62,27972,0.56439167727166,0.572006805264472,0.515532578174451,0.662554780287354,0.392778512,0.515690173338363,0.66224913310316,0.960169294126567,0.960299957020751
2016,"phmaSouth","5A4B",67,30129,0.493230064451384,0.706779551619183,0.515532578174451,0.662554780287354,0.416996918,0.515690173338363,0.66224913310316,1.01980214309271,1.01994092101481
2017,"iphcNorth","5B",43,21276,0.304931028829281,1.18766966293306,0.245192803669959,1.40571042416822,0.201194678,0.219954786592132,1.51433326924129,0.917503920169508,0.880169012017746
2017,"iphcNorth","5C",38,19032,0.262221824189958,1.33856447621951,0.245192803669959,1.40571042416822,0.37985338,0.219954786592132,1.51433326924129,0.97421241027965,0.934569930222042
2017,"iphcNorth","5D",20,10054,0.131585476889262,2.02809862416514,0.245192803669959,1.40571042416822,0.217757263,0.219954786592132,1.51433326924129,1.25401334801863,1.20298525741308
2017,"iphcNorth","5E",10,5069,0.150822811070276,1.89164956780371,0.245192803669959,1.40571042416822,0.201194678,0.219954786592132,1.51433326924129,1.19614142940239,1.14746825273084
2017,"iphcSouth","3C",21,10443,0.308365896188661,1.17646822645356,0.318866654818825,1.14298227356015,0.190224571,0.310322508209934,1.17014317322669,1.01366966386052,1.00256110548087
2017,"iphcSouth","3D",14,7022,0.208395859242674,1.56831583857732,0.318866654818825,1.14298227356015,0.392778512,0.310322508209934,1.17014317322669,1.18064169927563,1.16770333512265
2017,"iphcSouth","5A",20,10021,0.407222008283803,0.898396767358117,0.318866654818825,1.14298227356015,0.416996918,0.310322508209934,1.17014317322669,0.903168446302403,0.893270843789371
2017,"phmaNorth","5B",10,4506,0.499720770283231,0.693705795990034,0.502367574090002,0.688423207929381,0.052495974,0.502750880848593,0.687660498270058,1.00234220954853,1.00268102306324
2017,"phmaNorth","5C",89,39640,0.500288390530932,0.692570565772346,0.502367574090002,0.688423207929381,0.450563607,0.502750880848593,0.687660498270058,1.00183859738328,1.0021772406661
2017,"phmaNorth","5D",52,23378,0.470864935939988,0.753183986301631,0.502367574090002,0.688423207929381,0.258293076,0.502750880848593,0.687660498270058,1.02893444167311,1.0292822439419
2017,"phmaNorth","5E",46,20752,0.542577412320996,0.611424508224986,0.502367574090002,0.688423207929381,0.238647343,0.502750880848593,0.687660498270058,0.966225300357768,0.966551905569937
