"V1","V2","V3","V4","V5","V6","V7","V8","V9","V10","V11","V12","V13","V14","V15","V16","V17","V18","V19","V20","V21","V22","V23","V24","V25","V26","V27","V28","V29","V30","V31","V32","V33","V34","V35","V36","V37","V38","V39","V40","V41","V42","V43","V44","V45","V46","V47","V48","V49","V50","V51","V52","V53","V54","V55","V56","V57","V58","V59","V60","V61","V62","V63","V64","V65"
0.378724326514967,0.241477851286672,0.127088860436405,0.0525659310635417,0.0165176851175058,0.00389207154781354,0.000689404811843081,0,0,0,0,0,0,0,0,0,0,0,0,0,0,0,0,0,0,0,0,0,0,0,0,0,0,0,0,0,0,0,0,0,0,0,0,0,0,0,0,0,0,0,0,0,0,0,0,0,0,0,0,0,0,0,0,0,0
0.319072789547641,0.286151724869248,0.210412721188206,0.120755797664185,0.0522740790239549,0.0168440740991411,0.00404917918768242,0.000733192692799179,0,0,0,0,0,0,0,0,0,0,0,0,0,0,0,0,0,0,0,0,0,0,0,0,0,0,0,0,0,0,0,0,0,0,0,0,0,0,0,0,0,0,0,0,0,0,0,0,0,0,0,0,0,0,0,0,0
0.190804876980465,0.241477851286672,0.248920211952014,0.198897886799901,0.119033748325705,0.0526406149297463,0.017236973401804,0.00421856630363772,0.000780665376798817,0,0,0,0,0,0,0,0,0,0,0,0,0,0,0,0,0,0,0,0,0,0,0,0,0,0,0,0,0,0,0,0,0,0,0,0,0,0,0,0,0,0,0,0,0,0,0,0,0,0,0,0,0,0,0,0
0.080988304586384,0.145117606515654,0.210412721188206,0.234893443665873,0.195029515236436,0.11879611749753,0.0531809825445293,0.0176579179336712,0.00439832541073956,0.000832160167828945,0,0,0,0,0,0,0,0,0,0,0,0,0,0,0,0,0,0,0,0,0,0,0,0,0,0,0,0,0,0,0,0,0,0,0,0,0,0,0,0,0,0,0,0,0,0,0,0,0,0,0,0,0,0,0
0.0243999130382276,0.0621047446000257,0.127088860436405,0.198897886799901,0.22992017703192,0.193593612185536,0.118919488396006,0.0537702396621304,0.0180965849527674,0.00458910963154064,0.000888045358257613,0,0,0,0,0,0,0,0,0,0,0,0,0,0,0,0,0,0,0,0,0,0,0,0,0,0,0,0,0,0,0,0,0,0,0,0,0,0,0,0,0,0,0,0,0,0,0,0,0,0,0,0,0,0
0.00521779946697763,0.0189274157976265,0.0548487380473365,0.120755797664185,0.195029515236436,0.227817604997296,0.192730761489716,0.1191166068734,0.0543741803723066,0.0185535854710852,0.00479160760750414,0.000948722762534085,0,0,0,0,0,0,0,0,0,0,0,0,0,0,0,0,0,0,0,0,0,0,0,0,0,0,0,0,0,0,0,0,0,0,0,0,0,0,0,0,0,0,0,0,0,0,0,0,0,0,0,0,0
0.000791989865337205,0.00410789878896312,0.0169141218851589,0.0525659310635417,0.119033748325705,0.193593612185536,0.226386420336839,0.191968741877116,0.119309671622496,0.054992716478739,0.0190295295845071,0.00500654414911339,0.00101463037583314,0,0,0,0,0,0,0,0,0,0,0,0,0,0,0,0,0,0,0,0,0,0,0,0,0,0,0,0,0,0,0,0,0,0,0,0,0,0,0,0,0,0,0,0,0,0,0,0,0,0,0,0
0,0.000634906855138941,0.00372697031432161,0.0164066260444902,0.0522740790239549,0.11879611749753,0.192730761489716,0.22506946931449,0.191181298285083,0.119497936080588,0.0556257102057146,0.0195250230963362,0.00523468065548848,0.00108624514527897,0,0,0,0,0,0,0,0,0,0,0,0,0,0,0,0,0,0,0,0,0,0,0,0,0,0,0,0,0,0,0,0,0,0,0,0,0,0,0,0,0,0,0,0,0,0,0,0,0,0,0
0,0,0.000586794551947277,0.00367157788731965,0.0165176851175058,0.0526406149297463,0.118919488396006,0.191968741877116,0.223718547959618,0.190367822881811,0.119680610225539,0.0562729702076193,0.0200406637260346,0.00547681525714645,0.00116408583638561,0,0,0,0,0,0,0,0,0,0,0,0,0,0,0,0,0,0,0,0,0,0,0,0,0,0,0,0,0,0,0,0,0,0,0,0,0,0,0,0,0,0,0,0,0,0,0,0,0,0
0,0,0,0.000589121347062042,0.00375541976468394,0.0168440740991411,0.0531809825445293,0.1191166068734,0.191181298285083,0.222333338576814,0.189527716671825,0.119856860484981,0.0569342475191141,0.020577036883854,0.00573378263114577,0.00124871597152522,0,0,0,0,0,0,0,0,0,0,0,0,0,0,0,0,0,0,0,0,0,0,0,0,0,0,0,0,0,0,0,0,0,0,0,0,0,0,0,0,0,0,0,0,0,0,0,0,0
0,0,0,0,0.000614347796192376,0.00389207154781354,0.017236973401804,0.0537702396621304,0.119309671622496,0.190367822881811,0.220913560693304,0.188660392224207,0.120025809942558,0.0576092314809591,0.0211347109955564,0.00600645343363504,0.00134074681053658,0,0,0,0,0,0,0,0,0,0,0,0,0,0,0,0,0,0,0,0,0,0,0,0,0,0,0,0,0,0,0,0,0,0,0,0,0,0,0,0,0,0,0,0,0,0,0,0
0,0,0,0,0,0.00064941448316831,0.00404917918768242,0.0176579179336712,0.0543741803723066,0.119497936080588,0.189527716671825,0.219458974150419,0.18776527662994,0.120186538877492,0.0582975456823985,0.0217142323659572,0.00629573329094085,0.00144084033598721,0,0,0,0,0,0,0,0,0,0,0,0,0,0,0,0,0,0,0,0,0,0,0,0,0,0,0,0,0,0,0,0,0,0,0,0,0,0,0,0,0,0,0,0,0,0,0
0,0,0,0,0,0,0.000689404811843081,0.00421856630363772,0.0180965849527674,0.054992716478739,0.119680610225539,0.188660392224207,0.217969382302063,0.186841814696538,0.120338085675055,0.0589987439672933,0.0223161195756807,0.00660256128697318,0.00154971219710457,0,0,0,0,0,0,0,0,0,0,0,0,0,0,0,0,0,0,0,0,0,0,0,0,0,0,0,0,0,0,0,0,0,0,0,0,0,0,0,0,0,0,0,0,0,0
0,0,0,0,0,0,0,0.000733192692799179,0.00439832541073956,0.0185535854710852,0.0556257102057146,0.119856860484981,0.18776527662994,0.216444635317463,0.185889472387138,0.120479448146476,0.0597123065577192,0.0229408574124025,0.00692790788212392,0.00166813455702988,0,0,0,0,0,0,0,0,0,0,0,0,0,0,0,0,0,0,0,0,0,0,0,0,0,0,0,0,0,0,0,0,0,0,0,0,0,0,0,0,0,0,0,0,0
0,0,0,0,0,0,0,0,0.000780665376798817,0.00458910963154064,0.0190295295845071,0.0562729702076193,0.120025809942558,0.186841814696538,0.214884633584642,0.184907740509997,0.120609585297361,0.0604376363554351,0.0235888903460371,0.00727277219723873,0.00179693877790257,0,0,0,0,0,0,0,0,0,0,0,0,0,0,0,0,0,0,0,0,0,0,0,0,0,0,0,0,0,0,0,0,0,0,0,0,0,0,0,0,0,0,0,0
0,0,0,0,0,0,0,0,0,0.000832160167828945,0.00479160760750414,0.0195250230963362,0.0569342475191141,0.120186538877492,0.185889472387138,0.213289331210233,0.183896138662722,0.120727419583623,0.0611740554883387,0.0242606155668777,0.00763817859594045,0.00193701786748955,0,0,0,0,0,0,0,0,0,0,0,0,0,0,0,0,0,0,0,0,0,0,0,0,0,0,0,0,0,0,0,0,0,0,0,0,0,0,0,0,0,0,0
0,0,0,0,0,0,0,0,0,0,0.000888045358257613,0.00500654414911339,0.0200406637260346,0.0576092314809591,0.120338085675055,0.184907740509997,0.21165873961008,0.182854219433643,0.12083183969327,0.0619208021756128,0.0249563756166272,0.00802517249988278,0.00208932859983046,0,0,0,0,0,0,0,0,0,0,0,0,0,0,0,0,0,0,0,0,0,0,0,0,0,0,0,0,0,0,0,0,0,0,0,0,0,0,0,0,0,0
0,0,0,0,0,0,0,0,0,0,0,0.000948722762534085,0.00523468065548848,0.020577036883854,0.0582975456823985,0.120479448146476,0.183896138662722,0.209992931183874,0.181781572860402,0.120921703890944,0.0626770279915292,0.0256764506545658,0.0084348153747409,0.00225489321095215,0,0,0,0,0,0,0,0,0,0,0,0,0,0,0,0,0,0,0,0,0,0,0,0,0,0,0,0,0,0,0,0,0,0,0,0,0,0,0,0,0
0,0,0,0,0,0,0,0,0,0,0,0,0.00101463037583314,0.00547681525714645,0.0211347109955564,0.0589987439672933,0.120609585297361,0.182854219433643,0.208292043065448,0.180677831143001,0.120995843959761,0.0634417956136126,0.0264210504147096,0.00886817883023774,0.00243480055947013,0.0005544574596091,0,0,0,0,0,0,0,0,0,0,0,0,0,0,0,0,0,0,0,0,0,0,0,0,0,0,0,0,0,0,0,0,0,0,0,0,0,0,0
0,0,0,0,0,0,0,0,0,0,0,0,0,0.00108624514527897,0.00573378263114577,0.0217142323659572,0.0597123065577192,0.120727419583623,0.181781572860402,0.206556280938592,0.179542673605244,0.121053069771697,0.0642140771458012,0.0271903059246034,0.00932633778558686,0.00262728995591408,0.000618370800522267,0,0,0,0,0,0,0,0,0,0,0,0,0,0,0,0,0,0,0,0,0,0,0,0,0,0,0,0,0,0,0,0,0,0,0,0,0,0
0,0,0,0,0,0,0,0,0,0,0,0,0,0,0.00116408583638561,0.00600645343363504,0.0223161195756807,0.0604376363554351,0.12083183969327,0.180677831143001,0.204785922905992,0.178375831894591,0.121092174513252,0.0649927531111108,0.0279842610721602,0.00979948380519282,0.00283881902514698,0.000689981707842359,0,0,0,0,0,0,0,0,0,0,0,0,0,0,0,0,0,0,0,0,0,0,0,0,0,0,0,0,0,0,0,0,0,0,0,0,0
0,0,0,0,0,0,0,0,0,0,0,0,0,0,0,0.00124871597152522,0.00629573329094085,0.0229408574124025,0.0611740554883387,0.120921703890944,0.179542673605244,0.202981323396321,0.177177095405937,0.121111940587419,0.0657766122107908,0.0287709241976894,0.0103085457895692,0.00306823201346776,0.000770175345489742,0,0,0,0,0,0,0,0,0,0,0,0,0,0,0,0,0,0,0,0,0,0,0,0,0,0,0,0,0,0,0,0,0,0,0,0
0,0,0,0,0,0,0,0,0,0,0,0,0,0,0,0,0.00134074681053658,0.00660256128697318,0.0235888903460371,0.0619208021756128,0.120995843959761,0.178375831894591,0.201142917091458,0.175946316909585,0.121111146205874,0.0664905377447601,0.0296092949198254,0.0108452288666193,0.00331685443289637,0.000859922486550002,0,0,0,0,0,0,0,0,0,0,0,0,0,0,0,0,0,0,0,0,0,0,0,0,0,0,0,0,0,0,0,0,0,0,0
0,0,0,0,0,0,0,0,0,0,0,0,0,0,0,0,0,0.00144084033598721,0.00692790788212392,0.0242606155668777,0.0626770279915292,0.121053069771697,0.177177095405937,0.199271222852184,0.17468341835781,0.120954295751936,0.0672712799991492,0.0304711714212278,0.0114104744874517,0.00358606644315261,0.000960283948663326,0,0,0,0,0,0,0,0,0,0,0,0,0,0,0,0,0,0,0,0,0,0,0,0,0,0,0,0,0,0,0,0,0,0
0,0,0,0,0,0,0,0,0,0,0,0,0,0,0,0,0,0,0.00154971219710457,0.00727277219723873,0.0249563756166272,0.0634417956136126,0.121092174513252,0.175946316909585,0.197366847616616,0.173196123857615,0.120893313454093,0.068051779175383,0.0313560601484318,0.0120051689771638,0.00387729707877137,0.00107241440767342,0,0,0,0,0,0,0,0,0,0,0,0,0,0,0,0,0,0,0,0,0,0,0,0,0,0,0,0,0,0,0,0,0
0,0,0,0,0,0,0,0,0,0,0,0,0,0,0,0,0,0,0,0.00166813455702988,0.00763817859594045,0.0256764506545658,0.0642140771458012,0.121111940587419,0.17468341835781,0.195213774454567,0.171848535224973,0.120806338738402,0.0688303163719363,0.0322633263875991,0.0126301296333364,0.00419201685546402,0.00119756537310715,0,0,0,0,0,0,0,0,0,0,0,0,0,0,0,0,0,0,0,0,0,0,0,0,0,0,0,0,0,0,0,0
0,0,0,0,0,0,0,0,0,0,0,0,0,0,0,0,0,0,0,0,0.00179693877790257,0.00802517249988278,0.0264210504147096,0.0649927531111108,0.121111146205874,0.173196123857615,0.193223681573441,0.170466822283099,0.12069201413721,0.0696050780877426,0.0331921863466196,0.0132860899402614,0.00453172862587958,0.00133708708546861,0,0,0,0,0,0,0,0,0,0,0,0,0,0,0,0,0,0,0,0,0,0,0,0,0,0,0,0,0,0,0
0,0,0,0,0,0,0,0,0,0,0,0,0,0,0,0,0,0,0,0,0,0.00193701786748955,0.0084348153747409,0.0271903059246034,0.0657766122107908,0.120954295751936,0.171848535224973,0.191200891587918,0.16905102038289,0.120549004262387,0.0703741615706956,0.0341417001321691,0.0139736840413088,0.00489795657741556,0.00149242907515704,0,0,0,0,0,0,0,0,0,0,0,0,0,0,0,0,0,0,0,0,0,0,0,0,0,0,0,0,0,0
0,0,0,0,0,0,0,0,0,0,0,0,0,0,0,0,0,0,0,0,0,0,0.00208932859983046,0.00886817883023774,0.0279842610721602,0.0664905377447601,0.120893313454093,0.170466822283099,0.18914616938739,0.167601248280505,0.1203760059075,0.0711355816260485,0.0351107658523334,0.0146934306530534,0.00529223329548327,0.00166513910785933,0,0,0,0,0,0,0,0,0,0,0,0,0,0,0,0,0,0,0,0,0,0,0,0,0,0,0,0,0
0,0,0,0,0,0,0,0,0,0,0,0,0,0,0,0,0,0,0,0,0,0,0,0.00225489321095215,0.00932633778558686,0.0287709241976894,0.0672712799991492,0.120806338738402,0.16905102038289,0.187060370149801,0.166117714220807,0.120171758855502,0.0718872789616452,0.0360981150848934,0.0154457166477319,0.00571608485516324,0.00185686023351664,0.00053670054624941,0,0,0,0,0,0,0,0,0,0,0,0,0,0,0,0,0,0,0,0,0,0,0,0,0,0,0
0,0,0,0,0,0,0,0,0,0,0,0,0,0,0,0,0,0,0,0,0,0,0,0,0.00243480055947013,0.00979948380519282,0.0296092949198254,0.068051779175383,0.12069201413721,0.167601248280505,0.184944442587213,0.164600722106738,0.119935057347846,0.0726271301288725,0.0371023099557933,0.0162307805739837,0.00617101395267402,0.00206710444109984,0.00062016494806366,0,0,0,0,0,0,0,0,0,0,0,0,0,0,0,0,0,0,0,0,0,0,0,0,0,0
0,0,0,0,0,0,0,0,0,0,0,0,0,0,0,0,0,0,0,0,0,0,0,0,0,0.00262728995591408,0.0103085457895692,0.0304711714212278,0.0688303163719363,0.120549004262387,0.166117714220807,0.182799432152286,0.163050677709315,0.119664762153908,0.0733529590957873,0.0381217420705872,0.0170486964280241,0.00665133392434893,0.00230149301012078,0.000715837311157459,0,0,0,0,0,0,0,0,0,0,0,0,0,0,0,0,0,0,0,0,0,0,0,0,0
0,0,0,0,0,0,0,0,0,0,0,0,0,0,0,0,0,0,0,0,0,0,0,0,0,0.0005544574596091,0.00283881902514698,0.0108452288666193,0.0313560601484318,0.0696050780877426,0.1203760059075,0.164600722106738,0.180626484177131,0.161468094862664,0.119359813160699,0.0740625504618997,0.0391546335327114,0.017880144836073,0.00717097890828584,0.00256015429846664,0.00082525237754263,0,0,0,0,0,0,0,0,0,0,0,0,0,0,0,0,0,0,0,0,0,0,0,0
0,0,0,0,0,0,0,0,0,0,0,0,0,0,0,0,0,0,0,0,0,0,0,0,0,0,0.000618370800522267,0.00306823201346776,0.0114104744874517,0.0322633263875991,0.0703741615706956,0.120171758855502,0.163050677709315,0.178426846907449,0.159853601576959,0.119019242382118,0.0747536642925355,0.0401558905715452,0.0187591679143969,0.00772546048770835,0.00284499057947628,0.000950077104246564,0,0,0,0,0,0,0,0,0,0,0,0,0,0,0,0,0,0,0,0,0,0,0
0,0,0,0,0,0,0,0,0,0,0,0,0,0,0,0,0,0,0,0,0,0,0,0,0,0,0,0.000689981707842359,0.00331685443289637,0.0120051689771638,0.0331921863466196,0.0711355816260485,0.119935057347846,0.161468094862664,0.176201874384778,0.158207945989255,0.118642187264785,0.0753430922543684,0.0412016906741075,0.0196693059634572,0.00831589520867098,0.00315793687869666,0.0010921089494452,0,0,0,0,0,0,0,0,0,0,0,0,0,0,0,0,0,0,0,0,0,0
0,0,0,0,0,0,0,0,0,0,0,0,0,0,0,0,0,0,0,0,0,0,0,0,0,0,0,0,0.000770175345489742,0.00358606644315261,0.0126301296333364,0.0341417001321691,0.0718872789616452,0.119664762153908,0.159853601576959,0.173953029118267,0.156532002058365,0.118100998182581,0.0759771230497518,0.0422532502403247,0.0206096829202855,0.0089432511167011,0.00350093982003493,0.00125327099932073,0,0,0,0,0,0,0,0,0,0,0,0,0,0,0,0,0,0,0,0,0
0,0,0,0,0,0,0,0,0,0,0,0,0,0,0,0,0,0,0,0,0,0,0,0,0,0,0,0,0,0.000859922486550002,0.00387729707877137,0.0132860899402614,0.0351107658523334,0.0726271301288725,0.119359813160699,0.158207945989255,0.171681884474775,0.154660583665936,0.117629700856634,0.0765839271652312,0.0433079612275881,0.0215791728368172,0.00960832093787451,0.00387593319582365,0.00143560347845783,0,0,0,0,0,0,0,0,0,0,0,0,0,0,0,0,0,0,0,0
0,0,0,0,0,0,0,0,0,0,0,0,0,0,0,0,0,0,0,0,0,0,0,0,0,0,0,0,0,0,0.000960283948663326,0.00419201685546402,0.0139736840413088,0.0360981150848934,0.0733529590957873,0.119019242382118,0.156532002058365,0.169208303155598,0.152903519277718,0.117117439611697,0.0771610795639161,0.0443630655794416,0.0225763917567361,0.010311695268896,0.00428481041066297,0.0016412512351434,0.000586249023887938,0,0,0,0,0,0,0,0,0,0,0,0,0,0,0,0,0,0
0,0,0,0,0,0,0,0,0,0,0,0,0,0,0,0,0,0,0,0,0,0,0,0,0,0,0,0,0,0,0,0.00107241440767342,0.00453172862587958,0.0146934306530534,0.0371023099557933,0.0740625504618997,0.118642187264785,0.154660583665936,0.166872322721843,0.151116515639626,0.116563607022285,0.0777062037423121,0.0454156715356062,0.0235996929073196,0.0110537364236576,0.00472939408173548,0.00187025143071577,0.000693646510708888,0,0,0,0,0,0,0,0,0,0,0,0,0,0,0,0,0
0,0,0,0,0,0,0,0,0,0,0,0,0,0,0,0,0,0,0,0,0,0,0,0,0,0,0,0,0,0,0,0,0.00119756537310715,0.00489795657741556,0.0154457166477319,0.0381217420705872,0.0747536642925355,0.118100998182581,0.152903519277718,0.164516218564661,0.149300680690795,0.115967747945813,0.0782169944771827,0.0464627731677154,0.0246471656676321,0.0118345536514965,0.00520529286130637,0.00212853229353105,0.00081833496082969,0,0,0,0,0,0,0,0,0,0,0,0,0,0,0,0
0,0,0,0,0,0,0,0,0,0,0,0,0,0,0,0,0,0,0,0,0,0,0,0,0,0,0,0,0,0,0,0,0,0.00133708708546861,0.00529223329548327,0.0162307805739837,0.0391546335327114,0.0753430922543684,0.117629700856634,0.151116515639626,0.16214170081888,0.147457253963042,0.115329572922594,0.078691241554503,0.0475012730891546,0.0257166387235921,0.0126391437242826,0.00572446603123585,0.00241675569594647,0.000962489623684915,0,0,0,0,0,0,0,0,0,0,0,0,0,0,0
0,0,0,0,0,0,0,0,0,0,0,0,0,0,0,0,0,0,0,0,0,0,0,0,0,0,0,0,0,0,0,0,0,0,0.00149242907515704,0.00571608485516324,0.0170486964280241,0.0401558905715452,0.0759771230497518,0.117117439611697,0.149300680690795,0.159750581665859,0.145587611028554,0.11464897114933,0.0791268541931399,0.0485280082018402,0.0267742581313687,0.0134928105683578,0.00628354588572343,0.00273720123968031,0.00112842338082455,0,0,0,0,0,0,0,0,0,0,0,0,0,0
0,0,0,0,0,0,0,0,0,0,0,0,0,0,0,0,0,0,0,0,0,0,0,0,0,0,0,0,0,0,0,0,0,0,0,0.00166513910785933,0.00617101395267402,0.017880144836073,0.0412016906741075,0.0765839271652312,0.116563607022285,0.147457253963042,0.157344777143946,0.143693267448444,0.113926022792036,0.0795218858236398,0.0494816929564216,0.0278729262143979,0.0143829253228514,0.00688360821677129,0.00309210682646872,0.00131856711419763,0.000539007121190898,0,0,0,0,0,0,0,0,0,0,0,0
0,0,0,0,0,0,0,0,0,0,0,0,0,0,0,0,0,0,0,0,0,0,0,0,0,0,0,0,0,0,0,0,0,0,0,0,0.00185686023351664,0.00665133392434893,0.0187591679143969,0.0422532502403247,0.0771610795639161,0.115967747945813,0.145587611028554,0.154926308617295,0.141775882063755,0.113161010377986,0.0797809060673742,0.0504632722495664,0.0289841157178395,0.0153082062571649,0.00752546065798602,0.00348362720227852,0.00153378856468065,0.000650349583768541,0,0,0,0,0,0,0,0,0,0,0
0,0,0,0,0,0,0,0,0,0,0,0,0,0,0,0,0,0,0,0,0,0,0,0,0,0,0,0,0,0,0,0,0,0,0,0,0,0.00206710444109984,0.00717097890828584,0.0196693059634572,0.0433079612275881,0.0777062037423121,0.115329572922594,0.143693267448444,0.152497303763007,0.139837259448058,0.112222693634044,0.0800720511115465,0.0514213268721279,0.0301044855761824,0.0162670153474549,0.00820960665604567,0.00390957019506862,0.00177931881698681,0.000781174137006425,0,0,0,0,0,0,0,0,0,0
0,0,0,0,0,0,0,0,0,0,0,0,0,0,0,0,0,0,0,0,0,0,0,0,0,0,0,0,0,0,0,0,0,0,0,0,0,0.00053670054624941,0.00230149301012078,0.00772546048770835,0.0206096829202855,0.0443630655794416,0.0782169944771827,0.11464897114933,0.141775882063755,0.150059996913017,0.137717688050553,0.111352302032815,0.0803150432635471,0.0523524318579847,0.0312304937065691,0.01725735642398,0.00892657918615069,0.00437874267118877,0.00205653030844881,0.000933999000669611,0,0,0,0,0,0,0,0,0
0,0,0,0,0,0,0,0,0,0,0,0,0,0,0,0,0,0,0,0,0,0,0,0,0,0,0,0,0,0,0,0,0,0,0,0,0,0,0.00062016494806366,0.00256015429846664,0.00831589520867098,0.0215791728368172,0.0454156715356062,0.078691241554503,0.113926022792036,0.139837259448058,0.147443648240091,0.135715717678133,0.11043860468266,0.0805084108954684,0.0532532367987898,0.0323584292244853,0.0182571774095388,0.00969245564186289,0.00488957466313795,0.00236792981278651,0.00111146905514066,0.00050971305957121,0,0,0,0,0,0,0
0,0,0,0,0,0,0,0,0,0,0,0,0,0,0,0,0,0,0,0,0,0,0,0,0,0,0,0,0,0,0,0,0,0,0,0,0,0,0,0.000715837311157459,0.00284499057947628,0.0089432511167011,0.0225763917567361,0.0464627731677154,0.0791268541931399,0.113161010377986,0.137717688050553,0.144968550619415,0.133695047227047,0.109482421194752,0.0806509257123777,0.0541205046147212,0.0334483529027904,0.0192977629639062,0.0104991891418478,0.00544330368030316,0.00271593341479523,0.00131497862314664,0.000624344205629526,0,0,0,0,0,0
0,0,0,0,0,0,0,0,0,0,0,0,0,0,0,0,0,0,0,0,0,0,0,0,0,0,0,0,0,0,0,0,0,0,0,0,0,0,0,0,0.00082525237754263,0.00315793687869666,0.00960832093787451,0.0235996929073196,0.0475012730891546,0.0795218858236398,0.112222693634044,0.135715717678133,0.142488600742855,0.131657703818544,0.108484799322995,0.080741625086107,0.0548919127937605,0.0345596121560629,0.0203605331806632,0.0113456041721648,0.00604082795340809,0.00309964743048146,0.00154940043528745,0.000760205147124387,0,0,0,0,0
0,0,0,0,0,0,0,0,0,0,0,0,0,0,0,0,0,0,0,0,0,0,0,0,0,0,0,0,0,0,0,0,0,0,0,0,0,0,0,0,0,0.000950077104246564,0.00350093982003493,0.010311695268896,0.0246471656676321,0.0485280082018402,0.0797809060673742,0.111352302032815,0.133695047227047,0.140006082639534,0.129605851586111,0.107447020814159,0.0806927506366462,0.0556697792501726,0.0356591710755674,0.021441937025898,0.0122300834826868,0.00667585009253877,0.00352621684118981,0.00181653550179394,0.000920062437296467,0,0,0,0
0,0,0,0,0,0,0,0,0,0,0,0,0,0,0,0,0,0,0,0,0,0,0,0,0,0,0,0,0,0,0,0,0,0,0,0,0,0,0,0,0,0,0.0010921089494452,0.00387593319582365,0.0110537364236576,0.0257166387235921,0.0494816929564216,0.0800720511115465,0.11043860468266,0.131657703818544,0.137523373320847,0.127541791677065,0.106255936192732,0.0806601239833307,0.0564029799699654,0.0367427560610402,0.0225381353267962,0.0131371611483824,0.00735969997788479,0.00399509542092164,0.00211902736665315,0.00110678253365672,0.000572692164327278,0,0
0,0,0,0,0,0,0,0,0,0,0,0,0,0,0,0,0,0,0,0,0,0,0,0,0,0,0,0,0,0,0,0,0,0,0,0,0,0,0,0,0,0,0,0.00125327099932073,0.00428481041066297,0.0118345536514965,0.0267742581313687,0.0504632722495664,0.0803150432635471,0.109482421194752,0.129605851586111,0.13504294237392,0.125332704564519,0.105120403229138,0.0805715217179756,0.0570887807202667,0.0378061235210789,0.0236209386553192,0.0140869495457291,0.00808687268401969,0.00450764010245119,0.00245937721461606,0.00132176469569442,0.000705995685394451,0
0,0,0,0,0,0,0,0,0,0,0,0,0,0,0,0,0,0,0,0,0,0,0,0,0,0,0,0,0,0,0,0,0,0,0,0,0,0,0,0,0,0,0,0,0.00143560347845783,0.00472939408173548,0.0126391437242826,0.0278729262143979,0.0514213268721279,0.0805084108954684,0.108484799322995,0.127541791677065,0.132424440865844,0.123226438841657,0.103946481126209,0.0804268631804135,0.0577247315250162,0.0388055148118506,0.0247274630346059,0.0150662176629632,0.00885636089607479,0.00506480769353804,0.00283662276648688,0.0015702388893009,3.44677990524737e-05
0,0,0,0,0,0,0,0,0,0,0,0,0,0,0,0,0,0,0,0,0,0,0,0,0,0,0,0,0,0,0,0,0,0,0,0,0,0,0,0,0,0,0,0,0,0.0016412512351434,0.00520529286130637,0.0134928105683578,0.0289841157178395,0.0523524318579847,0.0806509257123777,0.107447020814159,0.125332704564519,0.129930025723851,0.121111874890254,0.102736039246893,0.0802263992600773,0.0582492610330546,0.0398059430194432,0.0258343804832211,0.0160714396115308,0.00966664438545691,0.00566061412234171,0.00325792637073675,0.000136532535102569
0,0,0,0,0,0,0,0,0,0,0,0,0,0,0,0,0,0,0,0,0,0,0,0,0,0,0,0,0,0,0,0,0,0,0,0,0,0,0,0,0,0,0,0,0,0,0.00187025143071577,0.00572446603123585,0.0143829253228514,0.0301044855761824,0.0532532367987898,0.080741625086107,0.106255936192732,0.123226438841657,0.127441939577848,0.118991470394609,0.101491176141957,0.0798891985064308,0.058765444595626,0.0407720030465125,0.0269369027998978,0.0170987156822735,0.0105036452805701,0.00630563248121386,0.000305931090486914
0,0,0,0,0,0,0,0,0,0,0,0,0,0,0,0,0,0,0,0,0,0,0,0,0,0,0,0,0,0,0,0,0,0,0,0,0,0,0,0,0,0,0,0,0,0,0.000586249023887938,0.00212853229353105,0.00628354588572343,0.0153082062571649,0.0312304937065691,0.0541205046147212,0.0806927506366462,0.105120403229138,0.121111874890254,0.12496263340991,0.116867802064837,0.100112056145296,0.0795613033343608,0.059223794162781,0.0416997970092797,0.0280302006441306,0.0181230409932961,0.0113848653357794,0.000640716344865439
0,0,0,0,0,0,0,0,0,0,0,0,0,0,0,0,0,0,0,0,0,0,0,0,0,0,0,0,0,0,0,0,0,0,0,0,0,0,0,0,0,0,0,0,0,0,0,0.000693646510708888,0.00241675569594647,0.00688360821677129,0.0162670153474549,0.0323584292244853,0.0548919127937605,0.0806601239833307,0.103946481126209,0.118991470394609,0.122494636508413,0.114626589626494,0.0987842041060759,0.0791772818476645,0.0596229727677333,0.0425857096694165,0.0290761317937617,0.0191751599392026,0.00119369930913356
0,0,0,0,0,0,0,0,0,0,0,0,0,0,0,0,0,0,0,0,0,0,0,0,0,0,0,0,0,0,0,0,0,0,0,0,0,0,0,0,0,0,0,0,0,0,0,0,0.00081833496082969,0.00273720123968031,0.00752546065798602,0.01725735642398,0.0334483529027904,0.0556697792501726,0.0805715217179756,0.102736039246893,0.116867802064837,0.119918181734868,0.112480923887993,0.0974260583388581,0.0787384233508445,0.0599620591102809,0.0433767205446918,0.0301274202748879,0.00210187552232874
0,0,0,0,0,0,0,0,0,0,0,0,0,0,0,0,0,0,0,0,0,0,0,0,0,0,0,0,0,0,0,0,0,0,0,0,0,0,0,0,0,0,0,0,0,0,0,0,0,0.000962489623684915,0.00309210682646872,0.00820960665604567,0.0182571774095388,0.0345596121560629,0.0564029799699654,0.0804268631804135,0.101491176141957,0.114626589626494,0.117456214032348,0.110336666415709,0.0960402332109034,0.0782463619579113,0.0601715681801013,0.0441567143312293,0.00344729318287833
0,0,0,0,0,0,0,0,0,0,0,0,0,0,0,0,0,0,0,0,0,0,0,0,0,0,0,0,0,0,0,0,0,0,0,0,0,0,0,0,0,0,0,0,0,0,0,0,0,0,0.00112842338082455,0.00348362720227852,0.00892657918615069,0.0192977629639062,0.0356591710755674,0.0570887807202667,0.0802263992600773,0.100112056145296,0.112480923887993,0.115009778576863,0.108196472291601,0.0946295417973245,0.077614073155837,0.060373090592669,0.00535107429277953
0,0,0,0,0,0,0,0,0,0,0,0,0,0,0,0,0,0,0,0,0,0,0,0,0,0,0,0,0,0,0,0,0,0,0,0,0,0,0,0,0,0,0,0,0,0,0,0,0,0,0,0.00131856711419763,0.00390957019506862,0.00969245564186289,0.0203605331806632,0.0367427560610402,0.0577247315250162,0.0798891985064308,0.0987842041060759,0.110336666415709,0.112581336311468,0.106063092792868,0.0930902402170515,0.0770019849648094,0.00784249189285955
0,0,0,0,0,0,0,0,0,0,0,0,0,0,0,0,0,0,0,0,0,0,0,0,0,0,0,0,0,0,0,0,0,0,0,0,0,0,0,0,0,0,0,0,0,0,0,0,0,0,0,0,0.00153378856468065,0.00437874267118877,0.0104991891418478,0.021441937025898,0.0378061235210789,0.0582492610330546,0.0795613033343608,0.0974260583388581,0.108196472291601,0.110173413037055,0.103820318339968,0.0916162025058813,0.0108697728624885
0,0,0,0,0,0,0,0,0,0,0,0,0,0,0,0,0,0,0,0,0,0,0,0,0,0,0,0,0,0,0,0,0,0,0,0,0,0,0,0,0,0,0,0,0,0,0,0,0,0,0,0,0.000539007121190898,0.00177931881698681,0.00488957466313795,0.0113456041721648,0.0225381353267962,0.0388055148118506,0.058765444595626,0.0791772818476645,0.0960402332109034,0.106063092792868,0.107665135491745,0.101684441053527,0.0143234658417794
0,0,0,0,0,0,0,0,0,0,0,0,0,0,0,0,0,0,0,0,0,0,0,0,0,0,0,0,0,0,0,0,0,0,0,0,0,0,0,0,0,0,0,0,0,0,0,0,0,0,0,0,0,0.000650349583768541,0.00205653030844881,0.00544330368030316,0.0122300834826868,0.0236209386553192,0.0398059430194432,0.059223794162781,0.0787384233508445,0.0946295417973245,0.103820318339968,0.105280655150737,0.0179717709691242
0,0,0,0,0,0,0,0,0,0,0,0,0,0,0,0,0,0,0,0,0,0,0,0,0,0,0,0,0,0,0,0,0,0,0,0,0,0,0,0,0,0,0,0,0,0,0,0,0,0,0,0,0,0,0.000781174137006425,0.00330192881345612,0.00986823042334399,0.0247373503541205,0.0518740740403267,0.0963313099465564,0.160734202990917,0.244220658891281,0.34234711391416,0.447359672424631,0.935780908357121
