"V1","V2","V3","V4","V5","V6","V7","V8","V9","V10","V11","V12","V13","V14","V15","V16","V17","V18","V19","V20","V21","V22","V23","V24","V25","V26","V27","V28","V29","V30","V31","V32","V33","V34","V35","V36","V37","V38","V39","V40","V41","V42","V43","V44","V45","V46","V47","V48","V49","V50","V51","V52","V53","V54","V55","V56","V57","V58","V59","V60","V61","V62","V63","V64","V65"
0.991578293939082,0.0358089777382231,0,0,0,0,0,0,0,0,0,0,0,0,0,0,0,0,0,0,0,0,0,0,0,0,0,0,0,0,0,0,0,0,0,0,0,0,0,0,0,0,0,0,0,0,0,0,0,0,0,0,0,0,0,0,0,0,0,0,0,0,0,0,0
0.00842170606091759,0.928382044523554,0.0780918163372095,0.000506520133050858,0,0,0,0,0,0,0,0,0,0,0,0,0,0,0,0,0,0,0,0,0,0,0,0,0,0,0,0,0,0,0,0,0,0,0,0,0,0,0,0,0,0,0,0,0,0,0,0,0,0,0,0,0,0,0,0,0,0,0,0,0
0,0.0358089777382231,0.843816367325581,0.121603417002838,0.00201983218911294,0,0,0,0,0,0,0,0,0,0,0,0,0,0,0,0,0,0,0,0,0,0,0,0,0,0,0,0,0,0,0,0,0,0,0,0,0,0,0,0,0,0,0,0,0,0,0,0,0,0,0,0,0,0,0,0,0,0,0,0
0,0,0.0780918163372095,0.755780125728223,0.158549432726816,0.00525441166747003,0,0,0,0,0,0,0,0,0,0,0,0,0,0,0,0,0,0,0,0,0,0,0,0,0,0,0,0,0,0,0,0,0,0,0,0,0,0,0,0,0,0,0,0,0,0,0,0,0,0,0,0,0,0,0,0,0,0,0
0,0,0,0.121603417002838,0.678861470168142,0.187060874693944,0.0104379643280469,0,0,0,0,0,0,0,0,0,0,0,0,0,0,0,0,0,0,0,0,0,0,0,0,0,0,0,0,0,0,0,0,0,0,0,0,0,0,0,0,0,0,0,0,0,0,0,0,0,0,0,0,0,0,0,0,0,0
0,0,0,0.000506520133050858,0.158549432726816,0.615369427277171,0.207859388373147,0.0173426111371711,0.000640547368421927,0,0,0,0,0,0,0,0,0,0,0,0,0,0,0,0,0,0,0,0,0,0,0,0,0,0,0,0,0,0,0,0,0,0,0,0,0,0,0,0,0,0,0,0,0,0,0,0,0,0,0,0,0,0,0,0
0,0,0,0,0.00201983218911294,0.187060874693944,0.563405294597612,0.222390212134684,0.0254498438359902,0.00135418328028832,0,0,0,0,0,0,0,0,0,0,0,0,0,0,0,0,0,0,0,0,0,0,0,0,0,0,0,0,0,0,0,0,0,0,0,0,0,0,0,0,0,0,0,0,0,0,0,0,0,0,0,0,0,0,0
0,0,0,0,0,0.00525441166747003,0.207859388373147,0.52053435345629,0.23182776274462,0.0342279412395953,0.00246197519227223,0,0,0,0,0,0,0,0,0,0,0,0,0,0,0,0,0,0,0,0,0,0,0,0,0,0,0,0,0,0,0,0,0,0,0,0,0,0,0,0,0,0,0,0,0,0,0,0,0,0,0,0,0,0
0,0,0,0,0,0,0.0104379643280469,0.222390212134684,0.484163692101936,0.237685547919236,0.043180921676871,0.00399661659273602,0,0,0,0,0,0,0,0,0,0,0,0,0,0,0,0,0,0,0,0,0,0,0,0,0,0,0,0,0,0,0,0,0,0,0,0,0,0,0,0,0,0,0,0,0,0,0,0,0,0,0,0,0
0,0,0,0,0,0,0,0.0173426111371711,0.23182776274462,0.453464655121762,0.240822382787166,0.0519400400875582,0.0059492271528555,0,0,0,0,0,0,0,0,0,0,0,0,0,0,0,0,0,0,0,0,0,0,0,0,0,0,0,0,0,0,0,0,0,0,0,0,0,0,0,0,0,0,0,0,0,0,0,0,0,0,0,0
0,0,0,0,0,0,0,0,0.0254498438359902,0.237685547919236,0.427069440687382,0.241984838663063,0.0602578044040798,0.00827864433472655,0.000734258146047805,0,0,0,0,0,0,0,0,0,0,0,0,0,0,0,0,0,0,0,0,0,0,0,0,0,0,0,0,0,0,0,0,0,0,0,0,0,0,0,0,0,0,0,0,0,0,0,0,0,0
0,0,0,0,0,0,0,0,0.000640547368421927,0.0342279412395953,0.240822382787166,0.404157009313286,0.241738016608155,0.0679888249531677,0.0109077563089999,0.00114934026874623,0,0,0,0,0,0,0,0,0,0,0,0,0,0,0,0,0,0,0,0,0,0,0,0,0,0,0,0,0,0,0,0,0,0,0,0,0,0,0,0,0,0,0,0,0,0,0,0,0
0,0,0,0,0,0,0,0,0,0.00135418328028832,0.043180921676871,0.241984838663063,0.384109903669819,0.240505228158374,0.0749544327917089,0.0137833141115371,0.00168849697717994,0,0,0,0,0,0,0,0,0,0,0,0,0,0,0,0,0,0,0,0,0,0,0,0,0,0,0,0,0,0,0,0,0,0,0,0,0,0,0,0,0,0,0,0,0,0,0,0
0,0,0,0,0,0,0,0,0,0,0.00246197519227223,0.0519400400875582,0.241738016608155,0.366454605107463,0.23825085025852,0.081283071047996,0.0168258208647302,0.00235481582185052,0,0,0,0,0,0,0,0,0,0,0,0,0,0,0,0,0,0,0,0,0,0,0,0,0,0,0,0,0,0,0,0,0,0,0,0,0,0,0,0,0,0,0,0,0,0,0
0,0,0,0,0,0,0,0,0,0,0,0.00399661659273602,0.0602578044040798,0.240505228158374,0.350305404989447,0.235715409109582,0.0869307416423633,0.0199684225251695,0.00314563229113273,0,0,0,0,0,0,0,0,0,0,0,0,0,0,0,0,0,0,0,0,0,0,0,0,0,0,0,0,0,0,0,0,0,0,0,0,0,0,0,0,0,0,0,0,0,0
0,0,0,0,0,0,0,0,0,0,0,0,0.0059492271528555,0.0679888249531677,0.23825085025852,0.336137730924278,0.232858265995945,0.0919342198698718,0.0231528758404309,0.00405361291791515,0.000526648631211788,0,0,0,0,0,0,0,0,0,0,0,0,0,0,0,0,0,0,0,0,0,0,0,0,0,0,0,0,0,0,0,0,0,0,0,0,0,0,0,0,0,0,0,0
0,0,0,0,0,0,0,0,0,0,0,0,0,0.00827864433472655,0.0749544327917089,0.235715409109582,0.323393349039563,0.229803827391629,0.0963423149370413,0.0263307819500993,0.00506268450326207,0.00072856629563646,0,0,0,0,0,0,0,0,0,0,0,0,0,0,0,0,0,0,0,0,0,0,0,0,0,0,0,0,0,0,0,0,0,0,0,0,0,0,0,0,0,0,0
0,0,0,0,0,0,0,0,0,0,0,0,0,0,0.0109077563089999,0.081283071047996,0.232858265995945,0.311877428782958,0.226644068802151,0.100209217726066,0.0294325205479374,0.00616695859394791,0.000973106211636971,0,0,0,0,0,0,0,0,0,0,0,0,0,0,0,0,0,0,0,0,0,0,0,0,0,0,0,0,0,0,0,0,0,0,0,0,0,0,0,0,0,0
0,0,0,0,0,0,0,0,0,0,0,0,0,0,0.000734258146047805,0.0137833141115371,0.0869307416423633,0.229803827391629,0.301430216258488,0.223446739050383,0.103481028356536,0.0324742567948554,0.00734908753827276,0.00126104258122787,0,0,0,0,0,0,0,0,0,0,0,0,0,0,0,0,0,0,0,0,0,0,0,0,0,0,0,0,0,0,0,0,0,0,0,0,0,0,0,0,0
0,0,0,0,0,0,0,0,0,0,0,0,0,0,0,0.00114934026874623,0.0168258208647302,0.0919342198698718,0.226644068802151,0.291919296711073,0.220029394664092,0.10638334475538,0.0354143458161336,0.00859443442113188,0.0015920289903334,0,0,0,0,0,0,0,0,0,0,0,0,0,0,0,0,0,0,0,0,0,0,0,0,0,0,0,0,0,0,0,0,0,0,0,0,0,0,0,0
0,0,0,0,0,0,0,0,0,0,0,0,0,0,0,0,0.00168849697717994,0.0199684225251695,0.0963423149370413,0.223446739050383,0.282935446593922,0.216807495549868,0.108892421293585,0.0382371396339822,0.00988876938603531,0.00196474776282336,0,0,0,0,0,0,0,0,0,0,0,0,0,0,0,0,0,0,0,0,0,0,0,0,0,0,0,0,0,0,0,0,0,0,0,0,0,0,0
0,0,0,0,0,0,0,0,0,0,0,0,0,0,0,0,0,0.00235481582185052,0.0231528758404309,0.100209217726066,0.220029394664092,0.274878756020625,0.213643022403323,0.111053956634567,0.0409325496948028,0.0112187263568794,0.00237708718499154,0,0,0,0,0,0,0,0,0,0,0,0,0,0,0,0,0,0,0,0,0,0,0,0,0,0,0,0,0,0,0,0,0,0,0,0,0,0
0,0,0,0,0,0,0,0,0,0,0,0,0,0,0,0,0,0,0.00314563229113273,0.0263307819500993,0.103481028356536,0.216807495549868,0.267456033474097,0.210553865902231,0.11290953487635,0.0434949470625807,0.0125720899595306,0.00282632541891936,0.000508556174784901,0,0,0,0,0,0,0,0,0,0,0,0,0,0,0,0,0,0,0,0,0,0,0,0,0,0,0,0,0,0,0,0,0,0,0,0
0,0,0,0,0,0,0,0,0,0,0,0,0,0,0,0,0,0,0,0.00405361291791515,0.0294325205479374,0.10638334475538,0.213643022403323,0.26059912165372,0.207552376619967,0.114496591391178,0.0459221968611622,0.0139379481629395,0.00330594026097685,0.000631097510653697,0,0,0,0,0,0,0,0,0,0,0,0,0,0,0,0,0,0,0,0,0,0,0,0,0,0,0,0,0,0,0,0,0,0,0
0,0,0,0,0,0,0,0,0,0,0,0,0,0,0,0,0,0,0,0,0.00506268450326207,0.0324742567948554,0.108892421293585,0.210553865902231,0.254249480865024,0.204646729475286,0.115848559738781,0.0482148375304315,0.0152911756378843,0.00381777212376808,0.00076937215203359,0,0,0,0,0,0,0,0,0,0,0,0,0,0,0,0,0,0,0,0,0,0,0,0,0,0,0,0,0,0,0,0,0,0
0,0,0,0,0,0,0,0,0,0,0,0,0,0,0,0,0,0,0,0,0.000526648631211788,0.00616695859394791,0.0354143458161336,0.111053956634567,0.207552376619967,0.248356515902505,0.201841947846794,0.116995121405047,0.0503241626652285,0.0166492166347352,0.00435591181529266,0.00092318877790279,0,0,0,0,0,0,0,0,0,0,0,0,0,0,0,0,0,0,0,0,0,0,0,0,0,0,0,0,0,0,0,0,0
0,0,0,0,0,0,0,0,0,0,0,0,0,0,0,0,0,0,0,0,0,0.00072856629563646,0.00734908753827276,0.0382371396339822,0.11290953487635,0.204646729475286,0.242876236817481,0.199140677024706,0.117842526136976,0.0523417058238049,0.0179938061620222,0.004916693076091,0.00109214526305168,0,0,0,0,0,0,0,0,0,0,0,0,0,0,0,0,0,0,0,0,0,0,0,0,0,0,0,0,0,0,0,0
0,0,0,0,0,0,0,0,0,0,0,0,0,0,0,0,0,0,0,0,0,0,0.000973106211636971,0.00859443442113188,0.0409325496948028,0.114496591391178,0.201841947846794,0.237770180915914,0.196343864857749,0.118623902267251,0.0542335881824087,0.0193190657147417,0.00549651248362918,0.00127566054742301,0,0,0,0,0,0,0,0,0,0,0,0,0,0,0,0,0,0,0,0,0,0,0,0,0,0,0,0,0,0,0
0,0,0,0,0,0,0,0,0,0,0,0,0,0,0,0,0,0,0,0,0,0,0,0.00126104258122787,0.00988876938603531,0.0434949470625807,0.115848559738781,0.199140677024706,0.232767548532801,0.193805816569109,0.119265541072814,0.0560053584075261,0.0206201961550446,0.00609189843479632,0.00147300728413208,0,0,0,0,0,0,0,0,0,0,0,0,0,0,0,0,0,0,0,0,0,0,0,0,0,0,0,0,0,0
0,0,0,0,0,0,0,0,0,0,0,0,0,0,0,0,0,0,0,0,0,0,0,0,0.0015920289903334,0.0112187263568794,0.0459221968611622,0.116995121405047,0.196343864857749,0.228260978141357,0.191365202387291,0.119785288068279,0.0576629859161821,0.0218933616571361,0.00669956112898319,0.00168334359727772,0,0,0,0,0,0,0,0,0,0,0,0,0,0,0,0,0,0,0,0,0,0,0,0,0,0,0,0,0
0,0,0,0,0,0,0,0,0,0,0,0,0,0,0,0,0,0,0,0,0,0,0,0,0,0.00196474776282336,0.0125720899595306,0.0482148375304315,0.117842526136976,0.193805816569109,0.224033156456276,0.189020027537687,0.120198825433652,0.0592126524255063,0.0231355738250082,0.00731642642463022,0.00190574278622593,0,0,0,0,0,0,0,0,0,0,0,0,0,0,0,0,0,0,0,0,0,0,0,0,0,0,0,0
0,0,0,0,0,0,0,0,0,0,0,0,0,0,0,0,0,0,0,0,0,0,0,0,0,0,0.00237708718499154,0.0139379481629395,0.0503241626652285,0.118623902267251,0.191365202387291,0.220060756835544,0.186767833795005,0.120519923533471,0.0606605940525814,0.0243445805045385,0.00793965642584518,0.00213922024020625,0,0,0,0,0,0,0,0,0,0,0,0,0,0,0,0,0,0,0,0,0,0,0,0,0,0,0
0,0,0,0,0,0,0,0,0,0,0,0,0,0,0,0,0,0,0,0,0,0,0,0,0,0,0,0.00282632541891936,0.0152911756378843,0.0523417058238049,0.119265541072814,0.189020027537687,0.21632300190687,0.184605844550791,0.120760667349198,0.0620129838703154,0.025518762072526,0.00856665945884756,0.0023827571685213,0.000555974090035589,0,0,0,0,0,0,0,0,0,0,0,0,0,0,0,0,0,0,0,0,0,0,0,0,0
0,0,0,0,0,0,0,0,0,0,0,0,0,0,0,0,0,0,0,0,0,0,0,0,0,0,0,0,0.00330594026097685,0.0166492166347352,0.0542335881824087,0.119785288068279,0.186767833795005,0.212801317701753,0.182531074997946,0.120931658704194,0.0632758465387664,0.0266570367232499,0.00919509180510572,0.00263239067074105,0.00063482579427342,0,0,0,0,0,0,0,0,0,0,0,0,0,0,0,0,0,0,0,0,0,0,0,0
0,0,0,0,0,0,0,0,0,0,0,0,0,0,0,0,0,0,0,0,0,0,0,0,0,0,0,0,0.000508556174784901,0.00381777212376808,0.0179938061620222,0.0560053584075261,0.120198825433652,0.184605844550791,0.209479042724303,0.180540415784008,0.121042195833839,0.0644549981414491,0.0277587753842604,0.00981193072298907,0.0028922058196581,0.000718914916215655,0,0,0,0,0,0,0,0,0,0,0,0,0,0,0,0,0,0,0,0,0,0,0
0,0,0,0,0,0,0,0,0,0,0,0,0,0,0,0,0,0,0,0,0,0,0,0,0,0,0,0,0,0.000631097510653697,0.00435591181529266,0.0193190657147417,0.0576629859161821,0.120519923533471,0.182531074997946,0.206341182230072,0.178630696413372,0.121100432176808,0.0655560056501798,0.0287916757984299,0.0104348125685455,0.00315888164648059,0.000808006982658257,0,0,0,0,0,0,0,0,0,0,0,0,0,0,0,0,0,0,0,0,0,0
0,0,0,0,0,0,0,0,0,0,0,0,0,0,0,0,0,0,0,0,0,0,0,0,0,0,0,0,0,0,0.00076937215203359,0.004916693076091,0.0206201961550446,0.0592126524255063,0.120760667349198,0.180540415784008,0.203374199858851,0.17679873313711,0.121113516369565,0.0665101233922745,0.0298140472617423,0.0110532072444046,0.00343142631041977,0.000901840450135389,0,0,0,0,0,0,0,0,0,0,0,0,0,0,0,0,0,0,0,0,0
0,0,0,0,0,0,0,0,0,0,0,0,0,0,0,0,0,0,0,0,0,0,0,0,0,0,0,0,0,0,0,0.00092318877790279,0.00549651248362918,0.0218933616571361,0.0606605940525814,0.120931658704194,0.178630696413372,0.200565840244659,0.175041364919525,0.120953072136835,0.067458711949343,0.0307994080686682,0.0116656701302609,0.00370888627180134,0.00100013267848637,0,0,0,0,0,0,0,0,0,0,0,0,0,0,0,0,0,0,0,0
0,0,0,0,0,0,0,0,0,0,0,0,0,0,0,0,0,0,0,0,0,0,0,0,0,0,0,0,0,0,0,0,0.00109214526305168,0.00609189843479632,0.0231355738250082,0.0620129838703154,0.121042195833839,0.17679873313711,0.197904977405685,0.173162717900351,0.120874858733588,0.0683432339272255,0.0317482768254711,0.0122709525036418,0.00399035286679512,0.00110258544391608,0,0,0,0,0,0,0,0,0,0,0,0,0,0,0,0,0,0,0
0,0,0,0,0,0,0,0,0,0,0,0,0,0,0,0,0,0,0,0,0,0,0,0,0,0,0,0,0,0,0,0,0,0.00127566054742301,0.00669956112898319,0.0243445805045385,0.0632758465387664,0.121100432176808,0.175041364919525,0.195164230576689,0.171519989141742,0.120766861268942,0.0691681367740325,0.0326613391081231,0.0128679858119434,0.00427496694540818,0.0012088899357025,0,0,0,0,0,0,0,0,0,0,0,0,0,0,0,0,0,0
0,0,0,0,0,0,0,0,0,0,0,0,0,0,0,0,0,0,0,0,0,0,0,0,0,0,0,0,0,0,0,0,0,0,0.00147300728413208,0.00731642642463022,0.025518762072526,0.0644549981414491,0.121113516369565,0.173162717900351,0.192741097462215,0.169941376416105,0.120633366378604,0.069937588164626,0.0335394110196811,0.0134558659215897,0.00456192187044319,0.00131873121044428,0,0,0,0,0,0,0,0,0,0,0,0,0,0,0,0,0
0,0,0,0,0,0,0,0,0,0,0,0,0,0,0,0,0,0,0,0,0,0,0,0,0,0,0,0,0,0,0,0,0,0,0,0.00168334359727772,0.00793965642584518,0.0266570367232499,0.0655560056501798,0.120953072136835,0.171519989141742,0.190436233023916,0.168424113292122,0.12047814412422,0.0706554842353206,0.0343834083124076,0.0140338377163245,0.00485046515254229,0.00143179210073168,0,0,0,0,0,0,0,0,0,0,0,0,0,0,0,0
0,0,0,0,0,0,0,0,0,0,0,0,0,0,0,0,0,0,0,0,0,0,0,0,0,0,0,0,0,0,0,0,0,0,0,0,0.00190574278622593,0.00856665945884756,0.0277587753842604,0.0665101233922745,0.120874858733588,0.169941376416105,0.188242006612862,0.166965537334268,0.120304510285432,0.0713254601091405,0.0351943203830236,0.0146012803070012,0.00513989896956137,0.00154775659224081,0,0,0,0,0,0,0,0,0,0,0,0,0,0,0
0,0,0,0,0,0,0,0,0,0,0,0,0,0,0,0,0,0,0,0,0,0,0,0,0,0,0,0,0,0,0,0,0,0,0,0,0,0.00213922024020625,0.00919509180510572,0.0287916757984299,0.067458711949343,0.120766861268942,0.168424113292122,0.186151424086368,0.165563092195906,0.120115380892787,0.0719509019164736,0.0359731885057431,0.0151576930287141,0.00542957978995227,0.00166631269542136,0,0,0,0,0,0,0,0,0,0,0,0,0,0
0,0,0,0,0,0,0,0,0,0,0,0,0,0,0,0,0,0,0,0,0,0,0,0,0,0,0,0,0,0,0,0,0,0,0,0,0,0,0.0023827571685213,0.00981193072298907,0.0298140472617423,0.0683432339272255,0.120633366378604,0.166965537334268,0.184158061812871,0.164214327967838,0.119913319994819,0.0725349597045007,0.0367210877284608,0.0157026823339054,0.0057189172913687,0.00178715484606503,0,0,0,0,0,0,0,0,0,0,0,0,0
0,0,0,0,0,0,0,0,0,0,0,0,0,0,0,0,0,0,0,0,0,0,0,0,0,0,0,0,0,0,0,0,0,0,0,0,0,0,0,0.00263239067074105,0.0104348125685455,0.0307994080686682,0.0691681367740325,0.12047814412422,0.165563092195906,0.182256008813826,0.162916900233506,0.119700581526192,0.0730805607770847,0.037439111918645,0.0162359496387554,0.00600737273853701,0.00190998587392737,0.000524610481181051,0,0,0,0,0,0,0,0,0,0,0
0,0,0,0,0,0,0,0,0,0,0,0,0,0,0,0,0,0,0,0,0,0,0,0,0,0,0,0,0,0,0,0,0,0,0,0,0,0,0,0.000555974090035589,0.0028922058196581,0.0110532072444046,0.0317482768254711,0.069937588164626,0.120304510285432,0.164214327967838,0.180439815899416,0.161668568177585,0.119479146031879,0.0735904231230643,0.0381283615045654,0.0167572801417177,0.00629445695926448,0.00203238392140792,0.000568697310239599,0,0,0,0,0,0,0,0,0,0
0,0,0,0,0,0,0,0,0,0,0,0,0,0,0,0,0,0,0,0,0,0,0,0,0,0,0,0,0,0,0,0,0,0,0,0,0,0,0,0,0.00063482579427342,0.00315888164648059,0.0116656701302609,0.0326613391081231,0.0706554842353206,0.120115380892787,0.162916900233506,0.178704450831982,0.160467192014342,0.119250752904002,0.074067068681697,0.0387899335128974,0.017266532604909,0.00657282444609912,0.00215801965623705,0.000614112138561835,0,0,0,0,0,0,0,0,0
0,0,0,0,0,0,0,0,0,0,0,0,0,0,0,0,0,0,0,0,0,0,0,0,0,0,0,0,0,0,0,0,0,0,0,0,0,0,0,0,0,0.000718914916215655,0.00343142631041977,0.0122709525036418,0.0335394110196811,0.0713254601091405,0.119913319994819,0.161668568177585,0.177045258698453,0.159310729940138,0.119016928702036,0.074512836264623,0.0394249135546826,0.0177449920960298,0.00685498310049968,0.00228478749069301,0.000660755290023151,0,0,0,0,0,0,0,0
0,0,0,0,0,0,0,0,0,0,0,0,0,0,0,0,0,0,0,0,0,0,0,0,0,0,0,0,0,0,0,0,0,0,0,0,0,0,0,0,0,0,0.000808006982658257,0.00370888627180134,0.0128679858119434,0.0343834083124076,0.0719509019164736,0.119700581526192,0.160467192014342,0.175457926796104,0.158197234766637,0.118779012052165,0.0749298940083855,0.0399923645580612,0.0182277956548744,0.00713451067579193,0.00241243581665631,0.000708526611308827,0,0,0,0,0,0,0
0,0,0,0,0,0,0,0,0,0,0,0,0,0,0,0,0,0,0,0,0,0,0,0,0,0,0,0,0,0,0,0,0,0,0,0,0,0,0,0,0,0,0,0.000901840450135389,0.00399035286679512,0.0134558659215897,0.0351943203830236,0.0725349597045007,0.119479146031879,0.159310729940138,0.173938453439038,0.157124850354344,0.11853817555663,0.0752412236870893,0.0405731460586599,0.018698330044155,0.007411091991288,0.00254072639307642,0.000757326232986189,0,0,0,0,0,0
0,0,0,0,0,0,0,0,0,0,0,0,0,0,0,0,0,0,0,0,0,0,0,0,0,0,0,0,0,0,0,0,0,0,0,0,0,0,0,0,0,0,0,0,0.00100013267848637,0.00427496694540818,0.0140338377163245,0.0359731885057431,0.0730805607770847,0.119250752904002,0.158197234766637,0.172483120179303,0.156091807937489,0.118171327026728,0.0755996853515738,0.0411302831773538,0.0191566673495652,0.0076844490248695,0.00266943456925435,0.000807055235396855,0,0,0,0,0
0,0,0,0,0,0,0,0,0,0,0,0,0,0,0,0,0,0,0,0,0,0,0,0,0,0,0,0,0,0,0,0,0,0,0,0,0,0,0,0,0,0,0,0,0,0.00110258544391608,0.00456192187044319,0.0146012803070012,0.0367210877284608,0.0735904231230643,0.119016928702036,0.157124850354344,0.171088467009424,0.154933691991633,0.117917445402589,0.0759347954133342,0.0416647738829692,0.0196029156558946,0.00795433826962395,0.00279834933968075,0.000857616224365886,0,0,0,0
0,0,0,0,0,0,0,0,0,0,0,0,0,0,0,0,0,0,0,0,0,0,0,0,0,0,0,0,0,0,0,0,0,0,0,0,0,0,0,0,0,0,0,0,0,0,0.0012088899357025,0.00485046515254229,0.0151576930287141,0.037439111918645,0.074067068681697,0.118779012052165,0.156091807937489,0.169573163583541,0.153961773923417,0.117663077715139,0.0762481688088759,0.0421775851532796,0.0200372135981656,0.00822054815780487,0.00292727325840749,0.000908913822509074,0,0,0
0,0,0,0,0,0,0,0,0,0,0,0,0,0,0,0,0,0,0,0,0,0,0,0,0,0,0,0,0,0,0,0,0,0,0,0,0,0,0,0,0,0,0,0,0,0,0,0.00131873121044428,0.00513989896956137,0.0157026823339054,0.0381283615045654,0.074512836264623,0.11853817555663,0.154933691991633,0.168276907083818,0.153024098680663,0.117408928428495,0.0765413032908058,0.0426696514827213,0.0204597255205297,0.0084828965745869,0.00305602223787707,0.000960855082396938,0,0
0,0,0,0,0,0,0,0,0,0,0,0,0,0,0,0,0,0,0,0,0,0,0,0,0,0,0,0,0,0,0,0,0,0,0,0,0,0,0,0,0,0,0,0,0,0,0,0,0.00143179210073168,0.00542957978995227,0.0162359496387554,0.0387899335128974,0.0749298940083855,0.118171327026728,0.153961773923417,0.167032009328617,0.152119240399331,0.117155611993878,0.076815588036945,0.0431418739455874,0.0208706371881742,0.00874122847771354,0.00318442525421053,0.00101334982806531,0
0,0,0,0,0,0,0,0,0,0,0,0,0,0,0,0,0,0,0,0,0,0,0,0,0,0,0,0,0,0,0,0,0,0,0,0,0,0,0,0,0,0,0,0,0,0,0,0,0,0.00154775659224081,0.0057189172913687,0.0167572801417177,0.0394249135546826,0.0752412236870893,0.117917445402589,0.153024098680663,0.165835876065593,0.151245841842427,0.116903663018183,0.0770723116747791,0.0435951197147518,0.021270152000238,0.00899541363393769,0.00331232397820807,4.25387644104842e-05
0,0,0,0,0,0,0,0,0,0,0,0,0,0,0,0,0,0,0,0,0,0,0,0,0,0,0,0,0,0,0,0,0,0,0,0,0,0,0,0,0,0,0,0,0,0,0,0,0,0,0.00166631269542136,0.00600737273853701,0.017266532604909,0.0399923645580612,0.0755996853515738,0.117663077715139,0.152119240399331,0.164686080068921,0.150402610876003,0.116653545264091,0.0773126697462847,0.0440302219513478,0.0216584876549087,0.00924534447895904,0.000180368317941844
0,0,0,0,0,0,0,0,0,0,0,0,0,0,0,0,0,0,0,0,0,0,0,0,0,0,0,0,0,0,0,0,0,0,0,0,0,0,0,0,0,0,0,0,0,0,0,0,0,0,0,0.00178715484606503,0.00629445695926448,0.0177449920960298,0.0405731460586599,0.0759347954133342,0.117408928428495,0.151245841842427,0.163580347832236,0.149588317098098,0.116405659622821,0.0775377716409042,0.0444479799940228,0.0220358732212651,0.000559748724459669
0,0,0,0,0,0,0,0,0,0,0,0,0,0,0,0,0,0,0,0,0,0,0,0,0,0,0,0,0,0,0,0,0,0,0,0,0,0,0,0,0,0,0,0,0,0,0,0,0,0,0,0,0.00190998587392737,0.00657282444609912,0.0182277956548744,0.0411302831773538,0.0762481688088759,0.117155611993878,0.150402610876003,0.162516547528066,0.148801788623371,0.116160351182627,0.0777486470259512,0.0448491597876733,0.00145038828856007
0,0,0,0,0,0,0,0,0,0,0,0,0,0,0,0,0,0,0,0,0,0,0,0,0,0,0,0,0,0,0,0,0,0,0,0,0,0,0,0,0,0,0,0,0,0,0,0,0,0,0,0,0,0.00203238392140792,0.00685498310049968,0.018698330044155,0.0416647738829692,0.0765413032908058,0.116903663018183,0.149588317098098,0.161492678094473,0.148041909023381,0.115917915500518,0.0779462518043196,0.0032346601415184
0,0,0,0,0,0,0,0,0,0,0,0,0,0,0,0,0,0,0,0,0,0,0,0,0,0,0,0,0,0,0,0,0,0,0,0,0,0,0,0,0,0,0,0,0,0,0,0,0,0,0,0,0,0.000524610481181051,0.00215801965623705,0.00713451067579193,0.0191566673495652,0.0421775851532796,0.076815588036945,0.116653545264091,0.148801788623371,0.160506859326804,0.147307614420401,0.115678604171189,0.0062835054962441
0,0,0,0,0,0,0,0,0,0,0,0,0,0,0,0,0,0,0,0,0,0,0,0,0,0,0,0,0,0,0,0,0,0,0,0,0,0,0,0,0,0,0,0,0,0,0,0,0,0,0,0,0,0,0.000568697310239599,0.00228478749069301,0.007411091991288,0.0196029156558946,0.0426696514827213,0.0770723116747791,0.116405659622821,0.148041909023381,0.159557322867306,0.146597890731196,0.0107216155948203
0,0,0,0,0,0,0,0,0,0,0,0,0,0,0,0,0,0,0,0,0,0,0,0,0,0,0,0,0,0,0,0,0,0,0,0,0,0,0,0,0,0,0,0,0,0,0,0,0,0,0,0,0,0,0,0.000614112138561835,0.00241243581665631,0.0076844490248695,0.0200372135981656,0.0431418739455874,0.0773126697462847,0.116160351182627,0.147307614420401,0.15864240399825,0.0162127949008756
0,0,0,0,0,0,0,0,0,0,0,0,0,0,0,0,0,0,0,0,0,0,0,0,0,0,0,0,0,0,0,0,0,0,0,0,0,0,0,0,0,0,0,0,0,0,0,0,0,0,0,0,0,0,0,0,0.000660755290023151,0.00324925300438525,0.0113810990718645,0.0322856782534122,0.0767335429602862,0.15554431013059,0.272913724145946,0.420678798000875,0.961314379771169
