# mseR batch design file,  Tue Oct  1 13:51:07 2019 
"parFile","blobName","scenarioLabel","mpLabel","dataName","methodName","ruleName","scCol","scLty","scLwd","scSym","mpCol","mpLty","mpLwd","mpSym","join"
"job1.txt","simjob1","'baseM_1918_str2018'","'base'","data","method","rule","black",1,1,1,"black",1,1,1,0
"job2.txt","simjob2","'baseM_1960_lbCommCatch'","'base'","data","method","rule","black",1,1,1,"black",1,1,1,0
"job3.txt","simjob3","'M.03_1960_str2018'","'base'","data","method","rule","black",1,1,1,"black",1,1,1,0
