Catch History - Sebastes ruberrimus (built 2019-06-05)
Trawl
year,1,3,4,5,6,7,8,9
1918,0,0.000299688370276053,0.000149307338286407,1.57346843720113e-05,0.0019090037751707,0.00106729935805964,0.000426700441773775,1.26074265806208e-05
1919,0,0.000585805885619122,0.00029185355926136,2.38616577453824e-05,0.000224808656423961,0.000125687616655493,5.02492212212078e-05,1.4846794267338e-06
1920,0,0.000329450182086784,0.000164134930361295,1.38442766340229e-05,0.000326226924976793,0.000182389260900423,7.29182282489992e-05,2.15446509784866e-06
1921,0,0.000191830521841724,9.55716252582555e-05,7.67595458298035e-06,1.30624515514494e-05,7.30304797553395e-06,2.91971860933256e-06,8.62669320196021e-08
1922,0,0.000424437586353539,0.000211458476779664,1.69210734628587e-05,4.19707606838926e-06,2.34653102931594e-06,9.3813026240857e-07,2.77182942609774e-08
1923,0,0.000190862727195768,9.50894615945057e-05,7.67955318067877e-06,3.09366706537279e-05,1.72962930501663e-05,6.91496329480812e-06,2.04311698587838e-07
1924,0,0.00018464821300601,9.19933368714769e-05,7.54446651359846e-06,8.14705168282e-05,4.55491138584833e-05,1.82102864196915e-05,5.38046897945458e-07
1925,0,0.00011828067325832,5.89284545097848e-05,4.98601148648716e-06,0.000124634437420899,6.96815044483371e-05,2.78582840953095e-05,8.23109697130094e-07
1926,0,0.000219460389608462,0.000109337064369747,9.35616512910966e-06,0.00028226722894541,0.000157811962539346,6.30923588815303e-05,1.86414684524462e-06
1927,0,0.000314049947898696,0.000156462400481364,1.34662744013604e-05,0.000441882727229175,0.000247050926375025,9.87696081973595e-05,2.91827816856369e-06
1928,0,0.000289475235430535,0.000144219066165804,1.22246925134442e-05,0.000315726415296795,0.000176518561540617,7.05711547766566e-05,2.08511772066088e-06
1929,0,0.00024379113342627,0.000121458851393444,1.072558470888e-05,0.000477819114943051,0.000267142496667793,0.000106802108034555,3.15560895625943e-06
1930,0,0.000173933880141862,8.66487188201743e-05,7.55312652022651e-06,0.000247593475748267,0.000138087776187188,5.52116113311444e-05,1.63110161844132e-06
1931,0,0.000177757773812171,8.85604604648657e-05,7.17080295791513e-06,3.69077517361684e-05,2.06346473735573e-05,8.24961908170753e-06,2.43745861753425e-07
1932,0,9.85139170855617e-05,4.87443099313225e-05,8.55259901201847e-06,5.38340330312351e-05,1.29703146886242e-05,5.43205981741775e-06,1.5047189131967e-07
1933,0,5.95668236944628e-05,2.9676706799812e-05,2.38288042860505e-06,3.792600928864e-06,2.12039420214922e-06,8.47721996606945e-07,2.50470629666364e-08
1934,0,0.000136946974147174,6.51079025219407e-05,4.79655724571517e-05,0.000314129635923276,1.66534738465033e-05,8.9468129516866e-06,1.7129247389025e-07
1935,0,0.000728776163312701,0.000336682479013479,0.000388759939408458,0.00271489635622147,0.000172821330870423,8.84586124528585e-05,1.82631903316505e-06
1936,0,0.00101120274455674,0.00046942861204009,0.00050865047855456,0.00360378922969993,0.000264178137562583,0.000130822462749177,2.84059396339243e-06
1937,0,0.000797340023763114,0.00036672032137606,0.000447151052563368,0.00289275413357504,6.22875923981746e-05,4.72909506762307e-05,4.87061360087738e-07
1938,0,0.00176266563622152,0.000832227791635261,0.000695401650475447,0.00427609239842967,4.97597356064018e-05,5.35980748655073e-05,2.13374680440498e-07
1939,0,0.00178070806238482,0.000576522324830508,0.000714377911898776,0.00469686983551163,0.000149790687428763,0.000117137031467713,2.95886156697791e-07
1940,0,0.00312856387664345,0.00128570697518351,0.00163210945543858,0.0105968322332979,0.000228819634519419,0.00020167048607948,3.86070293966508e-07
1941,0,0.00241084380400769,0.000516374710253522,0.00060457778722376,0.00585502917440498,0.00111218528987904,0.000676955964571782,2.75599152757071e-06
1942,0,0.0261560060441286,0.0104109503035043,0.0131767603704228,0.0848924705208515,0.00156108807411568,0.00145955237913655,2.39121954774142e-06
1943,0,0.0873737398062934,0.0356584059518107,0.0452330083344142,0.290471545074464,0.00476614574517853,0.00466399365476043,6.69786010594124e-06
1944,0,0.0446367425076731,0.0146029754429646,0.0181186165600928,0.12056724866553,0.00449470089995551,0.00337955838148624,9.27094715499131e-06
1945,0,0.397567570094884,0.202548149049509,0.212960998922862,1.35330269593962,0.0178819662484323,0.018545285611738,1.51857837809854e-05
1946,0,0.189891977240282,0.0903306834510361,0.108365439719554,0.677246162922749,0.0137085556759195,0.0127324140078123,2.24514060894416e-05
1947,0,0.0922933341106695,0.0408495518365397,0.052121168582764,0.332025546305809,0.00378560209132856,0.00452079926907962,3.29763415420748e-06
1948,0,0.153710591316235,0.0679037174128227,0.0869286851659057,0.553316758793321,0.00612525002816937,0.00762485165606801,5.15251788317985e-06
1949,0,0.188141147073437,0.0836075519533422,0.106695377061043,0.68108030342929,0.00805121165706198,0.0113422131944193,6.98656772359559e-06
1950,0,0.323227097990126,0.165812103463401,0.222243595467056,1.15474822449021,0.0170008228623475,0.0232796026251358,2.81861799479082e-06
1951,0,0.302407178132511,0.124564815175408,0.157264975834549,1.24045760274294,0.016776353166136,0.015323022038363,0
1952,0,0.263714776255272,0.118521822135019,0.150713135223259,1.00248596277141,0.0134264249424358,0.016003706341547,0
1953,0,0.124843056543432,0.053711834056,0.0705597777461017,0.404152276493344,0.00762482394967463,0.00664825162350101,0
1954,0,0.180674954342441,0.0746607687655428,0.0964921413609545,0.608093982566815,0.00871408451391387,0.00950524467869788,0
1955,0,0.170089860292586,0.0835884166119166,0.141168897994124,0.58214816457019,0.00747492400462831,0.0171317022024244,0
1956,0,0.115083990066747,0.0898895593527407,0.152671326372643,0.263403747197283,0.0120272520634749,0.00419109062030172,0
1957,0,0.145117983210638,0.0966612968933303,0.0790985154272451,0.469233642031985,0.0182744165936211,0.0173732744890813,0
1958,0,0.160931023332794,0.0697314660772803,0.0961688956239422,0.576225971439795,0.0140775551509045,0.00831723914846135,0
1959,0,0.391274966878395,0.0783173436491428,0.125925071453852,0.749894186351644,0.0142185514347128,0.0182429809093714,0
1960,0,0.387962532378945,0.0831793956614049,0.0962678629014337,0.601700211082644,0.00571887287645952,0.0245473505555468,0
1961,0,0.419841234498496,0.154078247278821,0.114029085728688,0.680578257251676,0.00652023032286976,0.0282556832870695,0
1962,0,0.484095268076574,0.246949309088877,0.154008802399089,1.08793768730621,0.0112163858035045,0.0417882924311257,0
1963,0,0.222241036194518,0.186732641855973,0.131079540571458,0.803610660232085,0.0132980560550873,0.0176439521923605,0
1964,0,0.203732493506929,0.0833269590062883,0.156991360714915,0.627454827148818,0.0233825530004765,0.0227199873795897,0
1965,0,0.237535147157204,0.117669425507766,0.156102198866085,0.557657891572103,0.0430294231559972,0.0183749520640633,0
1966,0,0.233815190554699,0.179699592299832,0.336993399830378,0.667080190343213,0.00499244425276315,0.0140451035477345,0
1967,0,0.109418127266231,0.142122324030886,0.214133135858804,0.785800829071677,0.00369940119129749,0.0106068428100085,0
1968,0,0.18109241541076,0.181228225369804,0.335066690788226,0.88894013976069,0.0106711010346362,0.0103552724811563,0
1969,0,0.22923614491656,0.278003139072749,0.616261894829171,1.56082839086676,0.016565837747805,0.0291452407165063,0
1970,0,0.238512391630715,0.318455339931013,0.380430689805905,1.21448503807269,0.0118003227792584,0.0424360947496738,2.50360113307108e-06
1971,0,0.236055354603128,0.20182446696126,0.356576748047538,1.217418576812,0.0125319427915724,0.0390665414740035,0
1972,0,0.139534224141779,0.182240152048477,0.417781094765309,1.69366229370089,0.0285023180975933,0.0798310765466112,0
1973,0,0.116637035596417,0.184140570758093,0.588495070494,1.71188282875947,0.0181543427373205,0.0473392632576008,0
1974,0,0.0556097341846304,0.215447468448089,0.29282721918751,1.12044926110517,0.0249622212638158,0.060094713442071,0
1975,0,0.115362313895909,0.142631425258577,0.14373686987386,0.975060577488079,0.034493251200909,0.0429179585937599,0
1976,0,0.0704283739530276,0.0398087708645959,0.0937507536486665,1.55347173683694,0.125264964887512,0.100888562372805,0.00129650772962609
1977,0,0.185312667211247,0.0295065010177281,0.186712027266607,1.44362700848737,0.23192172846927,0.133070110601976,0.0503924239969038
1978,0,0.0621768135732613,0.0628449463083043,0.269775589739341,2.24702033456842,0.362208729188207,0.141332807784419,0.0652148007742111
1979,0.021,0.086,0,0,0,0,0,0.723
1980,0,0,0,0.302,0.426,0,0.028,0
1981,0,0,2.127,0.333,0.314,2.171,0.684,0.181
1982,0,0,0,0,0,0,0,2.009
1983,0.027,0.00796701062817054,0.838047730841223,0.00308854456520244,0.00825465206365833,0.081995904407382,0,0.00034184587137808
1984,0,0.00013735126322966,0.0238510501069823,0.62962800650836,0.663532406317098,0.0943140798132224,1.073,0.299704917155721
1985,0,0.256943652417458,0.153645852011364,0.811598958649926,4.22403175525515,0.170019958320691,0,0.0101515363038707
1986,0,0.142096414759798,1.52001622867307,0.618218295383482,1.95148533434479,3.38182705815442,0.029,4.45306392246104
1987,0.349,6.16867154311224,6.3481087027282,6.50160947654315,5.64017650544149,8.86472068453548,0.00126630377621213,0.015013812849661
1988,0.01,1.39472618488543,0.974334608635547,1.91921550365067,1.3807193746367,0.0683034452563264,0.372,10.6534595629137
1989,0.008,7.69464978232354,1.34982372452318,0.2504275068523,27.7119094132845,0.638804561626641,0.021,0.00586830693442933
1990,0,1.80036694224117,3.54733315463441,11.9966021763518,25.1615211377744,6.31036048068057,0.280851908038224,0.556478226779708
1991,0,4.1999657452204,8.45009191365093,5.79656160276805,6.96733839532497,6.75465153877547,1.7892442187487,0.00515896818244689
1992,0,5.46774529310626,2.80236951221338,10.1620338677942,17.6123151066159,3.66917822079936,1.18414576925775,0.0152341595541467
1993,0.011,17.2104681647896,7.43334194274429,7.17614418710058,7.40675362030987,1.40877292568857,6.40984389693805,0.0198135664278691
1994,0.361,8.35114102078478,20.182663696559,14.559085594543,28.976364138091,7.33313711607027,3.54053002678478,0.00793429200158851
1995,0.05,5.25759356678809,8.68864049310516,8.99678300072585,17.973504266643,3.56623740853921,2.52080025760548,0.0968969794611049
1996,0.0609307946930056,4.16683129909273,4.59005498111367,3.58761424844899,5.97607798055012,1.09618513552742,0.359282102054992,0.185333405562724
1997,0.0135667410546329,2.43915363062149,2.28580524688147,3.21795156287495,10.4994922783753,0.640222175549263,0.257233715908011,0.102344636373917
1998,0.0242463847267455,1.4325491663941,2.85075330785097,2.86687942931026,7.318508236495,0.80177711157891,0.331193910861481,0.131322443272315
1999,0.0137082866119726,1.86626805985199,2.843568704971,2.24546420032315,7.85280193507896,0.900350468850645,0.20334957246476,0.111628863177329
2000,0.00892305431291253,1.65091439480191,3.72353883604551,2.36690120585209,7.12385855998522,0.542140307327406,0.185645027014125,0.0809686118749066
2001,0.0200421956736705,2.02444405706452,3.20880206680713,1.45262456265575,4.92258307646456,1.46853385573964,0.131215087697457,0.110575083972433
2002,0.0109255232737769,2.0644407833635,1.44070612787144,1.53447221934815,6.26596945965375,0.617910869255971,0.0693320957225254,0.591192945035356
2003,0.026810485745282,1.45332374972675,1.5888336199758,1.81272389838738,6.90034311931055,1.36128517802529,0.099296949047446,0.162023007959108
2004,0.00550380514247385,1.53065678230888,1.79370646753341,0.928316967260914,3.54513722822098,1.44558328932005,0.156073325755147,0.184312155698868
2005,0.0104109697645754,2.27388692304152,1.78193904291496,1.19076936505207,3.96369181407997,0.882666682683101,0.0745531445266897,0.244372087749715
2006,0.00457322626716566,1.10315340173856,1.29388685306844,1.25108539624572,3.22762675204542,0.927845945916135,0.082567185118474,0.203711238016082
2007,0.0197438143166641,1.64495513001097,1.36874739884662,0.76450734004525,2.14008985812279,0.599153996836458,0.074377997365487,0.066544447570067
2008,0.00794248806250444,1.99112811678484,2.0663869062601,0.714330326655594,1.34865531684829,0.339600334046706,0.0723119447874614,0.120874568410139
2009,0.00587225999852464,1.78226516890781,2.64444548244785,1.70898069257431,1.60886610840135,0.284499315406388,0.0393445488958758,0.0437363972515267
2010,0.006826325722094,1.67179715745114,3.04326495374708,2.56858057935347,3.81889223590973,0.207598638505881,0.0455778577917946,0.12185224727258
2011,0.00399588660465468,1.583858344646,3.14790652953968,2.01132767268627,1.41155961488912,0.117227863187352,0.0375828402403909,0.0395912305158699
2012,0.00347418187412687,1.14532702231479,2.13389501130719,2.53016294017104,1.53295988622438,0.124372969167142,0.0352723525575196,0.0698755915795884
2013,0.00742151523451891,0.533117445062315,1.7063488577028,0.828179227045797,1.33735809987308,0.0472553432225012,0.0481459427539444,0.0300935599128188
2014,0.00282341654101667,0.422225705200331,1.3470870038891,0.658539888245586,2.44204386419643,0.0763184209338473,0.0182529738252424,0.0308987124213564
2015,0.0053645039191663,0.59511238160537,1.02381038870465,0.432393782214771,1.56584322844795,0.129237166674914,0.0315070819523095,0.018151471036822
2016,0.0430757268482762,0.323796463022209,1.41522073062877,0.244377001939973,0.494990335131806,0.043462898989038,0.0110326802116755,0.0263041513573955
2017,0.00878787365119295,3.13185477024835,1.06425016895762,0.910720837000923,0.573679385404782,0.106844955029004,0.0453379397647389,0.0566041285925668
2018,0.0174325622819828,0.363665374143161,1.07759149274778,0.485891752741925,0.858348654124423,0.0790491607716498,0.023618689678103,0.0160923015951132
2019,0.00391767469691147,0.0688024891581428,0.211381101767953,0.323157824360283,0.0537068258497701,0.00378799021104595,0.00167766340825631,0.00678842833921056

Halibut
year,1,3,4,5,6,7,8,9
1918,2.06470768619668,1.42016598671801,0.596786049984505,0.113275068104233,5.83319046295908,2.37767990727625,7.22742500428694,1.32140411585426
1919,5.41022785449587,2.77602228210981,1.16654770491855,0.171781704817419,0.686929867661283,0.280001031068274,0.851118120221322,0.155611574865391
1920,2.60153585251456,1.56120153240091,0.656052394202493,0.099665893607775,0.99682557587658,0.406318318915048,1.23508432267929,0.225812859551976
1921,2.23301530448908,0.909048229275755,0.382002742685463,0.0552597216184871,0.0399138905872339,0.0162693908716202,0.049454008519072,0.00904177218910355
1922,2.8239868721345,2.01132871145034,0.84520607320052,0.12181596424721,0.0128246703400327,0.00522749277236333,0.0158899908507821,0.00290519781231291
1923,2.73460590414482,0.904462035166693,0.380075519605621,0.0552856281692466,0.0945307152139579,0.038531877814026,0.1171252094628,0.0214142289629618
1924,3.12710229456685,0.875012638554668,0.367700213308409,0.0543131300210972,0.24894295545964,0.101472198964353,0.308444675749089,0.0563935376439636
1925,2.66582311006662,0.560509534930709,0.235538855639675,0.0358946374358146,0.380835502357689,0.155233217170486,0.471861848115254,0.0862714158700026
1926,3.07436609641293,1.03998089904767,0.437023628650832,0.0673556721658523,0.862501441487733,0.351566155853219,1.06865437088433,0.195384149026049
1927,3.07340661471442,1.48822276194923,0.625385054921095,0.0969446297021216,1.35022577940638,0.550368572116257,1.67295335571198,0.305869303183189
1928,3.16742101406075,1.37176789001506,0.576448068911695,0.0880063968411652,0.96474000657691,0.393239847721318,1.19532974115041,0.218544452391034
1929,4.18541467339828,1.15527965011289,0.485474786374568,0.0772142173069096,1.4600337309737,0.595127638661179,1.80900732821069,0.33074431456435
1930,3.75855373683648,0.823455974864035,0.346034930544232,0.0536772693197017,0.754676328588267,0.307615318645205,0.935057170174314,0.170958313990735
1931,2.4066546972065,0.842360162358729,0.353978900114435,0.0516231005475229,0.112776071077926,0.0459689084260616,0.139731524483835,0.0255473853354425
1932,2.75274404531224,0.427199992341854,0.179519153653501,0.0262466632083889,0.0696201715533683,0.0283780349869797,0.0862606101896952,0.0157711944811815
1933,1.29502904035688,0.282275808266372,0.11861871513398,0.017154519051848,0.0115887479405749,0.0047237156584831,0.014358661381957,0.00262522187874954
1934,1.54220623158394,0.281053471403943,0.118105061381741,0.0174417153702049,0.0792534161261063,0.032304663511785,0.0981963686977587,0.0179534323333961
1935,2.00940222984867,0.340679813501924,0.143161406561444,0.0246847184973276,0.844999310402839,0.34443207276793,1.04696892436333,0.19141935682551
1936,2.19092421110847,0.740332166380594,0.311104415528066,0.0512483683091341,1.31428293557304,0.535717828559095,1.62841954357335,0.297727100030647
1937,1.68584321149523,0.179650136118688,0.0754930734267322,0.0119991334686513,0.225353022075642,0.0918566530675948,0.279216335705744,0.0510496636072276
1938,6.09393378513148,2.93524411354336,1.23345634006487,0.178255343818798,0.0987239658326187,0.0402410981464452,0.122320720317965,0.0223641342783277
1939,1.13438993235543,0.0205177743839307,0.125127214675706,0.0130893038867713,0.0723810911225139,0.0331742596483848,0.0597862979243831,0.0310122912701117
1940,1.24152756986304,0.0126358242098797,0.0770593076485132,0.00838677620937387,0.09444236742656,0.0432855538681198,0.0780087648318429,0.0404646318734531
1941,0.73930570196158,0.0504489666878047,0.307661960151799,0.0353573377735706,0.674183868945637,0.308997147905642,0.556871373717932,0.288859786293682
1942,1.79965632765916,0.134652987914201,0.821178409031601,0.0866327606849947,0.584951597298909,0.268099525298472,0.483166113208515,0.250627464065794
1943,11.5237063374386,0.374216095649396,2.28214897284859,0.240847080374417,1.63846267113179,0.750952841872887,1.35335922511116,0.702013202679385
1944,17.5612027305598,0.501324635581139,3.05731772485569,0.323136037266906,2.26790356908389,1.03944304640202,1.8732732035708,0.971702484256675
1945,18.9415808906353,0.387141280582315,2.36097294076839,0.262186677822865,3.71481928010897,1.7026046089381,3.06841591873649,1.59164577024084
1946,12.3968843009082,0.336718557356698,2.05347102581767,0.242125414395305,5.49217066497712,2.51721399674398,4.5364962939298,2.35316701815309
1947,3.69905599370174,0.100280505332191,0.611558548392885,0.0669250631502809,0.806683086725792,0.369725210797188,0.666314842807721,0.345630197890614
1948,5.77972350046231,0.156687101575115,0.955552986831684,0.104569623921726,1.26043364304379,0.577691663602018,1.04110977229372,0.540043465199484
1949,7.83700329824093,0.212459430258435,1.2956793579252,0.141790924705182,1.7090877135955,0.78332225576309,1.41169503856983,0.732273100034913
1950,3.16169314790615,0.0857127153874551,0.522717188425832,0.0572028826876777,0.68950385579845,0.316018722377417,0.569525580555317,0.295423764359853
1951,2.17832435637206,0.371645423872256,1.79337460219189,0.0890173639127737,3.91771570516991,2.50301417971238,4.16796882927936,2.2453658934567
1952,1.63741721908142,0.133124783389706,1.29384608341934,0.269381915622724,3.53391946748029,0.924626383379623,2.01929794485534,1.46272741779881
1953,4.68301522288892,0.402710855929945,1.57695408896279,1.25511082000207,2.18007987010005,0.623502432535233,1.55977971387065,0.442550398524712
1954,2.92048306579312,0.436270093924107,1.94342933498935,0.603874073774583,2.15794707954066,0.404434010293124,2.21741656620531,0.807003667898003
1955,2.88349691883227,0.234914665959134,2.2654833390733,0.197344468553785,0.381790637149501,0.64035384963078,0.952730311715589,0.989230302584649
1956,2.74266505155828,0.721523616874484,2.13666173743972,0.296016702830678,0.929577203494437,0.21345128321026,0.151762350538766,0.269001222632668
1957,4.74418461978571,2.12681670788002,3.29161402794768,0,2.09154870786248,0.247154117401354,0.556461951975477,1.37971594834175
1958,6.89364877585654,0.687964378880322,3.24719278600506,0,0.514587380505849,0.101108502573281,0.0758811752693832,0.091113317343323
1959,7.09422749591345,1.10745485380735,3.4959517408837,0.126300459874423,0.680583309701284,0.0280856951592447,0.0505874501795888,0.130161881919033
1960,5.75845857298128,1.14940390130005,3.90906929095001,0.998563010882153,1.13430551616881,1.40428475796224,1.39115487993869,0.390485645757098
1961,4.29181559157226,1.15779371079859,5.07734795404075,0.702546308051475,1.82595522114979,0.398816871261275,0.581755677065271,0.442550398524712
1962,6.94628290807005,3.07067027646583,5.90136199207623,1.00250990025323,1.79828923295055,3.36466628007752,0.0927436586625795,0.364453269373292
1963,5.30466700065395,2.02613899389753,3.78246875141356,1.251163930631,7.63581274299002,1.5952674850451,1.11292390395095,1.81358888807186
1964,3.19218899154397,0.872540187848213,2.72080106898509,0.268388477233148,2.36267539221503,0.601033876407837,0.118037383752374,0.147516799508237
1965,2.87922928649064,0.721523616874484,2.26104121487904,0.13814112798765,1.08450673741018,1.49977612150367,0.429993326526505,1.16277947847669
1966,2.31305672916689,0.520168188909512,2.70747469640231,0.592033405661356,1.62122690847542,0.623502432535233,1.20566756261353,0.581389739238346
1967,3.57627590229124,1.12423447280443,3.64032077719719,0.386795158365419,1.33903382884318,2.26370702983513,3.11112818604471,0.67250305658167
1968,3.85936218095311,0.885124902096024,2.97178108596086,0.0947253449058169,1.65995929195435,0.269622673528749,0.573324435368673,0.091113317343323
1969,4.48038803930803,1.90868166091797,3.02508657629199,1.2827390455996,4.70875119151051,3.40398625330046,0.252937250897944,0.0390485645757098
1970,5.49955554425534,3.76282956009542,3.59145741106032,0.398635826478646,9.24044005854589,9.84684472283121,4.28307078187185,0.0347098351784087
1971,4.68870539934444,2.34495175484207,1.01502537838872,1.27879215622853,5.85412310295901,8.00442312038475,4.61188920803918,0.212597740467754
1972,5.18944092742977,4.33753151074545,5.61040285735211,1.47218973541124,6.89989745689025,5.47671055605272,6.315000030752,0.399163104551701
1973,6.37299763017691,3.06228046696729,2.37653644392983,1.85503800440558,2.37927498513457,4.77456817707161,5.81755677065271,0.564034821649142
1974,3.14382249167209,7.04743997877403,2.84295948432728,1.3814112798765,1.71529126835283,13.087933944208,8.68417894749608,0.0867745879460219
1975,2.51790308156543,5.45337617405133,2.39874706490114,1.30247349245498,5.58852961624632,17.5816451696872,8.59986653053009,0.867745879460219
1976,3.05846984483936,5.07583474661701,2.62085327461421,1.1051290239012,7.52514879019306,5.05542512866405,6.3234312724486,0.867745879460219
1977,8.5921664478278,6.4182042663835,3.02064445209773,6.11767852516734,7.69114471938849,8.65039410904738,6.15480643851664,0.694196703568175
1978,9.6279529666399,5.3638904659399,2.79103593883298,3.0454600969936,6.9531389912204,11.6405320270373,14.4982654190665,2.6782455922012
1979,15.3984513839834,9.80297223085568,5.87586419920117,6.78702359982933,5.8552740080681,13.3742282863833,11.7101364161701,4.9738846712308
1980,11.1332999592817,8.41576169626235,5.6800020592278,4.95974880463777,4.39145771933013,10.1545066618836,16.7287638998882,6.12170421074559
1981,13.2219697010841,7.62042369643876,3.93682901346478,3.96779841220792,3.1472097793366,7.57872936228388,12.1562351005854,4.07475936527754
1982,1.1638797453809,0.574532800636351,0.916003814841103,3.8974047249337,12.5178492476973,0.969245500398277,4.42346398896714,4.18920618633509
1983,0.250458114295765,0.251138229845644,0.600790629741954,0.212002637165634,4.97926222329834,1.5937706258687,1.85219855255499,9.23151913832684
1984,3.46874672030113,2.74346803956914,0.950540615343367,3.2637268631109,10.6765677671363,0.251738489003137,3.70244677077573,9.8773552536387
1985,3.84675210418597,1.282324604575,1.69272567702448,8.0019414040706,37.1007761080292,3.85922098893672,8.38840782186257,13.2509899799963
1986,11.7665019174641,0.481159295316678,7.86971014340865,15.1291890961787,50.6653897513023,6.94252275291578,6.89342608054818,59.3525717672989
1987,7.25146094803891,4.72856674936937,3.74928046647943,33.1220223743622,104.479762788035,11.6282127628617,14.8003512715369,62.7267983108393
1988,3.71279987283416,3.77231901323816,3.00506071183607,27.6310989335829,65.7670216076772,7.88120660880717,16.5645991994851,96.2449508213042
1989,13.2554695830568,5.86866516683928,9.36212514359823,138.458769895085,101.89636296747,22.4329312794191,22.7183940389458,102.179978966881
1990,5.20700236114449,7.87595978790004,25.6473888008662,122.665265545387,78.5136374544083,17.3578036510228,24.4314410050669,148.451771561528
1991,11.5228264560779,3.33113136495221,16.6264967051937,56.9915130212995,44.8364015078421,3.25995531682864,17.256513487109,131.198861514564
1992,2.71140358139121,1.23734845605561,3.36444355604532,50.1934062097298,60.7839653664761,2.52786914478835,14.6279923733686,109.402663349466
1993,3.69393603152675,1.97585045193764,16.4802102313847,81.2815668172499,95.5232628397101,14.9012587537518,35.5259267194664,278.729260960571
1994,0.858914784297869,3.43671955339174,6.72535643400414,31.4347674038772,90.0121528932307,4.74930295263305,16.9236058800803,125.126271869731
1995,0.881364940943682,2.40643163993519,9.49604583869626,57.9397278245294,161.791760701044,16.9616409329847,26.1617545678312,109.53074920828
1996,3.93500976951706,2.98287401075177,19.6937505254443,30.8855216178505,66.166803008418,16.7861949049033,34.2687023490804,103.76439622164
1997,5.16264222687981,3.03005671645026,10.6317369428273,23.9935593891408,64.0335421819763,15.5978805726818,33.6662729175647,89.6136700900993
1998,5.76739576035617,5.49617509099109,19.6800890987312,57.5295294414684,75.6336484836224,44.2810929300723,43.6364570468688,80.7646835346429
1999,1.69354911426115,3.16821580011765,10.6522041239588,20.2095129224599,45.9962371614064,23.3161297178967,29.1365012149509,61.574985619688
2000,0.931213305963031,13.9416023312515,17.7788441051616,28.1183952299464,69.9648236524544,28.6624001550785,44.3819856951827,92.5045470407794
2001,0.752809150533911,14.249707613084,13.2014543758057,26.8578203949963,65.4149128052711,41.022327190615,42.5928356621525,96.8318116863082
2002,0.3382967055326,11.5484861548904,10.2120776828731,22.0363462296711,64.1845243374808,29.9511988234367,30.2327698611473,75.757453505166
2003,0.470661855893706,8.51307247855295,9.63320604719558,25.6027092814657,55.0581520870428,23.2523604202853,24.6955825254207,72.3674982177759
2004,0.528413100256747,8.01742582753468,7.0576809011286,19.7142743612886,52.4441044939537,22.0867394450648,25.3570658852846,71.9473902014172
2005,0.393388186941812,6.0269252066498,5.79811515291734,23.3667649142825,53.5809144733503,22.7559765225598,25.9506461954048,68.5722657649815
2006,0.513337052294904,5.56249249053059,9.35138185521117,14.110833116406,34.4527076243686,32.6583021726851,12.3266321296737,32.7872317669484
2007,1.83998189922035,4.84002106091547,8.66397083496939,25.4224700979356,35.103652000325,30.0850214292105,13.637421260314,50.3429321437189
2008,2.42814833798932,8.84890517581817,9.84508975719154,43.9719817410109,46.1012572000486,33.4294047499491,20.4890283157577,61.2115995347698
2009,1.08015594389031,5.46481118528971,9.22030314032908,34.0053959745349,31.2972199798193,27.7367411556165,15.3403296190522,52.4914174173426
2010,1.28982730297176,8.46684235695666,7.72932320668103,24.5563770081492,30.4022004710512,32.2280612590309,11.4198187990954,44.6908741819189
2011,1.42349663027297,3.06606039122479,15.0332184646004,30.6501748847227,40.0457168136368,27.7561483620719,9.19781272691418,45.065017081304
2012,1.3734177670422,3.61516184334374,17.2780131015366,41.4190615797963,46.9668261014394,29.3453200662859,8.90882188744359,44.7273552915655
2013,0.324967077942707,4.0895734593416,16.4589468726604,28.3350308905425,43.8820956780521,32.0345795207582,11.0693717198029,39.5287985333355
2014,1.1237107754559,1.58880347208123,15.0993166118807,20.8031871520012,31.7283098339855,22.360988762218,10.1870108555185,49.9542939163909
2015,0.250137043068198,2.67515341937992,30.4838359318314,23.3702809613126,31.0440560058441,25.0913513488307,9.84281893250101,46.959047229583
2016,0.567551727681704,1.23178958487319,19.452902388465,9.40887521152302,22.8926232526926,19.6496208282933,10.2224257698064,27.321335720714
2017,1.35837040336526,1.82633236686662,12.8522332780215,8.88232683161757,14.499270232754,15.3688398456271,9.91855971686518,26.8866745649637
2018,0.334879992251222,0.769050839391786,6.25646725369727,11.1542653480351,10.875979434307,10.5836045137461,6.70879113619521,11.0689407484238
2019,1.03068397026924e-05,4.19138457118468e-05,0.0556910236864664,1.30581647887254,0.666395353758896,0.00821366723289956,0.0684577591293012,0.0120315753049803

Sablefish
year,1,3,4,5,6,7,8,9
1918,0,0,0,0,0,0,0,0
1919,0,0,0,0,0,0,0,0
1920,0,0,0,0,0,0,0,0
1921,0,0,0,0,0,0,0,0
1922,0,0,0,0,0,0,0,0
1923,0,0,0,0,0,0,0,0
1924,0,0,0,0,0,0,0,0
1925,0,0,0,0,0,0,0,0
1926,0,0,0,0,0,0,0,0
1927,0,0,0,0,0,0,0,0
1928,0,0,0,0,0,0,0,0
1929,0,0,0,0,0,0,0,0
1930,0,0,0,0,0,0,0,0
1931,0,0,0,0,0,0,0,0
1932,0,0,0,0,0,0,0,0
1933,0,0,0,0,0,0,0,0
1934,0,0,0,0,0,0,0,0
1935,0,0,0,0,0,0,0,0
1936,0,0,0,0,0,0,0,0
1937,0,0,0,0,0,0,0,0
1938,0,0,0,0,0,0,0,0
1939,0,0,0,0,0,0,0,0
1940,0,0,0,0,0,0,0,0
1941,0,0,0,0,0,0,0,0
1942,0,0,0,0,0,0,0,0
1943,0,0,0,0,0,0,0,0
1944,0,0,0,0,0,0,0,0
1945,0,0,0,0,0,0,0,0
1946,0,0,0,0,0,0,0,0
1947,0,0,0,0,0,0,0,0
1948,0,0,0,0,0,0,0,0
1949,0,0,0,0,0,0,0,0
1950,0,0,0,0,0,0,0,0
1951,0,0,0,0,0,0,0,0
1952,0,0,0,0,0,0,0,0
1953,0,0,0,0,0,0,0,0
1954,0,0,0,0,0,0,0,0
1955,0,0,0,0,0,0,0,0
1956,0,0,0,0,0,0,0,0
1957,0,0,0,0,0,0,0,0
1958,0,0,0,0,0,0,0,0
1959,0,0,0,0,0,0,0,0
1960,0,0,0,0,0,0,0,0
1961,0,0,0,0,0,0,0,0
1962,0,0,0,0,0,0,0,0
1963,0,0,0,0,0,0,0,0
1964,0,0,0,0,0,0,0,0
1965,0,0,0,0,0,0,0,0
1966,0,0,0,0,0,0,0,0
1967,0,0,0,0,0,0,0,0
1968,0,0,0,0,0,0,0,0
1969,0,0,0,0,0,0,0,0
1970,0,0,0,0,0,0,0,0
1971,0,0,0,0,0,0,0,0
1972,0,0,0,0,0,0,0,0
1973,0,0,0,0,0,0,0,0
1974,0,0,0,0,0,0,0,0
1975,0,0,0,0,0,0,0,0
1976,0,0,0,0,0,0,0,0
1977,0,0,0,0,0,0,0,0
1978,0,0,0,0,0,0,0,0
1979,0,0,0,0,0,0,0,0
1980,0,0,0,0,0,0,0,0
1981,0,0,0,0,0,0,0,0
1982,0,0,0,0,0,0,0,0
1983,0,0,0,0,0,0,0,0
1984,0,0,0,0,0,0,0,0
1985,0,0,0,0,0,0,0,0
1986,0,0.62433621170672,0.360414479172455,0.264799754342127,0,0,0,0.00177505427398345
1987,0,0.148719088190054,0.819876874823803,0.254792874107215,0,0,0,0.0016095655026434
1988,0,0.523022259449281,0.425435666500614,0.282455071674128,0,0,0,0.00246092769991042
1989,0,0.191277539629089,0.922881562654618,0.324902047215301,0,0,0,0.00252054257759156
1990,0,0.101006045242552,0.548329524396986,0.461368688507819,0,0,0,0.00337407220148284
1991,0,0.0851385704087481,0.130484690541286,0.220478426621022,0,0,0,0.00539458221790726
1992,0,0.0647266161144933,0.0467854361659341,0.0910291038420611,0,0,0,0.0062706143290204
1993,0,0,0.41211353329861,0.582466442075234,0,0,0,0.00505903774977623
1994,0,0,0.722185995515798,0.307935859366744,0,0,0,0.00424563532587267
1995,0,0.217383960744759,0.668956789592313,0.572234236325666,0,0,0,0.00307295884610075
1996,0,0.294676428326404,0.51732662405341,0.285545734719157,0,0,0,0.00342717306766029
1997,0,0.460451417549843,0.807556114964103,0.269849118223714,0,0,0,0.00373751969426229
1998,0,1.00401724963879,0.66944282121675,0.578247276666543,0,0,0,0.00262107261224071
1999,0.021410291717887,0.715327952154009,0.742253139194434,0.477381709613948,0.0679578957089083,0.0269214118039096,0.00321868485709549,0.182506743689272
2000,0,0.462197845969979,0.442078794333846,0.228181310461862,0,0,0,0.00322437325551295
2001,0,0.416537933959872,0.461545216146157,0.519394130209595,0,0,0,0.00236414539765685
2002,0,0.351762051219007,0.34290117503827,0.341401863516319,0,0,0,0.00212294271320609
2003,0,0.192534722509683,0.181898347355736,0.0603227650553949,0,0,0,0.0030098306692735
2004,0.00175459053840783,0.39162325142823,0.284140371896393,0.202745057414409,0.00556920393202023,0.00220623123935569,0.000263773799572202,0.0175243608892387
2005,0.000214347887127212,0.989042957687143,0.92110637584501,0.32433888522676,0.000680356510352748,0.000269522144522145,3.22236757694613e-05,0.0047936444918632
2006,0.00177633157970953,0.00570028130633902,0.0365127243640407,0.0124870851111328,0.00563821165208551,0.00223356853740099,0.000267042207183707,0.0148452834966168
2007,0.00352939111799571,0.180402715035569,0.848242860472694,0.0497005745273803,0.0112025560731767,0.00443787468926652,0.000530585846094265,0.0294960762481379
2008,0.00144011155284824,0.00172294150072567,0.0184296615222369,0.0663735583392055,0.00457102369305377,0.00181080373255285,0.000216497061728889,0.687835392441017
2009,0.00468013289765111,0.00559928512643793,0.0660839902262683,0.118702060313145,0.0532207129697343,0.00588482336882071,0.000703580926656834,0.182843837537833
2010,9.33944350738706e-05,0.05918173651907,0.000979895137616592,0.208347058852975,0.000296441046304851,0.000117434646848675,1.40403156514732e-05,0.217630528659954
2011,0.00111246550265144,0.137810949980794,2.73483195552693,1.04824557893379,0.00353105018862425,0.00139881989041289,0.000167240872502166,0.192187174509266
2012,4.01136742673662e-05,0.0609730792300753,0.535480865771952,1.52481323153215,0.000127323855661684,5.04391419859755e-05,6.03043048773439e-06,0.000335240826314291
2013,9.33944350738706e-05,0.0733617380163387,3.45535500075705,0.000656535228554732,0.000296441046304851,0.000117434646848675,1.40403156514732e-05,0.000780522556438869
2014,0.000855554297258348,0.00940358054607845,0.322356481964279,0.334504298195361,0.00271559446608648,0.0010757784088413,0.00012861850260115,0.00715009868350469
2015,0.000832588423006422,0.116856985634433,0.300800610083698,0.00934285013019106,0.58941271856425,0.00104690099949445,0.000125165961521437,0.125708162845579
2016,0.00688669121523348,0.018729199070604,0.59237540472105,0.149956661777556,0.0218588821465381,0.00865936123685681,0.00103530064055345,0.603593942201939
2017,0,0,0,0,0.0262199994325638,0,0,0.0570399990081787
2018,0.0361613709022738,0.0463176862698998,2.00981856939431,0.366424911487877,0.102082639434861,0.0404398745074099,0.118054933825573,0.272971276108265
2019,0,0,0.00174000000953674,0,0.0256201759576797,0,0,0.0218199996948242

Dogfish-Lingcod
year,1,3,4,5,6,7,8,9
1918,1.60509384310931,0.0669209140229665,0.0671468379779937,0.00332349480650936,0.0981733366899514,0.05485490945835,0.0220862276436512,0.039363192569035
1919,4.20588516094796,0.130811433455206,0.131253050800702,0.00504008175292971,0.0115611169579545,0.00645983976248923,0.00260092474756841,0.00463549970361434
1920,2.02242148242842,0.0735667763482847,0.0738151366301767,0.00292420110916866,0.0167767011043289,0.00937407702657781,0.00377428385540072,0.00672671968284473
1921,1.73593537756746,0.0428360761791516,0.0429806900997702,0.00162132233404794,0.000671755850269052,0.00037534739662564,0.000151126091159081,0.000269344567324083
1922,2.19535383714982,0.0947776224960515,0.0950975902615103,0.00357408502419079,0.000215840831398289,0.000120602290428008,4.8558090188102e-05,8.65426855911388e-05
1923,2.12586950173009,0.0426199660170047,0.042763850353109,0.00162208243323256,0.00159096394866113,0.000888960142313651,0.000357921948338633,0.000637906608790555
1924,2.43099431136816,0.0412322546106387,0.0413714540548234,0.00159354930057763,0.00418974157249326,0.00234104189958256,0.000942573505781911,0.00167990220046605
1925,2.07239808782251,0.0264122720491537,0.0265014394648969,0.00105315002759206,0.00640950989580443,0.0035813500575736,0.00144195867651977,0.00256993172289222
1926,2.38999744409647,0.0490058718358221,0.0491713148897067,0.00197621798316792,0.0145160088545763,0.00811090239225708,0.00326569195719558,0.00582028146482452
1927,2.38925154763028,0.0701278783120171,0.0703646289281322,0.00284435912267558,0.0227244714347748,0.0126974274795228,0.00511236417251629,0.0091115141368943
1928,2.46233789034273,0.0646403039403253,0.0648585285915211,0.00258211103057623,0.0162366968960405,0.00907234660820222,0.00365279816208612,0.00651020173249662
1929,3.25372127398135,0.0544389676000872,0.0546227526999678,0.00226546807256882,0.0245725532124756,0.0137300536691324,0.00552813036955705,0.0098525136929011
1930,2.92188163114972,0.0388028068626855,0.0389338045294174,0.0015748931234142,0.0127012985036062,0.00709692267686885,0.00285743338852338,0.00509266238401595
1931,1.87092180786714,0.0396936080210276,0.0398276130184838,0.00151462373350973,0.00189803560621037,0.00106053817500583,0.000427004397404868,0.000761028845399233
1932,2.139970005597,0.0201304736386408,0.0201984338015796,0.000770078096806024,0.00117171633357808,0.000654703156237675,0.000263603077472242,0.000469806744173118
1933,1.00674935886618,0.0133013712991481,0.0133462765198113,0.000503314241440319,0.000195040100372088,0.000108979763827804,4.38785132674363e-05,7.82025067954754e-05
1934,1.19890372069085,0.0132437724685587,0.0132884832364743,0.000511740592344204,0.00133384506379209,0.000745293505067057,0.000300077462104718,0.000534813238233135
1935,1.56209964685189,0.0160534787637112,0.0161076750559644,0.000724250579576106,0.0142214457644972,0.00794631359268221,0.00319942358247944,0.00570217461392741
1936,1.70321396364208,0.0348858553986969,0.0350036294987858,0.00150362907538275,0.0221195488059576,0.0123594235249677,0.00497627366833951,0.00886896675355843
1937,1.31056641930903,0.00846545504247463,0.0084940342857833,0.000352055032348155,0.00379271999616949,0.0021192038388978,0.000853254865815328,0.00152071400039243
1938,4.73739486912464,0.138314268047498,0.138781214844776,0.0052300185674501,0.00166153688939146,0.000928393173771039,0.000373798866522381,0.000666203255821146
1939,0.881869287493632,0.000966836432030594,0.0140785744081743,0.000384040673879599,0.00121818296074494,0.000765355758691919,0.000182700447966718,0.000923822454180282
1940,0.965157572551311,0.000595423995129506,0.00867025770040274,0.00024606833296769,0.00158947704417325,0.000998631115577819,0.000238386332235089,0.00120539740837732
1941,0.57473270348503,0.00237725096491305,0.0346163047726086,0.00103738563506604,0.0113466001799912,0.00712880254376607,0.0017017385750626,0.00860481911392999
1942,1.39904418942685,0.00634510410150462,0.0923941395475032,0.00254180849350898,0.00984480970981687,0.00618526284428312,0.00147650328570573,0.00746591978392085
1943,8.95847398432188,0.0176337719655132,0.256773909721059,0.00706646249862111,0.027575534947532,0.017325061301299,0.0041357191408712,0.0209122103916024
1944,13.6519946958394,0.0236233673733111,0.343991314682144,0.00948082362364469,0.0381691052404056,0.0239807528435616,0.00572451992075681,0.028945961003669
1945,14.7250940506353,0.0182428311865594,0.265642716562022,0.00769256709939395,0.0625208805102958,0.039280401613714,0.00937674655169991,0.0474133977667966
1946,9.63727834121634,0.015866816863344,0.231044419129206,0.00710396886741442,0.0924339301580004,0.0580740685304699,0.0138630410959482,0.0700982881552324
1947,2.87562837127041,0.00472540754973574,0.0688089521597569,0.00196358389827317,0.0135765788513352,0.0085298457966036,0.00203618595722073,0.0102959479798854
1948,4.49312930226702,0.0073833933153464,0.107513172581432,0.00306807674308963,0.021213258370293,0.0133277922754682,0.00318151864865704,0.0160873079334655
1949,6.09244874057955,0.0100114911909352,0.145782180934513,0.00416015112376013,0.0287641633862157,0.0180718486475406,0.0043139870654863,0.0218136198487349
1950,2.45788507469218,0.00403894566604475,0.058813047591265,0.00167833475372464,0.0116044375053686,0.00729079568284487,0.00174040845993785,0.00880035288708657
1951,1.69341889705872,0.0175126370372103,0.201779907305733,0.00261177284290858,0.0659356531252449,0.0577464677986768,0.012736861097902,0.0668870098039165
1952,1.2729202852875,0.00627309220673337,0.145575911725946,0.00790367565010723,0.0594763136775961,0.0213318438650531,0.00617075570676672,0.0435730601501867
1953,3.64055355230085,0.0189764990978862,0.177429550695879,0.0368249991960473,0.036691021227129,0.0143846820503949,0.00476651778663392,0.0131830954282821
1954,2.27036951484618,0.0205578740227101,0.218663178674499,0.0177176882924379,0.0363185235496962,0.00933060457322911,0.00677618474532282,0.0240397622515732
1955,2.24161666175997,0.011069624473767,0.254898791140558,0.00579009421321499,0.00642558493571548,0.0147734572409461,0.00291144059399802,0.0294680956632187
1956,2.13213464423938,0.0339995608837129,0.240404546154134,0.00868514131982248,0.0156449024521768,0.00492448574698203,0.000463769298158976,0.00801325408385772
1957,3.68810634778959,0.100219635860712,0.370352949480694,0,0.0352010305173978,0.00570203612808446,0.00170048742658291,0.0411002386881735
1958,5.35908946368466,0.032418185958889,0.365354933968134,0,0.00866057100031217,0.00233265114330728,0.000231884649079488,0.00271416670582278
1959,5.51501839772914,0.0521853725191872,0.393343820838469,0.00370566029645759,0.011454303581058,0.000647958650918688,0.000154589766052992,0.00387738100831825
1960,4.47659804973081,0.054162091175217,0.439825365105277,0.0292978767188678,0.01909050596843,0.0323979325459344,0.00425121856645728,0.0116321430249548
1961,3.33643683696587,0.054557434906423,0.571273173085604,0.0206127353990453,0.0307310583882045,0.00920101284304537,0.00177778230960941,0.0131830954282821
1962,5.40000698538428,0.144695805621383,0.663986360843592,0.0294136786031321,0.0302654362914135,0.0776254463800589,0.000283414571097152,0.0108566668232911
1963,4.12382265994224,0.0954755110862402,0.425581020894481,0.036709197311783,0.12851169871431,0.0368040513721815,0.00340097485316583,0.0540248420492343
1964,2.48159239713338,0.0411157480454202,0.306128450144298,0.00787452812997238,0.0397641270659494,0.0138663151296599,0.000360709454123648,0.00439436514276069
1965,2.23829902486541,0.0339995608837129,0.254398989589302,0.00405306594925049,0.0182523861942063,0.0346009919590579,0.00131401301145043,0.034637937007643
1966,1.79815919685333,0.0245113113347697,0.30462904549053,0.017370282639645,0.0272854548719512,0.0143846820503949,0.00368438942426298,0.0173189685038215
1967,2.78017971764409,0.0529760599815991,0.409587371254289,0.0113485846579014,0.0225361094846833,0.0522254672640463,0.00950727061225902,0.0200331352096443
1968,3.00024963165012,0.0417087636422291,0.334367237790262,0.00277924522234319,0.0279373258074586,0.00622040304881941,0.00175201734860058,0.00271416670582278
1969,3.48303215254698,0.0899406988493567,0.340364856405334,0.0376356123858974,0.0792488808738242,0.078532588491345,0.000772948830264961,0.00116321430249548
1970,4.2753280781273,0.177311663445875,0.404089554190473,0.0116959903106943,0.155517780328186,0.227174303012092,0.0130886001924867,0.00103396826888487
1971,3.64497706816027,0.110498572872067,0.114204654461995,0.0375198105016331,0.0985256356809707,0.184668215511826,0.0140934336718311,0.00633305564691981
1972,4.03424646378903,0.204392709033483,0.631249359236324,0.0431941028305838,0.11612615093967,0.126351936929144,0.0192979557956152,0.011890635092176
1973,4.95433776254793,0.144300461890177,0.267393829921958,0.0544268856042209,0.040043500324024,0.110152970656177,0.0177778230960941,0.0168019843693791
1974,2.44399251232833,0.332088734213009,0.319872992803838,0.0405306594925049,0.0288685700010406,0.301948731328109,0.026537909839097,0.00258492067221217
1975,1.95740576779238,0.256973425283876,0.269892837678238,0.0382146218072189,0.0940556635517773,0.405622115475099,0.0262802602290087,0.0258492067221217
1976,2.37763977443707,0.239182957379608,0.294882915241038,0.0324245275940039,0.126649210327146,0.116632557165364,0.019323720756624,0.0258492067221217
1977,6.67950894772088,0.302437954372562,0.339865054854078,0.179492920609665,0.129442942907892,0.199571264482956,0.0188084215364474,0.0206793653776973
1978,7.484724414896,0.252756689046834,0.314030862451362,0.0893539150775532,0.117022212727618,0.268556052661284,0.0443051280772398,0.0797820255954253
1979,11.9706821818338,0.461934638602834,0.661117499939382,0.199131530558279,0.0985450055601972,0.308553762632113,0.035784907968237,0.148166618962933
1980,8.65497394018512,0.396566647969703,0.639080249941403,0.14551921856835,0.0739087914199156,0.234272301257716,0.051121289736064,0.182358915646686
1981,10.2786957702866,0.359088813404467,0.442948724959386,0.116415356326378,0.052967940488606,0.174847132158198,0.0371481372082065,0.121382653227326
1982,17.3637294683878,4.36101543705669,3.95045578014036,5.47838397690194,1.34961910275512,0.0433059213138717,0.81421885260742,1.67889334064213
1983,20.2864332351601,6.48032517464917,4.62845174420127,3.98795955811216,2.27390884434258,1.82260518660034,6.60653607763242,0.999687227952691
1984,34.6541432061107,6.47571030860647,2.11372334771405,14.4126067275753,5.31524512786838,2.90766181460384,7.5402628523191,5.95705949271324
1985,61.7821997369257,12.6708367542264,2.74544441809727,26.6847803900045,35.7191133045147,2.3913743598583,4.48972371279921,1.33448849899528
1986,49.8439438392066,34.5624755962226,23.6389261137331,44.7813014980546,52.101400865867,3.17132660853056,8.86768896043956,10.5028927099444
1987,48.5420105667227,49.6646262348271,35.8758902344974,66.4408587284279,22.7326583667346,6.72542513913814,36.6179193533005,7.3000398363188
1988,83.80873193976,62.6890574569478,27.3116497849069,72.8903978114699,49.4388815056058,18.7297449459789,26.3279741490284,28.9775965624751
1989,82.2692562374544,33.8035360667275,17.4468574809577,67.1526364041282,36.5662014443443,13.7909457942456,28.6292097252318,24.966195879037
1990,17.8737171394221,38.0613810593325,3.39899415072627,22.6198646206488,54.0211942648416,7.55586422137499,4.00625811195641,6.03946256083611
1991,7.5208852881542,32.7442210411596,28.2948505460412,91.2101878790938,30.3133666184924,3.39130494038072,4.91231426853015,2.7875535944459
1992,2.12746150578892,21.9133284683773,9.01975437255481,43.648492267916,19.5468132070895,0.0400601187058228,7.03150772427589,2.09152930265166
1993,5.79064375517486,8.28646149150451,8.10749534879478,1.91457312677235,0.6999324634436,3.15900676609831,8.68462297925816,3.46604686608464
1994,3.73048962675347,13.4260220989239,10.2604960192566,25.3172038888113,1.54638302035416,0.113670984021397,2.49340915529671,3.26968384387899
1995,11.9770897698515,30.6801916486268,26.8582461226073,22.3887729362108,4.2527162478319,12.6122053428206,1.50571227848679,11.104747192445
1996,1.75241011002896,2.93197499364157,3.27300971829006,2.75967889626612,3.27087768931793,2.47475487155666,4.09560979513335,12.2026047617739
1997,2.52838970216124,3.42246287511422,3.52443650053489,2.05494859695702,2.21705740731733,2.08537898553021,1.46281473491359,7.5419084173956
1998,2.27597536719503,2.37166951890431,3.13134546154835,2.39722382330482,2.53103504020502,3.29984263648526,2.04405950168443,9.91737379359991
1999,1.57363316417647,3.29989507539423,3.05706162097519,2.7073902814004,9.25436633603023,2.45963866567801,2.91942569080967,12.4680136277695
2000,0.951983652297393,4.18672564392302,3.64950399863305,2.98281480916847,3.55164637604437,5.55886599275356,3.42061911673543,18.9183150229554
2001,1.18826975354158,5.33534461815636,2.48081770446849,1.48051452247272,1.39524260553378,2.10934346826734,1.11758503002517,5.78570617371853
2002,1.77570347847848,2.82046973756833,4.13062256860394,1.18047777086315,0.985427004533116,2.10139876466222,1.37185197468938,2.96818240920678
2003,3.53376639297205,2.78749093191263,4.89902439940966,2.74100516542422,1.47003802867329,3.36050415652415,1.6783981898958,10.113055448401
2004,3.40651767321762,4.49067075761031,3.13270767714016,1.2034354271282,1.40880972424824,0.962680854707027,2.53772622486147,4.44953241034974
2005,4.91155331594669,4.18581422162465,2.44711165284544,1.342078770863,1.13639544794136,1.41354522073446,0.626168424187485,5.16111348964981
2006,2.40412278432989,2.81312393846493,2.51278670678108,0.854183614387309,0.226693678142084,0.448296722971236,0.160885558437716,0.934215310451563
2007,2.63961510324478,7.16409931981564,5.101831404984,1.62754370522499,0.742305083751678,0.345160175085068,0.299935088157654,1.58641211557388
2008,2.99942002755404,9.92176141309738,1.78641649758816,2.35622018456459,0.868585085391998,0.418685088396072,0.31183000254631,1.3343150908947
2009,3.02625931489468,10.9469392326474,3.56924141454697,1.84274509131908,0.782829993486404,0.900495607852936,0.146679999351501,1.81958999633789
2010,2.76966019177437,3.5458873603344,3.92318504047394,2.54905105876923,0.665235088586807,1.06076999950409,0.31511509180069,0.568730001211166
2011,1.59222772371769,3.53618616366386,3.12567159295082,1.67156999850273,0.754079999685287,0.436219998955727,0.244209998846054,0.833770000457764
2012,1.33055667716265,1.68691772758961,4.33387140762806,2.56085016942024,0.324779998540878,0.933245438814163,0.311479999542236,1.85241001033783
2013,1.36401052576303,1.08191158604622,3.96280069601536,1.15845999586582,0.449425087213516,0.714389995336533,0.32125999879837,0.569590002298355
2014,0.584895399422003,0.248632657499026,2.173170787781,1.55308263121275,0.374189391236676,1.15489920018533,0.182360017644517,1.37578080979409
2015,1.86433147852966,0.21683545916462,4.20218511836479,0.902304355238937,0.916736458378945,0.957861089123792,0.37108681022736,3.09962675758657
2016,0.627222763319763,0.16040791233149,3.85489335956798,0.948176968542438,0.601584372270819,0.851035126492931,0.57313068873042,2.09425654666683
2017,0,0.512700175285339,5.33068227881193,1.18636999511719,0.725460002183914,0.565640003681183,0.45063000357151,2.4308150703907
2018,0.00142543646371708,0.184604031399162,2.45291717902327,0.742267838847921,0.764356400014511,0.504457348247913,0.19964104171127,1.48413616640939
2019,0,0.017360000371933,0.076889999628067,0,0.0121000003814697,0,0,0.0272300004959106

H&L Rockfish
year,1,3,4,5,6,7,8,9
1918,3.44321636300499,0.714291093235394,1.53348950756523,0.102060941338191,3.57630738129155,2.85870411999056,1.22430816562418,0.581169184199604
1919,9.02238374987628,1.39623678448775,2.99753766967802,0.154775475237078,0.421154147416685,0.336647543963739,0.144177333404302,0.0684398140822117
1920,4.33845956800928,0.785226769102199,1.68577912125911,0.0897990625047468,0.611150053732203,0.488519858688923,0.209220271478951,0.0993151707286464
1921,3.72389509985335,0.457217719312981,0.981586613468106,0.0497890603895245,0.0244710578935521,0.0195608225363339,0.00837738840829679,0.00397667852234807
1922,4.70943072089603,1.01162413238592,2.17182463466943,0.109756296678183,0.00786275769511271,0.00628505758064586,0.00269172568913089,0.00127774041435374
1923,4.56037426434251,0.454911032887177,0.976634459556748,0.0498124022157673,0.0579564299717636,0.0463271937996535,0.0198407247755173,0.00941823158210949
1924,5.21492212259696,0.44009907294879,0.944835119809826,0.0489361804830341,0.152626000262507,0.122000859895476,0.052249775672376,0.024802545923269
1925,4.44566841825758,0.28191561565262,0.605235936323815,0.0323411015945829,0.2334888303045,0.186638174519048,0.0799322460421739,0.0379431907161125
1926,5.12697643342256,0.523072021349706,1.12296718247944,0.060687523042474,0.528796426441805,0.422690882448574,0.181027443623088,0.0859322633648633
1927,5.12537635070557,0.748521140171195,1.60697693911328,0.0873472012038553,0.827818404347384,0.661712663595835,0.28339421756596,0.134524943028315
1928,5.28215976384996,0.689948636277703,1.48122943784506,0.0792938451127361,0.591478510509329,0.472795505141467,0.202485942342652,0.0961184391538968
1929,6.97982013906902,0.581063039102058,1.24746630909385,0.0695700813508521,0.895141251116819,0.715526857654225,0.30644142862619,0.145465267716194
1930,6.26796413576006,0.414167973333979,0.88916444218899,0.0483632694018006,0.462689250686166,0.369848429173392,0.158396403710979,0.0751894917550668
1931,4.01346538733953,0.423676082159707,0.909577107640268,0.0465124614343919,0.0691425898040105,0.0552687969086594,0.0236701793957326,0.0112360427182668
1932,4.59062239335354,0.214865834285471,0.461288829626265,0.0236482678745308,0.0426838682868569,0.0341191450061279,0.0146123369477132,0.00693635816667339
1933,2.15965931261549,0.141974316781413,0.30480027987174,0.0154562375634547,0.00710501826795848,0.00567936221071856,0.00243232221253563,0.00115460368203068
1934,2.57186514450369,0.141359526438642,0.303480405455105,0.0157150017124499,0.048589974711812,0.0388401627962779,0.0166342253236802,0.00789613222601268
1935,3.35098604220268,0.171349376555544,0.367864689290164,0.0222409542423516,0.518065934957821,0.414113515644127,0.177353981880475,0.0841885007860563
1936,3.65370175363113,0.372359764581746,0.79940768887257,0.0461748273403251,0.805781980451743,0.644097954046575,0.275850298422509,0.130943905625014
1937,2.81140181251222,0.0903573901418784,0.193985492785482,0.0108112303753043,0.138163099827301,0.110440009931231,0.0472985661667107,0.0224522468155752
1938,10.1625681273484,1.47631949109055,3.16946476141391,0.160608229976685,0.0605272963328654,0.0483822034716054,0.020720831640797,0.00983601119288449
1939,1.89176899143014,0.0103196834965215,0.321524390225005,0.0117934749323324,0.0443765778078278,0.0398856853877833,0.0101276530296538,0.0136395730884791
1940,2.07043741458083,0.00635535336940677,0.198010056941351,0.00755649313698759,0.0579022642718437,0.0520425776405784,0.0132144944730983,0.017796824463218
1941,1.23290551358684,0.0253739688916963,0.790562024333488,0.0318569941009652,0.413339623001933,0.371509813865186,0.0943326523126594,0.127043955996643
1942,3.00120261895088,0.0677254847983801,2.11008362900199,0.0780561976630261,0.358631649078221,0.322338265631485,0.0818471609740965,0.110228927760656
1943,19.2175456549122,0.188216889129568,5.86416439300976,0.21700344261942,1.00453537081434,0.902876781862473,0.229255751438944,0.308753722955353
1944,29.2859957853383,0.25214779495081,7.85602252680191,0.291145869039832,1.39044324468324,1.24973092894112,0.317327911146271,0.427366263873863
1945,31.5879878298693,0.194717780266484,6.06670888571834,0.236230439696682,2.27754188655079,2.0470555331655,0.51978217174333,0.700024665223338
1946,20.6737036726954,0.169357010867996,5.27655811033512,0.218155222756921,3.36722941127945,3.02646710407426,0.768471406163012,1.03495073143565
1947,6.16874253451695,0.0504373942580216,1.57144862425431,0.0602995439203826,0.494574400705753,0.444523663650366,0.112872109007317,0.152012255549074
1948,9.63857434322575,0.078807831004755,2.45536985870741,0.0942173280620882,0.772767179448316,0.694563441348632,0.176361455812311,0.237517513633148
1949,13.0694035644021,0.106859254570783,3.32935178461148,0.127753754562365,1.04783532171957,0.941794794571595,0.23913769593832,0.322062384286945
1950,5.27260766957507,0.0431103334052995,1.34316364113374,0.0515398503136658,0.422732249971841,0.379951910637698,0.0964762440830781,0.129930871310475
1951,3.63268956566383,0.18692393607252,4.60821953808511,0.0802047273811566,2.40193693025642,3.00939454719765,0.706043752612725,0.987538519725461
1952,2.73064405169761,0.0669568543068053,3.32464103907831,0.242713355622453,2.16663288412983,1.1116859100884,0.342064146116786,0.643324846584849
1953,7.80964528366493,0.202548702215242,4.05210971234885,1.13085601198039,1.33659886142117,0.74964210584361,0.264222878706329,0.19463890795553
1954,4.87035290624669,0.219427760733179,4.99379718071162,0.544091100103773,1.32302932983314,0.486254338925585,0.375624957296024,0.354929773330673
1955,4.80867284021531,0.118153409625558,5.82134071351526,0.17780754905352,0.234074419893555,0.769902703298843,0.161390190777379,0.435075206018244
1956,4.57381412724969,0.362899758135642,5.4903233003938,0.266711323580281,0.569920326697351,0.256634234432947,0.0257081719822374,0.118309924443558
1957,7.91165462363989,1.06971033357425,8.45806562493099,0,1.28232073506904,0.297155429343413,0.0942632972682037,0.606815418920183
1958,11.4962153841556,0.346020699617705,8.34392168937187,0,0.315491609421748,0.121563584731396,0.0128540859911187,0.0400727163437857
1959,11.8307111268642,0.557008931091915,8.98312772850295,0.113796831394253,0.417263096331989,0.0337676624253878,0.00856939066074579,0.0572467376339795
1960,9.60311181903877,0.578107754239336,10.0446663292028,0.899706198210813,0.695438493886648,1.68838312126939,0.235658243170509,0.171740212901939
1961,7.15725996987153,0.58232751886882,13.0466518344077,0.632994874630533,1.11948635601265,0.479500806440507,0.0985479925985766,0.19463890795553
1962,11.5839908627387,1.54443385439122,15.1640218390294,0.903262349191884,1.10252444152761,4.04536595856146,0.0157105495447006,0.160290865375143
1963,8.84634485503843,1.01907315802044,9.71935611285929,1.12729986099932,4.6814883978711,1.91800322576203,0.188526594536407,0.797637877700115
1964,5.3234641605541,0.438855521466357,6.99131605299626,0.241818266712788,1.44854749702243,0.7226279759033,0.0199952448750735,0.0648796359851768
1965,4.80155590951938,0.362899758135642,5.80992631995934,0.124465284337464,0.664907047813576,1.80319317351571,0.0728398206163392,0.511404189530217
1966,3.85737643719294,0.261625407028021,6.95707287232853,0.533422647160561,0.993968188823356,0.74964210584361,0.204237144081108,0.255702094765108
1967,5.96398792318761,0.565448460350883,9.3540955190701,0.3485027961449,0.820956661075946,2.72167359148626,0.527017525635866,0.295774811108894
1968,6.43607765935084,0.445185168410584,7.63622928890531,0.0853476235456898,1.01771486910241,0.324169559283723,0.0971197608217857,0.0400727163437857
1969,7.47173341422227,0.959996453207657,7.77320201157625,1.15574906884788,2.88691784535384,4.09264068595701,0.042846953303729,0.0171740212901939
1970,9.17135135681914,1.89256443632367,9.22853718995507,0.359171249088111,5.66527943800343,11.838942446341,0.725541742609811,0.0152657967023945
1971,7.81913452459283,1.17942421394084,2.60818892752595,1.15219291786681,3.58914110503451,9.62378379123553,0.781242781904658,0.0935030048021665
1972,8.65418772624838,2.18161831344333,14.4163790611172,1.32644431593926,4.23030147256903,6.58469417295063,1.06974560081643,0.175556662077537
1973,10.6279498392524,1.54021408976173,6.10670055241306,1.67139096110309,1.45872464571346,5.74050261231593,0.985479925985766,0.248069196413911
1974,5.24280561266692,3.54460228876673,7.30521187578385,1.24465284337464,1.05163869807249,15.7357306902307,1.47107873009469,0.0381644917559863
1975,4.19898911059749,2.74284700916473,6.16377252019262,1.17352982375324,3.42630672597812,21.1385566782928,1.45679641232679,0.381644917559863
1976,5.10046699874836,2.55295760083794,6.73449219798824,0.995722274699715,4.61364073993094,6.07817923656981,1.07117383259322,0.381644917559863
1977,14.3287538011349,3.22811994155542,7.76178761802034,5.51203402065913,4.71541222684118,10.4004400270195,1.0426091970574,0.305315934047891
1978,16.0560864952479,2.69783899962666,7.17179017094815,2.74396236973393,4.26294365928062,13.9955074536059,2.45597079588113,1.17792413935347
1979,25.679276599166,4.93053334414527,15.0985032200185,6.1151145532369,3.58984672067709,16.0799447339302,1.98366854396777,2.18757340165643
1980,18.5664832122826,4.23281762741259,14.5952197793512,4.46873826936486,2.69238639746097,12.2088469276136,2.83381179760203,2.69239803280792
1981,22.0496599738005,3.83279195809028,10.1159971574124,3.57499004650773,1.92954261236393,9.11196868256043,2.05923657292414,1.79212744058777
1982,3.84548792753887,0.72127943348545,0.000127995202377158,0.00046933679584383,0.000269887495911727,0.0908306963511214,0.000130904781095006,0.000319988703007384
1983,6.35264740381207,0,0,1.06414344617366,3.38384915108932,0.466299856209091,0,0
1984,9.4547311602493,1.6638014324659,0,24.8558688917214,1.51275293818805,0.136079724574637,7.22810137032283,0.101941559069699
1985,17.6090132790553,0,3.73795850009139,52.3861579704163,0.00653999996185303,0,10.9190370998689,5.25267736858101
1986,158.105118565455,23.5499430240036,120.935766575744,97.6930027715437,61.9656707777878,32.0520852141627,23.2602017380223,37.3924403177008
1987,98.2024559864429,57.552199184813,164.565761575346,74.4042019593254,37.5508836316759,68.7699633178535,46.0118176218181,6.62288122017759
1988,128.544257762017,21.1947142557225,98.5970395511351,52.4126288073304,37.3471258081458,59.6376247972366,31.7764338471089,23.4147665972296
1989,120.800396703607,20.8712091864739,80.4027665590763,88.9375106567086,28.8034032201444,9.58616736554554,31.5993194862075,39.9902022598306
1990,139.640866308313,64.6796540572007,206.098675596396,248.045852025907,114.428940721651,138.805877154469,180.919702128988,154.983294964654
1991,96.5227094380361,27.4476743041645,148.935868064537,207.558885556179,222.396099266213,148.739380007117,103.143313784179,146.758169353491
1992,29.0002658843862,31.3864417450011,73.2360925042243,146.541774419234,84.225817939317,113.659346963566,69.3522599810521,207.934355140865
1993,49.2136349694659,37.8675416726933,219.18331905494,287.132738297732,54.2719528157149,100.978238763505,63.0666895672697,186.412017519281
1994,91.7946426190593,14.9302972732291,79.0618531472802,131.447377213905,63.5345487221859,74.1348204212658,38.7025129399473,204.995947913644
1995,53.6890702226141,16.1647015609399,90.4690740041725,114.101915616346,69.0595348339297,83.0869171793244,37.1632901569719,143.326615791054
1996,30.1348871367227,11.3716627252196,88.4515963629573,70.2434596752784,49.9914203026238,65.6624582562062,28.9081801543975,109.133811237726
1997,29.4698599994358,9.74879304542059,95.8528407079141,64.5717968031059,48.7880704751536,93.0496451612595,28.8958522385944,89.4840930504819
1998,42.010944274955,15.4396056806097,79.8794098318727,99.83624436063,49.2566954904178,80.3846213076055,23.3859883051936,71.5945070327534
1999,29.2884908003083,10.3439575719644,60.5007843895277,58.2380249348321,40.8704729305662,75.778739947029,8.37799825723026,50.9740661665911
2000,27.8087548902288,15.2807183590639,34.1040088368718,47.1584800194757,39.9697248649487,27.1561540587913,13.8159234566411,66.5691160821877
2001,24.6023033710254,16.0112859308236,30.8694982782466,52.2644736170445,33.6623966081738,30.8174466022769,9.71292159473758,46.5729999525901
2002,4.18799381317808,4.14269250286083,15.1907452581626,26.96746052598,28.7707782248896,36.4387452265059,7.21168005703456,22.1079463530227
2003,4.61068201367394,5.42924367490096,8.01959980714326,28.5527885801147,21.5969771451986,10.4992939540259,5.67800957952022,3.22115638193734
2004,2.39308391541841,2.84708228470043,9.26190918878505,25.0515021984473,14.7315698845376,5.10692435103733,6.42694330727068,0.494013727918762
2005,2.58941165455992,3.17751224309446,9.69659959711514,27.6311231905354,18.0697921943257,15.8934736463369,2.46058388024073,6.66611899552128
2006,1.22409090430141,0.672133301224118,2.75707264470359,9.30045645769068,10.3168322192861,22.5783517394436,1.74122364121393,8.52397333675742
2007,4.31486540663654,1.84874489079621,3.28256632883868,10.3137155497669,7.18293066390255,6.21177246690461,1.09751971195326,7.48182630087551
2008,4.41279543101788,4.97793651127815,7.74342741060257,18.5360921059251,9.84740544772148,6.70769611859322,4.16236508762836,7.14565524315834
2009,2.67810016235709,0.344160174489021,3.03657508158684,17.7700593709946,12.3205870349407,13.8533170267344,0.244659999608994,3.33664016032219
2010,2.83806999671459,2.05539070391655,1.96840996956825,14.8838600584418,13.9260049638748,9.95913265001774,0.797769982933998,17.8567256653309
2011,4.01787036007643,4.71883178269863,8.2619208817482,17.1633449704051,7.95459212834388,12.5886255875826,0.276189999461174,19.0918217976093
2012,2.61069996999986,0.486591817644297,6.12670199240399,19.4189337835038,9.78794243243893,12.4270623191154,0.219509256260317,19.9801860780598
2013,3.51555001410842,0.985909999608994,7.1254554271698,15.8237433319092,6.69646739673614,10.4120033473968,0.288690001130104,24.0821607449055
2014,3.48872507178783,1.34776526582241,6.95589634943008,16.4220775865316,12.3871189858913,22.0990979532003,1.06060507643223,12.5986025381088
2015,3.51281497150446,0.935600836758934,11.9313496627255,15.5722513853834,16.4528918602983,19.2526684580729,1.31491479169497,14.450612080711
2016,3.18012000361085,0.396150000099093,4.11388089776039,4.25197562760115,4.72399525237083,9.42679525831342,2.73537998604774,10.1353619010448
2017,5.75153213179637,0.314232783581754,1.15348599326259,4.31176561297418,5.09561572593295,5.01955133181193,0.179366065926599,3.93844886361403
2018,2.42448000085354,0.175349999785423,0.522890001654625,1.93509175607562,2.11179509693384,4.74967545062304,0.196605090141296,2.478649969697
2019,0.358061862095256,0.127899935347815,0.38413083241818,0.827888031350575,1.19673897218517,0.926229498183815,0.173705259017435,0.0079608735790742

Combined Fisheries
year,1,3,4,5,6,7,8,9
1918,7.11301789231098,2.20167768234665,2.19757170286602,0.218675238933306,9.50958018471574,5.29230623608322,8.47424609799655,1.94194910004948
1919,18.6384967653201,4.30365630593839,4.29563027895653,0.331621123465172,1.11986994069235,0.623234102411157,0.997946627594415,0.228688373330644
1920,8.96241690295226,2.42032452803348,2.41581078702214,0.192403001498324,1.62507855763809,0.904394643891449,1.4481517962419,0.331856904428565
1921,7.6928457819099,1.40929385528973,1.4066656178786,0.106677780296642,0.0650697667826065,0.0362128638525553,0.0579854427371372,0.0132878815457077
1922,9.72877143018036,3.11815490391866,3.11233975660824,0.235163267023047,0.020907465942612,0.0116354991744665,0.0186312127603635,0.00426950863055205
1923,9.42084967021741,1.40218389679807,1.39956891897707,0.106727792371427,0.154109045805036,0.0857653280490433,0.137330771149951,0.0314705714655605
1924,10.773018728532,1.3565286143271,1.35399878050993,0.104850404271223,0.405840167811468,0.225859649873271,0.361655235213667,0.0828765238145966
1925,9.18388961614671,0.86895570330574,0.867335159882896,0.0692938750694761,0.620858476995414,0.345522423251555,0.553263911118043,0.126785361418704
1926,10.591339973932,1.61227825262281,1.60927146308435,0.130028769356623,1.40609614401306,0.782525752656589,1.25301059882349,0.287138558002582
1927,10.5880345130503,2.30718583038034,2.30288308536299,0.187149656303054,2.20121053791577,1.22502571411799,1.96155870705865,0.449508678626567
1928,10.9119186682534,2.12664630546852,2.12268025441444,0.169894577676991,1.57277094039758,0.875284218032528,1.40153905280992,0.321175178395148
1929,14.4189560864487,1.79102544794846,1.78768530701978,0.149060492315039,2.38022535441794,1.3246516924812,2.12108368931447,0.486065251582401
1930,12.9483995037463,1.27660068894084,1.27421982598146,0.103622984971437,1.23031447125379,0.684698758271653,1.09636621888515,0.251242099231436
1931,8.29104189241317,1.30590761031328,1.30347218123365,0.0996573565183825,0.183853604239883,0.1023188781571,0.163836957896055,0.0375447006449703
1932,9.48333644426278,0.662294814183052,0.661055161391276,0.0506735617787378,0.113529590206834,0.063164853464034,0.101141982274698,0.0231775098639193
1933,4.46143771183855,0.437611063170628,0.436794948232332,0.0331164537371716,0.0188925989098344,0.0105141780272316,0.0168357098297567,0.00385805311463866
1934,5.31297509677848,0.435793717285291,0.434939057975842,0.0337164232474561,0.129491365537634,0.0719067732869765,0.115139618296495,0.0263845490901158
1935,6.92248791890323,0.528811444984492,0.527470453386586,0.0480386832586638,1.38000158748138,0.76666472333561,1.22761078843874,0.281311858544527
1936,7.54783992838168,1.14858898910559,1.14598516251146,0.0994354752033965,2.14578825406044,1.1924393842682,1.90937693812695,0.437542813003183
1937,5.80781144331648,0.279270321326804,0.278339320819373,0.0236095699288671,0.370201596032688,0.204478154430122,0.327415447688946,0.0750231114845553
1938,20.9938967816045,4.55164053831763,4.54253454411519,0.344788994013408,0.165188891453305,0.089601454527428,0.14346894890015,0.0328665621017138
1939,3.90802821127921,0.0335850023748676,0.461306701633716,0.0259811974048821,0.122672721726598,0.0739750914822888,0.0702137884334714,0.0455759826989278
1940,4.27712255699518,0.0227151654510594,0.285025329265451,0.0178214471347677,0.164530940975875,0.0965555822587954,0.0916633161232557,0.0594672398153424
1941,2.54694391903345,0.0806110303484218,1.13335666396815,0.0688562952968255,1.10472512130197,0.688747949604473,0.653582720570226,0.424511317395782
1942,6.1999031360369,0.234879582858215,3.0340671278846,0.180407527211953,1.0383205266078,0.598184141848355,0.567949329847453,0.368324702829919
1943,39.6997259766726,0.66744049655077,8.43874568153122,0.510149993826873,2.96104512196813,1.67592083078184,1.59141468934574,1.03168583388645
1944,60.4991932117376,0.821732540412933,11.2719345417827,0.641881346490475,3.81708316767307,2.31764942908665,2.19970519301931,1.42802398008136
1945,65.2546627711399,0.997669462130243,8.89587269209826,0.719070683541803,7.40818474310968,3.80682250996575,3.61612012264325,2.33909901901476
1946,42.7078663148199,0.71183436232832,7.65140423873303,0.575750045739194,9.62908016933731,5.61546372502463,5.33156315519657,3.45823848915007
1947,12.7434268994891,0.247736641250618,2.29266567664349,0.181309359551701,1.64685961258869,0.826564322335486,0.785743937041339,0.507941699053727
1948,19.9114271459551,0.396588917211451,3.58633973553334,0.288783713892809,2.60773083965572,1.29170814725429,1.22827759841076,0.79365343928398
1949,26.9988556032226,0.51747132309359,4.85442087542454,0.38040020745235,3.46676750213058,1.75124011063929,1.66648893476805,1.07615609073832
1950,10.8921858921734,0.456089092448925,2.09050598061424,0.332664663222124,2.27858876776587,0.720262251560307,0.691021835723469,0.43415780717541
1951,7.50443281909461,0.878489175114498,6.72793886275815,0.329098839971387,7.62604589129452,5.58693154787484,4.90207246502835,3.29979142298608
1952,5.64098155606653,0.470069506158517,4.88258485635861,0.670712082118544,6.76251462805912,2.07107056227551,2.38353655302044,2.14962532453385
1953,16.1332140588547,0.749079113786505,5.86020518606352,2.49335160892461,3.95752202924169,1.39515404437891,1.83541736198712,0.650372401908524
1954,10.061205486886,0.856930683022437,7.23055046314101,1.26217500353175,4.1253889154903,0.908733038305852,2.60932295292535,1.18597320348025
1955,9.93378642080756,0.534227560351045,8.42531126034103,0.522111009814644,1.20443880654896,1.4325049341752,1.13416364528939,1.45377360426611
1956,9.44861382304734,1.23350692596059,7.95727914334039,0.724084494103424,1.77854617984125,0.487037255453664,0.182125382439464,0.395324401160083
1957,16.3439455912152,3.44186466052562,12.2166938992527,0.0790985154272451,3.87830411548091,0.568285999466472,0.669799011159345,2.0276316059501
1958,23.7489536236968,1.22733428778971,12.0262008754223,0.0961688956239422,1.4149655323677,0.239082293598889,0.0972843850580427,0.133900200392931
1959,24.4399570205068,2.10792412429684,12.9507406338743,0.369728023018985,1.85919489596597,0.0767198676702641,0.077554411515759,0.191286000561331
1960,19.8381684417509,2.16963627909355,14.4767403809195,2.02383494871327,2.45053472710653,3.13078468465402,1.6556116922312,0.573858001683992
1961,14.7855123984097,2.21451989907233,18.8493512088129,1.47018300380974,3.65675089280232,0.894038920867698,0.710337135260527,0.650372401908524
1962,23.930280756193,5.243895204555,21.9763195010381,2.08919473044733,4.01901679807578,7.49887407082254,0.150525915209503,0.535600801571726
1963,18.2748345156346,3.36292869919873,14.1141385270233,2.54625252951356,13.2494234998075,3.5633728182344,1.32249542553289,2.66525160782121
1964,10.9972455492315,1.55624395086692,10.1015725311319,0.675072632790823,4.47844184345223,1.36091072044127,0.161113325461161,0.216790800636175
1965,9.91908422087543,1.35595808305104,8.44303594993545,0.42276167714045,2.32532406299006,3.38059971013443,0.522522112218358,1.70882160501455
1966,7.96859236321316,1.040120097827,10.1488762065212,1.47981973529194,3.30956074251394,1.392521664682,1.42763419966664,0.854410802507276
1967,12.3204435431229,1.85207712040314,13.5461259915525,0.960779675027025,2.96832742847548,5.04130548977673,3.65825982510284,0.988311002900208
1968,13.2956894719541,1.5531112495596,11.1236058380262,0.517918904462075,3.59455162662491,0.610683736895928,0.682551486020215,0.133900200392931
1969,15.4351536060773,3.18785495789154,11.4166565833463,3.09238562166256,9.23574630860493,7.59172536549662,0.325702393748444,0.0573858001683992
1970,18.9462349792018,6.07121805149568,13.5425394951369,1.14993375568336,16.2757223149502,21.9247617949635,5.06413721942382,0.0510121037508212
1971,16.1528169920975,3.8709298962581,3.93924342733793,2.82508163264451,10.7592084204865,17.8254070699237,5.44629196508967,0.31243380091684
1972,17.8778751174672,6.86307675736404,20.8402714297541,3.25960924894639,12.9399873740998,12.2162589840301,7.48387466391066,0.586610401721414
1973,21.9552852319772,4.86343205421562,8.93477139702295,4.16935092160689,5.58992595993152,10.643378102781,6.86815378299217,0.828906002432432
1974,10.8306206166673,10.9797407359384,10.6834918213631,2.95942200193115,3.91624779753153,29.1505755870307,10.2418903008719,0.12752400037422
1975,8.67429795995529,8.56855892239585,8.97504384803058,2.6579548078893,10.0839525832643,39.160317214656,10.1258611616796,1.2752400037422
1976,10.5365766180248,7.93840367878759,9.69003715870808,2.22702657984358,13.8189104772881,11.3755018872867,7.51481738817125,1.27653651147183
1977,29.6004291966836,10.1340748295227,11.1518036259899,11.9959174937028,13.9796268976249,19.4823271290191,7.34929416771246,1.07058442699067
1978,33.1687638767838,8.37666296818665,10.3397019185408,6.14855197154443,13.5801251977971,26.2668042624927,17.1398741508093,4.0011665579243
1979,53.0694101649832,15.2814402136038,21.6354849191591,13.1012696836245,9.54366573430538,29.7627267829456,13.7295898681061,8.03262469185016
1980,38.3547571117494,13.0451459716446,20.9143020885204,9.87600629257098,7.58375290821102,22.597625890755,19.6416969872263,8.9964611592002
1981,45.5503254451712,11.8123044679335,16.6227748958366,7.99220381504202,5.44372033218914,19.0365451770025,14.9366198107178,6.16926945909263
1982,22.3730971413076,5.65682767117849,4.86658759018384,9.37625803863148,13.8677382379484,1.10338211806327,5.23781374635565,7.87741951568023
1983,26.916538753268,6.73943041512298,6.06729010478445,5.26719418601666,10.6452748707939,3.96467157308551,8.45873463018741,10.2315482121509
1984,47.5776210866611,10.8831171319047,3.0881150131644,43.161830488916,18.1680982395098,3.38979410799484,19.5438109934177,16.2360612225774
1985,83.237965120167,14.2101050112189,8.3297744472245,87.8844787231413,77.0504611677609,6.42061530711571,23.7971686345307,19.8483073838765
1986,219.715564322126,59.3600105420094,154.324833540731,158.486511415503,166.683946729302,45.5477616337635,39.05031677901,111.702743771679
1987,154.344927501204,118.262782800312,211.358917853875,180.723485412766,170.403481291887,95.9883219043889,97.4313545504317,76.666342745688
1988,216.075789574611,89.5738391702431,130.313520323014,155.135796127708,153.933748296065,86.3168797972791,75.0410071956224,159.293234471623
1989,216.333122524118,68.4293377419934,109.48445447081,295.12424650999,194.977877045243,46.4488490008369,82.9679232503851,167.144765955261
1990,162.72158580888,112.518367891917,239.24072122702,405.788953056803,272.125293578675,170.029905507548,209.638253154049,310.034381386
1991,115.566421182268,67.8081310259055,202.437791919964,361.777626485962,304.513205787872,162.145291803102,127.101385758567,280.755138012902
1992,33.8391309715663,60.0695905786547,88.4694453812037,250.636735868516,182.168911619498,119.89645444786,92.1959058479544,319.450052566866
1993,58.7092147561675,65.3403217809251,251.616480111162,378.08748887093,157.901901739178,120.447277209044,113.687083162932,468.632197950114
1994,96.7450470301107,40.1441799463296,116.952555292616,203.066369960504,184.069448773862,86.3309314739905,61.6600580021091,333.404083554582
1995,66.5975249334093,54.7263023770348,136.180963248173,203.999433614137,253.077516049449,116.227000863669,67.3515572608954,264.062082130087
1996,35.8832378109617,21.748019457032,116.525738211859,107.761820172563,125.40517898091,86.0195931681936,67.6317744006662,225.28957279977
1997,37.1744586695315,19.1009176851564,113.102375513122,94.1081054703024,125.538162342823,111.373126895021,64.2821736069806,186.745753714045
1998,50.0785617872329,25.744016706538,106.21104052122,163.20812433138,134.73988725074,128.767333985742,69.3976987646083,162.410507876881
1999,32.5907916570758,19.3936644594823,77.7958719786271,83.8777740486295,104.041836258791,102.481780211258,40.6404934203127,125.311201020915
2000,29.7008749028021,35.5221585750103,59.6979745710458,80.8547725749046,120.610053453433,61.9195605139507,61.8041732955734,178.076171131053
2001,26.5634244707746,38.0373201530883,50.222117641474,82.5748272273788,105.395135095443,75.4176511168989,53.5545573746127,149.303457041987
2002,6.31291952046294,20.9278512299021,31.3170528125493,52.0601586093787,100.206699026557,69.1092536838608,38.8856339885938,101.426898155144
2003,8.64192074828497,18.375665557603,24.32256222108,58.7695496904474,85.0255103802252,38.4734437088607,32.1512872438841,85.8667428867427
2004,6.33527308457365,17.2774589035825,21.5301446064836,47.1002740115393,72.1351905348926,29.6041341713685,34.4780725169715,77.0927728562739
2005,7.90497847510012,16.6531815520976,20.6448718216379,53.8550751259598,76.7514742862077,40.9459315944588,29.1119838680355,80.6486639823941
2006,4.14790029877307,10.1566034132645,15.9516407841283,25.5290456698409,48.2294984854943,56.6150301495534,14.311575556651,42.4639769356701
2007,8.81773561453633,15.6782231165738,19.2653588281114,38.1779372675001,45.1801801621752,37.2455459427259,15.1097846436365,59.5072110839865
2008,9.84974639617659,25.7414541584793,21.4597502331646,65.6449979164953,58.1704740737034,40.8971970947176,25.0357518477816,70.500279829674
2009,6.79506781403825,18.5437750464604,18.536649109137,55.445883189736,46.0627238296175,42.780937928979,15.7717177478352,57.874227808792
2010,6.90447721161789,15.7990993151778,16.6651630656079,44.7662157635666,48.8126292004689,43.4556799817054,12.5782957719375,63.4558126243935
2011,7.03870306617439,13.0427476322141,32.3035494243661,52.5446631052506,50.1694796067437,40.899620631688,9.7559628063343,65.2223872843962
2012,5.3181887097531,6.99497149012251,30.4079623786478,67.4538217044236,58.6126357424992,42.8300512325246,9.47508952623415,66.6301622123691
2013,5.21204252748375,6.76387422807546,32.7089068543055,46.1460699805918,52.3656427029211,43.208345641361,11.7274817028009,64.2114233630086
2014,5.20101021750401,3.61683068114907,25.8978272349451,39.7713915561865,46.934377669776,45.6923801149464,11.4483575419231,63.9667260753987
2015,5.63348058544449,4.53955908254328,47.94198171171,40.2865733342799,50.5689402715335,45.4321649637018,11.5604527823372,64.653145701763
2016,4.42485691267583,2.13087315939659,29.4292727811432,15.0033614713841,28.7350520946126,29.9795734733255,13.5430044254368,40.180852261985
2017,7.11869040881282,5.78512009598207,20.4006517190537,15.2911832767099,20.9202453457082,21.0608761361492,10.593893726128,33.3695826265691
2018,2.81437936275273,1.53898793098943,12.3196844965173,14.6839416071884,14.7125622248146,15.9572263478961,7.24671089155145,15.3207904622336
2019,0.361989843631871,0.214104338723603,0.729832957510203,2.4568623345834,1.95456132813299,0.938231155627761,0.243840681554992,0.0758308774139999

