"Thresh","5BCDE","5A3CD","s5A3CD","n5A","coastwide"
1,2.03501446819417,1.87967275329215,1.89263057331128,1.59039487481056,2.11925374733231
2,1.83273010676453,1.68515317508237,1.72638007028426,1.33750367959357,1.90872396021505
3,1.70504162578637,1.68515317508237,1.72638007028426,1.33750367959357,1.81936942545736
4,1.61042361152978,1.50421208636024,1.54659172379317,1.18505344844486,1.68937354902868
5,1.57360865437179,1.42891617079535,1.44991282620442,1.18505344844486,1.63565916908357
6,1.47275297268047,1.38679664470585,1.39452978855476,1.18505344844486,1.55126334460292
7,1.45026914597237,1.34604032994418,1.34088876051245,1.18505344844486,1.52118043634896
8,1.42797714704094,1.28168712326811,1.25603639374871,1.18505344844486,1.48082140832502
9,1.42797714704094,1.23594383744499,1.25603639374871,1.01888159862767,1.46528675713972
10,1.40997679068557,1.11808379158739,1.16300834332188,0.82125227942104,1.41285545099213
11,1.33058436948401,1.06349168165375,1.09333039781371,0.82125227942104,1.34038019904106
12,1.33058436948401,1.06349168165375,1.09333039781371,0.82125227942104,1.34038019904106
13,1.33058436948401,0.960204120696064,0.967773057243541,0.82125227942104,1.30700937518994
14,1.26850581968357,0.960204120696064,0.967773057243541,0.82125227942104,1.259646009461
15,1.18485111194341,0.960204120696064,0.967773057243541,0.82125227942104,1.19834851139708
16,1.157122927718,0.929154650858021,0.933808457962049,0.82125227942104,1.16392713885116
17,1.116492957882,0.871505472530534,0.851969781121547,0.82125227942104,1.12006317547891
18,1.04679568853159,0.785443046074758,0.793264569436782,0.690081679559356,1.04132482315276
