PFMA,pfmaGroup,assessmentArea,recSurveyArea,bioRegion,subRegion,subRegionName,name
1,1,north,hgCreel,northShelf,HG,Haida Gwaii,Northen Haida Gwaii
2,2,north,hgCreel,northShelf,HG,Haida Gwaii,Southern Haida Gwaii
3,3,north,ncCreelSurvey,northShelf,NC,North Coast,Portland Inlet
4,4,north,ncCreelSurvey,northShelf,NC,North Coast,"Chatham Sound, Porcher Island"
5,5,north,notSurveyed,northShelf,NC,North Coast,"Greenville Channel, Principe Channel"
6,6,north,notSurveyed,northShelf,NC,North Coast,Princess Royal Island
7,7,north,ccLogbook,northShelf,CC,Central Coast,"Prince Island, Hunter Island"
8,8,north,ccLogbook,northShelf,CC,Central Coast,Fitz Hugh Sound
9,9,north,ccLogbook,northShelf,CC,Central Coast,"Calvert Island, Rivers Inlet"
10,10,north,notSurveyed,northShelf,CC,Central Coast,"Cranstown Point, Table Island"
11,11 & 111,south,wcviCreel,northShelf,NVI,North Vancouver Island,"Cape Caution, Westcott Point"
12,12,inshore,insideCreelSurvey,northShelf,NVI,North Vancouver Island,Northern Johnstone Strait
13,13,inshore,insideCreelSurvey,northShelf,NVI,North Vancouver Island,"Quadra Island, Cortes Island"
14,14,inshore,insideCreelSurvey,SOG,SOG,Strait of Georgia,"Oyster River, Parksville"
15,15,inshore,insideCreelSurvey,SOG,SOG,Strait of Georgia,"Brettell Point, Powell River"
16,16,inshore,insideCreelSurvey,SOG,SOG,Strait of Georgia,"Texada Island, Lasqueti Island, Jervis Inlet"
17,17,inshore,insideCreelSurvey,SOG,SOG,Strait of Georgia,"Nanoose Bay, Galiano Island"
18,18,inshore,insideCreelSurvey,SOG,SOG,Strait of Georgia,"Mayne Island, Saanich"
19,19,inshore,insideCreelSurvey,southShelf,SS,Southern Shelf,"Saanich, William Head"
20,20,inshore,insideCreelSurvey,southShelf,SS,Southern Shelf,"Sooke, Bonilla Point Lighthouse"
21,21 & 121,south,wcviCreel,southShelf,SS,Southern Shelf,Tzuquanah Point
22,22,south,wcviCreel,southShelf,SS,Southern Shelf,Nitinat Lake
23,23 & 123,south,wcviCreel,southShelf,SS,Southern Shelf,"Cape Beale, Ucluelet"
24,24 & 124,south,wcviCreel,southShelf,SS,Southern Shelf,"Cox Point, Estevan Point"
25,25 & 125,south,wcviCreel,southShelf,SS,Southern Shelf,"Nootka Sound, Esperanza Inlet"
26,26 & 126,south,wcviCreel,southShelf,SS,Southern Shelf,"Union Island, Solander Island"
27,27 & 127,south,wcviCreel,northShelf,NVI,North Vancouver Island,"Solander Island, Lawn Point, Cape Scott"
28,28,inshore,insideCreelSurvey,SOG,SOG,Strait of Georgia,"Bowen Island, Squamish, Vancouver, Indian Arm"
29,29,inshore,insideCreelSurvey,SOG,SOG,Strait of Georgia,Lower Georgia Strait
101,101,north,notSurveyed,northShelf,HG,Haida Gwaii,Open water north of Haida Gwaii
102,102,north,notSurveyed,northShelf,HG,Haida Gwaii,Open water east of Haida Gwaii
103,103,north,notSurveyed,northShelf,NC,North Coast,Open water west of Zayas Island and Dundas Island
104,104,north,notSurveyed,northShelf,NC,North Coast,Open water between Rose Point and Chatham Sound
105,105,north,notSurveyed,northShelf,NC,North Coast,Open water west of Banks Island
106,106,north,notSurveyed,northShelf,NC,North Coast,Hecate Strait
107,107,north,notSurveyed,northShelf,CC,Central Coast,Hecate Strait/Queen Charlotte Sound
108,108,north,notSurveyed,northShelf,CC,Central Coast,Open water west of Calvert Island
109,109,north,notSurveyed,northShelf,CC,Central Coast,Open water west of Calvert Island
110,110,north,notSurveyed,northShelf,CC,Central Coast,Open water southwest of Calvert Island
111,11 & 111,south,wcviCreel,northShelf,NVI,North Vancouver Island,Open water north of Vancouver Island
121,21 & 121,south,wcviCreel,southShelf,SS,Southern Shelf,Open water southwest of Pachena Point
123,23 & 123,south,wcviCreel,southShelf,SS,Southern Shelf,Open water southwest of Ucluelet
124,24 & 124,south,wcviCreel,southShelf,SS,Southern Shelf,Open water southwest of Clayoquot Sound
125,25 & 125,south,wcviCreel,southShelf,SS,Southern Shelf,Open water southwest of Nootka Sound
126,26 & 126,south,wcviCreel,southShelf,SS,Southern Shelf,Open water southwest of Clerke Point
127,27 & 127,south,wcviCreel,northShelf,NVI,North Vancouver Island,Open water west of Northern Vancouver Island
130,130,north,notSurveyed,northShelf,NVI,North Vancouver Island,Open water west of Queen Charlotte Sound
142,142,north,notSurveyed,northShelf,HG,Haida Gwaii,Open water west of Haida Gwaii