"recSurveyArea","year","rfPcs","yePcs","stock"
"",NA,0,NA,"north"
"ccLogbooks",2002,4603,1079,"north"
"ccLogbooks",2003,4270,1068,"north"
"ccLogbooks",2004,4956,1356,"north"
"ccLogbooks",2005,4721,1379,"north"
"ccLogbooks",2006,7830,1719,"north"
"ccLogbooks",2007,8424,2548,"north"
"ccLogbooks",2008,6371,1950,"north"
"ccLogbooks",2009,4039,1134,"north"
"ccLogbooks",2010,4790,889,"north"
"ccLogbooks",2011,4485,941,"north"
"ccLogbooks",2012,4776,1272,"north"
"ccLogbooks",2013,5299,1344,"north"
"ccLogbooks",2014,6405,1255,"north"
"ccLogbooks",2015,7928,1559,"north"
"ccLogbooks",2016,8238,1477,"north"
"ccLogbooks",2017,1218,1218,"north"
"ccLogbooks",2018,613,613,"north"
"hgCreelSurvey",1999,10100,NA,"north"
"hgCreelSurvey",2000,10700,NA,"north"
"hgCreelSurvey",2001,7500,NA,"north"
"hgCreelSurvey",2002,8600,NA,"north"
"hgCreelSurvey",2003,10750,NA,"north"
"hgCreelSurvey",2004,13050,NA,"north"
"hgCreelSurvey",2005,15250,NA,"north"
"hgCreelSurvey",2006,15750,NA,"north"
"hgCreelSurvey",2007,21250,NA,"north"
"hgCreelSurvey",2008,20250,NA,"north"
"hgCreelSurvey",2009,16500,NA,"north"
"hgCreelSurvey",2010,16170,NA,"north"
"hgCreelSurvey",2011,16400,NA,"north"
"hgCreelSurvey",2012,17700,NA,"north"
"hgCreelSurvey",2013,18100,NA,"north"
"hgCreelSurvey",2014,15890,NA,"north"
"hgCreelSurvey",2015,19100,NA,"north"
"hgCreelSurvey",2016,17100,6600,"north"
"hgCreelSurvey",2017,18396,5396,"north"
"hgCreelSurvey",2018,2714,2714,"north"
"ncCreelSurvey",2011,1418,729,"north"
"ncCreelSurvey",2012,0,NA,"north"
"ncCreelSurvey",2013,4081,789,"north"
"ncCreelSurvey",2014,2923,1664,"north"
"ncCreelSurvey",2015,914,914,"north"
"ncCreelSurvey",2016,664,664,"north"
"ncCreelSurvey",2017,2124,2124,"north"
"ncCreelSurvey",2018,1067,1067,"north"
"wcviCreel",1984,9039,NA,"south"
"wcviCreel",1985,14285,NA,"south"
"wcviCreel",1986,2745,NA,"south"
"wcviCreel",1987,19888,NA,"south"
"wcviCreel",1988,14358,NA,"south"
"wcviCreel",1989,23163,NA,"south"
"wcviCreel",1990,25122,NA,"south"
"wcviCreel",1991,14267,NA,"south"
"wcviCreel",1992,24608,NA,"south"
"wcviCreel",1993,18980,NA,"south"
"wcviCreel",1994,18527,NA,"south"
"wcviCreel",1995,13353,NA,"south"
"wcviCreel",1996,7199,NA,"south"
"wcviCreel",1997,14413,NA,"south"
"wcviCreel",1998,23297,NA,"south"
"wcviCreel",1999,24753,NA,"south"
"wcviCreel",2000,12802,1744,"south"
"wcviCreel",2001,21057,4482,"south"
"wcviCreel",2002,30371,1623,"south"
"wcviCreel",2003,21962,1793,"south"
"wcviCreel",2004,29611,1333,"south"
"wcviCreel",2005,43156,2683,"south"
"wcviCreel",2006,37293,3524,"south"
"wcviCreel",2007,32461,7216,"south"
"wcviCreel",2008,39892,10244,"south"
"wcviCreel",2009,31510,7679,"south"
"wcviCreel",2010,30068,8089,"south"
"wcviCreel",2011,38059,13089,"south"
"wcviCreel",2012,46064,11507,"south"
"wcviCreel",2013,25988,7180,"south"
"wcviCreel",2014,45029,6443,"south"
"wcviCreel",2015,41375,9007,"south"
"wcviCreel",2016,39200,8232,"south"
"wcviCreel",2017,65849,10279,"south"
"wcviCreel",2018,54948,4798,"south"
