Catch History - Sebastes ruberrimus (built 2015-07-15)
Trawl
year,1,3,4,5,6,7,8,9
1918,0,0.000211211863062407,0.000104072220961288,9.85579620165614e-06,0.00142044262999229,0.000760273662087383,0.000314457262841298,8.84719930318642e-06
1919,0,0.000426293738388524,0.000210051346040518,1.52466424591607e-05,0.00015102414523235,8.08337327640175e-05,3.34336905482546e-05,9.40650952211437e-07
1920,0,0.000233239826426734,0.00011492624704363,8.61882751696809e-06,0.000223089357431737,0.000119405711407203,4.93874706558113e-05,1.38950772522863e-06
1921,0,0.000132345577123739,6.52117638941586e-05,4.6459345623705e-06,7.65979406958609e-06,4.09980633160174e-06,1.69572344999468e-06,4.77088784327468e-08
1922,0,0.000304146832804591,0.000149864860474067,1.06357928586108e-05,2.33121313642237e-06,1.24775187037555e-06,5.1608342815157e-07,1.45199156943402e-08
1923,0,0.000131646071942153,6.48670907457566e-05,4.64821672860886e-06,1.89040833813079e-05,1.01181676734035e-05,4.1849816325507e-06,1.17743715787658e-07
1924,0,0.000127158401944253,6.2655842869567e-05,4.56258242500885e-06,5.21403078903561e-05,2.79074296878711e-05,1.15428093727325e-05,3.24754893929075e-07
1925,0,7.97392921607163e-05,3.92906208615507e-05,2.95625404423485e-06,8.14015009336647e-05,4.35691071976505e-05,1.80206455609632e-05,5.07007665872823e-07
1926,0,0.000152384158576599,7.50855448763213e-05,5.71670329518904e-06,0.000191697454219357,0.000102603598663446,4.2437938340242e-05,1.19398386642431e-06
1927,0,0.00022182902604554,0.00010930370614371,8.37241948192969e-06,0.000306593070541012,0.000164100000654088,6.78735034648732e-05,1.90960897876385e-06
1928,0,0.000203676254710551,0.000100359136449362,7.56544397774937e-06,0.000215571391960385,0.000115381817010016,4.77231451882846e-05,1.34268222346241e-06
1929,0,0.000170130867184209,8.38300318230659e-05,6.59633902396012e-06,0.00033276767492501,0.000178109621252999,7.36680313653702e-05,2.07263699325574e-06
1930,0,0.000119377869359167,5.88195522700627e-05,4.54081533915827e-06,0.00016689049136536,8.92069182323049e-05,3.68984505307878e-05,1.03807419446556e-06
1931,0,0.000122191068718508,6.02082464440509e-05,4.32609451947163e-06,2.27437137736469e-05,1.21732804937371e-05,5.03499812600368e-06,1.4165877903226e-07
1932,0,6.37179534408793e-05,3.12354826945106e-05,4.30883105150345e-06,2.80496608740032e-05,7.42239749500766e-06,3.16697923683945e-06,8.54581385262448e-08
1933,0,3.88624459089007e-05,1.91490241082349e-05,1.36386480455184e-06,2.09637843519315e-06,1.12205961465262e-06,4.64095775986346e-07,1.30572523236341e-08
1934,0,7.81314180092781e-05,3.67964552329285e-05,2.44520445193968e-05,0.00016736814050723,9.24423209640229e-06,4.8500773041444e-06,9.78870632821963e-08
1935,0,0.000425807772144398,0.00019348195958518,0.000223300610637391,0.00164273996262289,0.000108410301557193,5.46896386500888e-05,1.168610035442e-06
1936,0,0.000607055420552084,0.000277532604650731,0.00029684054808919,0.0022216053826467,0.00017008437696139,8.3369672200062e-05,1.85638096106828e-06
1937,0,0.000465525581436822,0.000210341197618105,0.000258984488849077,0.0017436846366674,3.44563188384598e-05,2.57368777773266e-05,2.92586030747072e-07
1938,0,0.00113252437795484,0.000528674224825945,0.000413793039964886,0.00263634513155268,2.49513073695892e-05,2.80321768227197e-05,1.2322191286038e-07
1939,0,0.00109870768967775,0.000337848417424386,0.000424939675524759,0.00290572841994875,8.40953337082978e-05,6.75214859241627e-05,0
1940,0,0.0019679522059571,0.000790830228842403,0.00101995106590583,0.00687810561145804,0.000127807564827786,0.000116692741867367,0
1941,0,0.00156112803143084,0.000301139264663129,0.000355969013058168,0.00375968510422588,0.000726782149802884,0.00046148249031472,0
1942,0,0.0185935698766261,0.00723857633354527,0.00931069705226453,0.0622755508499211,0.000950373069944676,0.000931349211998746,0
1943,0,0.0665776031005128,0.0266616301750976,0.0343729529177185,0.229121515386805,0.00304816670192025,0.00315511774838816,0
1944,0,0.0328755778469403,0.0103366929816141,0.0130337351438934,0.0901081860368208,0.00301176601575933,0.00233841135837285,0
1945,0,0.310086861972294,0.136023105131254,0.176597809245444,1.16943509144246,0.0106405231033382,0.0131267939593866,0
1946,0,0.147862805167498,0.0635494437665155,0.082391120868599,0.55466525519248,0.00940347104259121,0.00886355754532153,0
1947,0,0.070272521656131,0.0307708645330331,0.0399440466964912,0.264279460540344,0.0023028370624829,0.00290487930649958,0
1948,0,0.120356398693597,0.0527974806305775,0.0685460279857926,0.45332054818131,0.00384853750119311,0.00492129181060742,0
1949,0,0.150109214107532,0.0656803532344535,0.0852558901334798,0.564174625433254,0.00496823085412985,0.00623284578016689,0
1950,0,0.146680933565817,0.0729340375453198,0.100391566074193,0.537409785705725,0.00510931105614298,0.0100942693450156,0
1951,0,0.144353599220221,0.0513703258951014,0.0668093760611551,0.648470167474679,0.00523584533945963,0.00529230235801504,0
1952,0,0.166399956574299,0.0537426716677843,0.0652721606349246,0.555097976804775,0.00311678780025877,0.00632879684242474,0
1953,0,0.12332932452408,0.053711834056,0.0705579156691256,0.397582779461043,0.00453858568433014,0.00654244561811188,0
1954,0,0.158228523896431,0.0736104911462014,0.0930646386655549,0.570283927704649,0.00862331280022726,0.00779716121610594,0
1955,0,0.149311418553679,0.0834183791484246,0.140622419340565,0.538145083480599,0.00520563116246324,0.0118301756382297,0
1956,0,0.104686519654161,0.0894197013893184,0.146543363312799,0.254240024073189,0.0108926056423923,0.00358490170855445,0
1957,0,0.13782928386735,0.0956210677049087,0.0694043870126712,0.42529801871526,0.01416038733511,0.0119248013468434,0
1958,0,0.149386562696827,0.0694970665162137,0.095524562752047,0.538415916577628,0.00886930414431795,0.00690338109433778,0
1959,0,0.376042901649649,0.0782172332063166,0.11901097384191,0.601881106060589,0.00839638351601075,0.0111131952965188,0
1960,0,0.37699894292503,0.0825181808122905,0.0888217043661079,0.544283964079717,0.0052650143080265,0.0175751598712736,0
1961,0,0.386878036103961,0.153633849366883,0.105439863651333,0.646117155432956,0.00625007586629669,0.0199787940780854,0
1962,0,0.474674493226401,0.2459541898393,0.146911599943192,0.900248745809929,0.00870836335434362,0.030256560530352,0
1963,0,0.212400503347027,0.186341055579754,0.127793707400724,0.724748990200819,0.0122541813476914,0.00929247877387199,0
1964,0,0.201246688467588,0.0768169246834414,0.131543638583139,0.534985365645005,0.0156669573371152,0.0158665415276024,0
1965,0,0.234708133105904,0.113725056464939,0.149602517698454,0.536837589293002,0.0299546655165789,0.0147948623927434,0
1966,0,0.231202648429509,0.179639579077423,0.324961141676127,0.656460780106925,0.00499244425276315,0.0140487816831113,0
1967,0,0.109148045605936,0.141131094698354,0.208121180624036,0.775106124674413,0.00363086854746411,0.00917565984934566,0
1968,0,0.17798301743333,0.179839623152119,0.329697896853914,0.877454031801312,0.0106711010346362,0.0103579843226119,0
1969,0,0.228175184390804,0.275560712894376,0.599100847590576,1.54760465935833,0.016565837747805,0.0291528732797395,0
1970,0,0.237098236294355,0.318370144879419,0.380420650216055,1.21155149933339,0.0118003227792584,0.0424472079252244,2.50548091510814e-06
1971,0,0.235664174381285,0.198143655986845,0.355552685532671,1.217418576812,0.0125319427915724,0.0390767722300643,0
1972,0,0.139263345780421,0.182240152048477,0.416538408446684,1.69134805758433,0.0285023180975933,0.0798519827297389,0
1973,0,0.114087592195402,0.184140570758093,0.588443148440554,1.70927523876897,0.0181543427373205,0.0473516604761979,0
1974,0,0.0556097341846304,0.215447468448089,0.292790679426987,1.09355805226352,0.0249622212638158,0.0601104510612861,0
1975,0,0.115362313895909,0.142631425258577,0.143188161728533,0.968719681468611,0.034493251200909,0.0429291979599396,0
1976,0,0.0704283739530276,0.0398087708645959,0.0937482795603767,1.55347173683694,0.125264964887512,0.100914983095808,0.001297481188181
1977,0,0.185312667211247,0.0295065010177281,0.186707099924456,1.44362700848737,0.23192172846927,0.133104959037214,0.0504302602049891
1978,0,0.0621768135732613,0.0628449463083043,0.269768470344547,2.24702033456842,0.362208729188207,0.141369820056949,0.0652637660863874
1979,26.004,0.108,7.282,1.814,0.613,0.925,0.091,3.649
1980,11.254,0,4.612,2.071,0.598,0,1.081,0.672
1981,4.973,0,2.127,0.333,0.314,2.171,0.684,0.181
1982,12.972,0,0,0,0,0,0,2.009
1983,0.875,0,0.837,0,0,0.053,0.939,0
1984,1.241,0,12.253,1.489,0.469,0,2.319,20.864
1985,3.967,0.229,1.579,1.135,4.09,0,1.734,0.161
1986,0.181,0.109,1.135,2.017,2.409,3.218,0.029,4.441
1987,0.349,5.458,6.044,6.223,5.261,8.624,0,0
1988,0.01,1.31757508802414,0.805,1.787,1.016,0,0.372,10.636
1989,0.008,7.56842843294144,1.155,0.135,27.134,0.537,0.021,0
1990,0,1.62660070419312,3.297,11.865,24.742,6.065,0.28,0.549
1991,0,4.017,8.101,5.589,6.083,6.607,1.785,0
1992,0,5.198,2.461,9.73,16.469,3.489,1.167,0
1993,0.011,16.893,7.164,6.954,6.616,1.317,6.388,0
1994,0.361,8.143,19.904,14.346,28.547,7.215,3.531,0
1995,0.05,5.156,8.528,8.779,17.365,3.454,2.511,0.094
1996,0.01425,3.43802999001741,4.00139000034332,3.07274997285008,4.84874999958277,0.863029997467995,0.216089997529984,0.0167800004482269
1997,0,2.05065999168158,1.93088000583649,2.93666999867559,9.86731000008806,0.500449999928474,0.172190001368523,0.00130000001192093
1998,0,1.03071000155807,2.44207999682426,2.50515000358224,6.60913999447972,0.631410001635551,0.24893000254035,0.00815999984741211
1999,0,1.49936999970675,2.51760000008345,1.9504100099206,7.28238005337119,0.743700011432171,0.109959999740124,0.00953000020980835
2000,0,1.21370000070333,3.51163999977708,2.12891999265552,6.75471999534965,0.450209997057915,0.143570001602173,0.0131499999761581
2001,0.0058899998664856,1.59055999514461,2.85449998810887,1.14674000194669,4.31033000740409,1.30730999681354,0.0371700003147125,0.00517000007629395
2002,0,1.64455999404192,1.14648999664187,1.30653000572324,5.81360001516342,0.505350000612438,0.0131300001144409,0.00544000005722046
2003,0.0181500004529953,1.07498000150919,1.37026000455022,1.61684999879822,6.53519999751449,1.27206000107527,0.0597800004482269,0.097520001411438
2004,0,1.22028000223637,1.61231000560522,0.81350999468565,3.30389001512527,1.38888000178337,0.107380000472069,0.131519998013973
2005,0.00271999996900558,2.00784000665694,1.54891000596806,1.01870999741554,3.60485001629591,0.793449998617172,0.0394600004553795,0.187090000391006
2006,0,0.821699998669326,1.1651800006032,1.10171999762952,2.98561999666691,0.880730003893375,0.0526200003623962,0.112489999294281
2007,0.0634008899162731,1.53741893120433,1.33864702730979,0.745690092002469,2.06255805313342,0.598069890591783,0.0749108123890902,0.0564942873348593
2008,0.0759935558666675,1.74220892271843,2.11925252686743,0.754111966257472,1.39404053950346,0.368957666374356,0.0868232207877981,0.119841603480025
2009,0.0727217779323103,1.58622557806634,2.66989794216418,1.67560830820135,1.69348081163252,0.314714220314667,0.0533158966483991,0.0520454389238637
2010,0.0652480863095741,1.59956748194099,3.02644683483438,2.57791529090416,3.82925931830218,0.218661429782795,0.0495848776065316,0.11770667607315
2011,0.0462188463506632,1.49348628598379,3.16635470035905,2.035038303292,1.43162522156559,0.130154070554151,0.0382647031432217,0.0429078510608704
2012,0.0354866359065147,1.0642989241733,2.14737305094209,2.54009633041703,1.55009425926622,0.132846553232412,0.0357471657500664,0.0693970355081454
2013,0.0426304457411497,0.488323371389815,1.70655124569166,0.837238478689663,1.33513964558347,0.0567522068683751,0.0433656455350079,0.0279189513086391
2014,0.0300776557699489,0.374356841172135,1.33870301595976,0.669427891066837,2.46155048842104,0.0754193128582507,0.022598837724982,0.0260559422799642
2015,0.0150981162477653,0.475441847333853,0.726101361463545,0.179628753922251,0.456982526418376,0.0472836131922539,0.0190783802424391,0.0108054025820144

Halibut
year,1,3,4,5,6,7,8,9
1918,3.56376509570961,1.63921980915618,1.42547224111942,8.56974782148517,40.1383871796223,4.98558008478038,9.15660584819942,44.3784660608553
1919,9.16548506930652,3.2741365112318,2.20246393831562,8.73800618662393,35.5428606901814,2.59605081972441,3.84972590469192,43.8576831832824
1920,4.52520186638327,1.81452494281658,1.65951217267468,10.5134425463708,43.3902624811642,3.23285306926055,4.84867983302802,53.3813510640819
1921,4.00079105617356,1.05554738847436,1.45134554735879,12.3883705582096,50.3793706568074,3.3405354853555,4.6625270285761,63.0154494082923
1922,4.8766308708878,2.35186172646374,1.88318169372195,10.1621747565254,40.9864988608134,2.71130723494528,3.77822477612659,51.2827422197186
1923,4.67793096659422,1.03603894519984,1.17002229787906,8.87334961934841,36.0753866403747,2.41412334112106,3.39034888755906,45.0684719606723
1924,5.29337433987194,0.998589691626273,1.08825645678719,8.04373128992179,32.8245335000704,2.25399433874229,3.21927047898487,40.8632681034152
1925,4.49685494998942,0.635058276855986,0.856419648798051,7.23864843738177,29.7302952094736,2.09767903307007,3.0473004209102,36.8704370582176
1926,5.22743078819394,1.19237839452731,1.21943154014469,8.57438417695612,35.4884684159684,2.65929379040315,4.00121988937807,43.622031837047
1927,5.1810003589831,1.71579086396055,1.38261363385544,7.53386966920092,31.5699172745419,2.58924411854461,4.08293334501918,38.2447871730067
1928,5.39329742218813,1.58325372764868,1.42408080709071,8.86505733385484,36.6817596357206,2.77735054707343,4.20281714678366,45.0170045761365
1929,7.0344714914258,1.32223459776334,1.18446768097479,7.34432075853675,30.9841409561544,2.59356019775488,4.12977374611386,37.4038755932618
1930,6.28063439277749,0.932582421724748,0.933809469565943,6.44917008648839,26.7716302980226,2.04234580607438,3.10327738923954,32.8165246359458
1931,4.06787433553503,0.957410050333884,1.00310187138056,7.19124697694844,29.2395011033218,1.9688694573615,2.77647155660293,36.4979174118677
1932,4.63145841812813,0.484130155249768,0.76910043918544,7.01791918307055,28.6005322538298,1.91183337046522,2.68299197749508,35.735460387214
1933,2.26427097974797,0.323822598569902,0.698619456332288,7.07234745082341,28.8130366597229,1.9067696450346,2.65780903765067,36.0492919082048
1934,2.67629498907221,0.324081038904066,0.72938844399,7.46846450867851,30.4827882039105,2.03945007387574,2.86376846378019,38.0827782379086
1935,3.43375580060766,0.389934681013777,0.764033792299521,7.52305049356964,31.3573753083584,2.37970871876094,3.60563613961089,38.4689812595375
1936,3.71775313801297,0.840219156950236,0.953713750740893,7.26475422784619,30.6312179340438,2.51319276289062,3.96372588430787,37.1052675154626
1937,2.93337296009541,0.216527867606289,0.726621632141727,8.08073928681518,33.1272474351737,2.26550393755817,3.22723678838537,41.2633779749646
1938,10.3301819001259,3.46861611164164,2.28492798601063,8.62890193369191,34.5492236126697,2.3147537181315,3.25338199522865,43.1549390508825
1939,2.15783724466391,0.0567643733984929,0.887804238989446,9.3381293029782,38.1269471430424,2.54645116200599,3.54132954328503,47.6668458505848
1940,2.33622510904316,0.0494524762441488,0.834707161839269,9.40748286275789,38.4472649816791,2.57657048162066,3.58205451414448,48.0526187992979
1941,1.49373267293442,0.084274887190293,1.07202864523751,8.75875689753959,36.2154086553865,2.68110849321124,3.69367054542056,44.8352899215148
1942,3.18404913127625,0.167825986616196,1.66454898620412,7.67242843879509,31.4785366333307,2.32828308310406,3.20785269707138,38.9745723915488
1943,20.4115077930764,0.434418207887197,3.77046771948083,8.6860859916979,35.93440069801,3.10603077532375,4.225534133134,43.7368532453412
1944,31.5222985771957,0.576043980427562,4.84485387745002,8.30389351136367,34.6155836307225,3.31609718950263,4.47797665420807,41.5860064912061
1945,34.0849212477691,0.445957672089164,3.82462188022089,7.97640636606578,35.014480676165,4.03947377689409,5.39120823923769,40.9115031798607
1946,22.0598475800323,0.397600084431797,3.54608356591791,9.95420119888704,45.0040063433227,5.57352916280509,7.40919314695981,51.9408575703578
1947,6.48882057676121,0.138406209525691,1.52030174178722,9.39322901821371,38.7961125344324,2.91131757222002,4.0061187949679,47.964315306783
1948,10.1245119933004,0.198469947415068,1.98562890768464,9.43333254476549,39.2297160407965,3.14774246337386,4.30729134788701,48.1570685497083
1949,13.7534338255318,0.256072648287629,2.39816658218037,8.77173138431471,36.8006269763255,3.1963581087845,4.34682820066879,44.7651409781919
1950,5.55930123673688,0.122679164021148,1.39313608490952,9.27219236530092,38.2333860236892,2.82129141726777,3.88790225109939,47.3490927561102
1951,3.82082261840718,0.434704633538866,3.21758278967942,10.6654161425824,46.8625118821896,5.69297964353326,7.31415962148996,56.0876882040187
1952,2.96061038922471,0.177657425273347,2.5531861513261,11.1709085309957,47.7560155157261,3.93669610641814,5.65220504501256,56.9343428392935
1953,10.1619869572671,0.696525352887155,3.85775368772039,14.5890312018254,54.1004973142919,4.38317707294191,6.46790345593354,64.734903282271
1954,6.55949603291017,0.752686726102452,4.56876896147934,14.1174599717774,56.4416901520678,4.18976712058204,7.42471256141006,68.1672031820546
1955,6.34534265223972,0.41646434593351,4.89147200706356,10.1620172197656,40.6748713562636,3.67716511447733,4.76550943894358,51.5495250566544
1956,6.08669422993739,1.1998191409593,4.71675751473543,11.0656082802247,44.4224663054971,3.19586147687958,4.14496790227358,54.4291390147981
1957,10.1529018547201,3.44836573245285,6.7131786006779,9.33651502942796,40.8222040514478,2.91241028060459,4.1300908591275,49.4610773176441
1958,14.5935542984005,1.14265618556196,6.6660692941403,9.75874295336102,40.5022468051982,2.79295810197905,3.74865201953663,49.9684688024771
1959,14.9696227978444,1.81183424166003,7.04794180712294,9.08667036101404,37.1409976196232,2.44005927630935,3.39134053641447,45.5428435891353
1960,12.2503686670405,1.88194006201429,7.85321781895931,11.1978470421956,40.5943450570052,4.82779796241806,5.16100483863729,49.4619629562953
1961,9.18649500001131,1.89096183932751,9.8859603529818,9.62181141404328,37.0094022449133,2.92555909430296,3.83952177689168,43.9206161236405
1962,14.6254377647725,4.95630721148096,11.3371617015537,9.5522568491186,34.7113993160592,7.51402611100882,3.08207234178292,40.9896859011148
1963,11.2582845653184,3.28228967209367,7.51297858104308,10.212595585846,43.3316114024046,4.75717347102508,4.32534745425775,44.1658263631414
1964,6.83056897031391,1.42452232990843,5.43337259531694,6.69313601284981,28.6132131051346,2.64802055059874,2.48242262257631,32.16518807938
1965,6.18901702026425,1.18257914149417,4.60375104563238,6.54076542664327,27.1938886091651,4.09940259421478,2.85470526113397,33.7613939743785
1966,5.00345450572712,0.857693819066954,5.37486249097938,6.78323141787628,25.885775818952,2.56721390295983,3.54193054720942,30.5097412316092
1967,7.58225697441621,1.82442237004031,7.02856164934978,5.96080962916234,23.5164762107594,5.05506133963073,5.49849252998869,28.1189540219512
1968,8.16565107185979,1.44105974240851,5.81718191951222,5.51005458433303,24.0185239385888,1.87523431433603,2.65514643711243,27.482567926498
1969,9.50251812884214,3.0881755456532,6.02568444970346,8.83858892160499,33.7216232066008,7.26231890851171,2.82418868227287,34.6146439381148
1970,11.5431295432875,6.05612289044095,6.94617967833496,6.05910708613806,34.0786595092936,17.1903570231528,6.84491182868494,27.7069429325782
1971,9.86557599635053,3.78147058018888,2.25412104603667,7.26469117063407,28.8071921239553,14.1887663727856,7.13311291208865,26.8292337678011
1972,10.902130986753,6.97746617299474,10.6040806992318,7.724923047727,30.7655969066121,10.1906323763362,9.10206663129387,27.8229768612999
1973,13.2624549103519,4.92516538541028,4.59394061234188,6.54898199091926,17.5824951780163,8.58509317642851,7.86954229211427,18.8671137341105
1974,6.57113151762453,11.3114667318985,5.35192162644467,4.67016701148039,12.1762250813462,21.5652810907936,10.6721959700413,12.5672979022399
1975,5.33860784338719,8.7604964824362,4.65098757684592,5.86737566080259,22.602972463453,29.1011323596297,11.0747721706328,20.3343521948929
1976,6.45425275772388,8.15537213316207,5.06027547339877,5.62771472082728,25.4357004516344,9.11203219757348,8.54687274480529,20.7387748734186
1977,17.8001559992134,10.3041195242727,5.70823906219153,12.7495610201593,21.6651094601365,14.5916547558494,7.99088157152887,15.5287363321311
1978,19.9133967279172,8.61162261413361,5.25728854770235,7.353317602405,18.942133457112,19.251655178008,17.2024524597161,15.8576567456396
1979,31.7929539923408,15.7308852338738,10.8651253654251,13.5301139737496,18.0580753209531,22.0567880338254,14.1194681489258,19.4703229263818
1980,23.0339412484247,13.507969698348,10.5428103703516,10.994928586678,17.8631925124632,17.0257615952974,19.9145140844025,23.0695965528542
1981,27.332047101039,12.2325478718124,7.38027001725657,9.39761664480701,16.2723810447038,12.9124193559079,14.7791714762765,20.4762810906304
1982,1.28624413464054,0.586338684065506,1.14793807067598,6.8213331169794,24.4533942224871,1.75768092044266,5.52109650750344,19.1258837521786
1983,0.367626417423721,0.26273101068543,0.82853834665508,3.08315253828228,16.699364147602,2.36797435960429,2.93001820970912,23.8985815851531
1984,3.49787581057974,2.76275382387173,1.32942238706808,8.04018028344209,30.1741638004185,1.53970609758962,5.49551072257838,34.14371706539
1985,3.70723260951052,1.3044659635709,1.14168876281722,13.4856266018013,59.48530901354,5.33789319377791,10.4469641157923,41.2640007958276
1986,11.7608401918909,0.481159295316678,7.86971014340865,15.1291890961787,50.6653897513023,6.94252275291578,6.89342608054818,59.3525717672989
1987,7.25146094803891,4.72856674936937,3.74928046647943,33.1220223743622,104.479762788035,11.6282127628617,14.8003512715369,62.7267983108393
1988,3.71279987283416,3.77231901323816,3.00506071183607,27.6310989335829,65.7670216076772,7.88120660880717,16.5645991994851,96.2449508213042
1989,13.2554695830568,5.86866516683928,9.36212514359823,138.458769895085,101.89636296747,22.4329312794191,22.7183940389458,102.179978966881
1990,5.20700236114449,7.87595978790004,25.6473888008662,122.665265545387,78.5136374544083,17.3578036510228,24.4314410050669,148.451771561528
1991,11.5228264560779,3.33113136495221,16.6264967051937,56.9915130212995,44.8364015078421,3.25995531682864,17.256513487109,131.198861514564
1992,2.71140358139121,1.23734845605561,3.36444355604532,50.1934062097298,60.7839653664761,2.52786914478835,14.6279923733686,109.402663349466
1993,3.69393603152675,1.97585045193764,16.4802102313847,81.2815668172499,95.5232628397101,14.9012587537518,35.5259267194664,278.729260960571
1994,0.858914784297869,3.43671955339174,6.72535643400414,31.4347674038772,90.0121528932307,4.74930295263305,16.9236058800803,125.126271869731
1995,0.892519457714289,2.40643163993519,9.49604583869626,57.9397278245294,161.791760701044,16.9615826756749,26.1617545678312,109.53074920828
1996,3.93500976951706,2.98287401075177,19.6937505254443,30.8855216178505,66.166803008418,16.7861949049033,34.2687023490804,103.76439622164
1997,5.16264222687981,3.03005671645026,10.6317369428273,23.9935593891408,64.0335421819763,15.5978805726818,33.6662729175647,89.6136700900993
1998,6.68998366164599,5.81857204542973,23.4880910237541,59.579492646145,75.6336484836224,40.0975022046288,44.9711169680698,76.9320626968047
1999,1.92392971551645,3.21003991800497,10.923284446883,21.236805327328,46.5180144822925,21.9542999817307,29.1291205941609,59.4782524954032
2000,3.40836486844427,10.1530514990331,14.6646772647162,35.3030085227986,69.9648236524544,36.2747064240724,45.0856421504844,83.5237561147849
2001,4.03397088222642,7.22864171511941,15.451533765055,38.4405105323374,67.4173237180284,40.8229083158693,48.2371515579521,86.1357782981397
2002,2.62189476587557,6.99282048153956,12.0944958886068,31.7906085605193,60.3231947756118,29.734365951787,29.9246534412502,75.1544267648769
2003,2.30462537147341,4.74841525467155,10.5520895373449,28.2853556272744,55.1612693755408,25.9941206245122,26.2326224346264,66.3131851806402
2004,2.11591664983053,4.29429722363248,9.59883228091693,26.3557405894886,53.0921312871956,23.7048511968445,24.0044077725696,63.9855573453893
2005,2.09683036170398,4.24188353211722,9.49356018908604,26.1989443378054,53.1258533828207,23.4573465076556,23.7710785983449,64.0581296237187
2006,0.658607122859797,5.5528766143398,9.3218061134907,13.5663876197031,34.6714964841142,32.535709424602,12.4642004797804,32.6682541783587
2007,1.88935870639791,4.80962767510839,8.55569497017118,25.1478926533114,35.3207534953976,29.8371053069553,14.3126141780779,50.0693037420193
2008,2.49963322350045,8.86089553331711,9.70174285254129,43.2352376803704,46.4828660471568,33.7228547782166,21.293784801389,60.5702598957
2009,1.16733974464135,5.46603292245168,9.12030757507967,33.7966245190696,31.4274601841572,27.5927844242749,16.1123038518944,51.3694711895851
2010,1.41584341987789,8.4252408748043,7.53409294780704,24.3801693263201,30.8170956247745,31.6282884865989,12.2043001709554,44.0264437371964
2011,1.51302928502657,3.06169620150597,15.0154166095635,30.4458046682744,40.0699921073491,27.7207841440571,9.90544729642514,44.5054750425461
2012,1.47593433538794,3.60952284496926,17.1660004093879,41.2862616341173,46.3351774470833,29.389321385671,9.61596660676709,44.394832987429
2013,0.33748339187383,4.07883597753945,16.2867378094802,28.1993451725193,43.5561571806985,32.6796871008072,11.5209730587694,38.5105142337255
2014,1.18624086571027,1.58819857709858,15.0092197837432,20.5759432938627,31.7735411294295,22.191722184718,10.6006631476707,49.6697223907378
2015,0.00800000011920929,0.183180173635483,4.21137070870399,8.32762529921532,11.9439154284,1.0790700070858,1.07653001117706,10.3294501843452

Sablefish
year,1,3,4,5,6,7,8,9
1918,0,0,0,0,0,0,0,0
1919,0,0,0,0,0,0,0,0
1920,0,0,0,0,0,0,0,0
1921,0,0,0,0,0,0,0,0
1922,0,0,0,0,0,0,0,0
1923,0,0,0,0,0,0,0,0
1924,0,0,0,0,0,0,0,0
1925,0,0,0,0,0,0,0,0
1926,0,0,0,0,0,0,0,0
1927,0,0,0,0,0,0,0,0
1928,0,0,0,0,0,0,0,0
1929,0,0,0,0,0,0,0,0
1930,0,0,0,0,0,0,0,0
1931,0,0,0,0,0,0,0,0
1932,0,0,0,0,0,0,0,0
1933,0,0,0,0,0,0,0,0
1934,0,0,0,0,0,0,0,0
1935,0,0,0,0,0,0,0,0
1936,0,0,0,0,0,0,0,0
1937,0,0,0,0,0,0,0,0
1938,0,0,0,0,0,0,0,0
1939,0,0,0,0,0,0,0,0
1940,0,0,0,0,0,0,0,0
1941,0,0,0,0,0,0,0,0
1942,0,0,0,0,0,0,0,0
1943,0,0,0,0,0,0,0,0
1944,0,0,0,0,0,0,0,0
1945,0,0,0,0,0,0,0,0
1946,0,0,0,0,0,0,0,0
1947,0,0,0,0,0,0,0,0
1948,0,0,0,0,0,0,0,0
1949,0,0,0,0,0,0,0,0
1950,0,0,0,0,0,0,0,0
1951,0,0,0,0,0,0,0,0
1952,0,0,0,0,0,0,0,0
1953,0,0,0,0,0,0,0,0
1954,0,0,0,0,0,0,0,0
1955,0,0,0,0,0,0,0,0
1956,0,0,0,0,0,0,0,0
1957,0,0,0,0,0,0,0,0
1958,0,0,0,0,0,0,0,0
1959,0,0,0,0,0,0,0,0
1960,0,0,0,0,0,0,0,0
1961,0,0,0,0,0,0,0,0
1962,0,0,0,0,0,0,0,0
1963,0,0,0,0,0,0,0,0
1964,0,0,0,0,0,0,0,0
1965,0,0,0,0,0,0,0,0
1966,0,0,0,0,0,0,0,0
1967,0,0,0,0,0,0,0,0
1968,0,0,0,0,0,0,0,0
1969,0,0,0,0,0,0,0,0
1970,0,0,0,0,0,0,0,0
1971,0,0,0,0,0,0,0,0
1972,0,0,0,0,0,0,0,0
1973,0,0,0,0,0,0,0,0
1974,0,0,0,0,0,0,0,0
1975,0,0,0,0,0,0,0,0
1976,0,0,0,0,0,0,0,0
1977,0,0,0,0,0,0,0,0
1978,0,0,0,0,0,0,0,0
1979,0,0,0,0,0,0,0,0
1980,0,0,0,0,0,0,0,0
1981,0,0,0,0,0,0,0,0
1982,0,0,0,0,0,0,0,0
1983,0,0,0,0,0,0,0,0
1984,0,0,0,0,0,0,0,0
1985,0,0,0,0,0,0,0,0
1986,0,0,0,0,0,0,0,0
1987,0,0,0,0,0,0,0,0
1988,0,0,0,0,0,0,0,0
1989,0,0,0,0,0,0,0,0
1990,0,0,0,0,0,0,0,0
1991,0,0,0,0,0,0,0,0
1992,0,0,0,0,0,0,0,0
1993,0,0,0,0,0,0,0,0
1994,0,0,0,0,0,0,0,0
1995,0,0.218417919404111,0.66769129451987,0.571406013140207,0,0,0,0.00308568302237696
1996,0,0.295213865884681,0.515731802522627,0.285115235644097,0,0,0,0.00343378692031978
1997,0,0.460576550325392,0.807328343411968,0.269748884171769,0,0,0,0.00373905961220737
1998,0,1.00411608489731,0.669262917429431,0.578168107492895,0,0,0,0.00262228890579398
1999,0,0.728377046047585,0.749046298201483,0.524606736484559,0.00916105481398029,0,0,0.225786693191853
2000,0,0.462211132855093,0.44205460902802,0.228170667380328,0,0,0,0.00322453676753234
2001,0,0.416578617070702,0.461471163163164,0.519361542160411,0,0,0,0.00236464605507578
2002,0,0.489302720765803,0.487339931111569,0.434901361372454,0,0,0,0.00321074343440282
2003,0,0.486025775736226,0.491221868436385,0.260410782532815,0,0,0,0.00532932835103987
2004,0,0.733297902736208,0.658518161087244,0.452460730332149,0.00150124949513022,0,0,0.0419432535198003
2005,0,1.54925306019099,1.51405180318457,0.70870982851021,0.000183299707251389,0,0,0.0118707057464298
2006,0,0.0067829156709325,0.0370763272812363,0.0164051684183684,0.000760058348757949,0,0,0.0184360585352138
2007,0,0.182553799976061,0.849362682443293,0.0574854096235317,0.00151015903556894,0,0,0.0366305829318604
2008,0,0.00260065727956496,0.01888658695302,0.0695500356929969,0.00061619622225264,0,0,0.690746513695534
2009,0,0.00845172144167254,0.0675689250121548,0.12187492912394,0.0475183303991869,0,0,0.192304517389593
2010,0,0.0592386583381874,0.00100952776739063,0.208553060469583,3.99616946049201e-05,0,0,0.217819321343729
2011,0,0.138488972820873,2.73518492386332,1.05069936209319,0.000476002736568869,0,0,0.194435973891009
2012,0,0.0577005170648075,0.536648757810253,1.5258886793207,6.28905361301472e-05,0,0,0.00152547973099841
2013,0,0.0734186598354561,3.45538463338682,0.000862536845162525,3.99616946049201e-05,0,0,0.000969315240213575
2014,0,0.00992502175309621,0.322627936293675,0.33639140815209,0.000366075339691524,0,0,0.00887956352545838
2015,0,0.00533000004291534,0,0,0,0,0,0.118749996185303

Dogfish-Lingcod
year,1,3,4,5,6,7,8,9
1918,1.29835140827608,0.0547201426115184,0.044783175162862,0.00176217553642675,0.0669223920069273,0.053766921677567,0.0117015497272603,0.0282866298786105
1919,3.5623503957188,0.110442916514235,0.0903869076304857,0.00272603651744175,0.00711531520974225,0.00571660073886497,0.00124413088437293,0.00300748795390925
1920,1.65408881550998,0.0604270819815913,0.0494537562917937,0.00154101065934488,0.0105105782629892,0.0084444297537001,0.00183780122793426,0.00444259130941658
1921,1.40945541716385,0.03428769932338,0.0280611849941936,0.000830673855479388,0.000360881693208517,0.000289940289815127,6.31010780113811e-05,0.000152536790446745
1922,1.80257804269517,0.078797458744026,0.0644881432852718,0.00190163570780785,0.000109832214320548,8.82416167138105e-05,1.92044408304169e-05,4.6423672287625e-05
1923,1.74284521888101,0.0341064735970459,0.0279128691627811,0.000831081897349675,0.000890642432058235,0.000715561719345535,0.000155731084849129,0.000376455055987971
1924,2.00580625917309,0.0329438213732645,0.0269613501113644,0.000815770838578237,0.002456525909828,0.00197362694655272,0.00042952977662813,0.00103831971802994
1925,1.69694136213856,0.0206586191490896,0.0169070933631264,0.000528565977788574,0.00383513071236431,0.00308122836693552,0.000670582317748427,0.00162102578439682
1926,1.97037813171908,0.0394792355322577,0.0323099581938009,0.00102212286959622,0.00903158769465224,0.00725617620111633,0.00157919598143093,0.00381745437772751
1927,1.96973382022746,0.0574708056857564,0.0470343284016638,0.00149695392334513,0.014444752093553,0.0116052315402226,0.00252570148573233,0.00610548045139098
1928,2.03291162319863,0.0527678395651867,0.043185402841332,0.00135267004583118,0.0101563786482036,0.00815985799266034,0.00177586852825787,0.00429287888721938
1929,2.72228537069809,0.0440770001266004,0.0360727864204713,0.00117939809429566,0.0156779361012884,0.0125959986955729,0.00274132683259507,0.00662672033169027
1930,2.43211405208849,0.0309129174138822,0.0252992505003005,0.000805766881364703,0.00785224858100337,0.00630866921797852,0.00137298555066455,0.00331897355525928
1931,1.52449919604228,0.0316568994240394,0.0259081282387126,0.000773487780642394,0.00107154185372598,0.000860900293545336,0.000187361806866039,0.000452917280850475
1932,1.75495939644554,0.015542263353764,0.0127198481031084,0.000380757381857651,0.000646426383157875,0.000519353174195635,0.000113029290207557,0.000273230279071061
1933,0.79640647062404,0.0100683671434645,0.00823999039240196,0.000243853377687624,9.87682687583279e-05,7.935259950075e-05,1.72698819287772e-05,4.17471847364445e-05
1934,0.956361644461233,0.0100226899167212,0.00820260797436403,0.000248132653277701,0.00074044182762094,0.000594887250120537,0.000129468128771504,0.000312968549037928
1935,1.26193562062634,0.0122612226070432,0.0100346317373536,0.000357050280276134,0.00883965379494867,0.00710197228456231,0.001545635852984,0.00373632812059206
1936,1.38163129336752,0.027651476203634,0.0226300744705733,0.000767605803072571,0.0140421222732107,0.0112817498868299,0.00245530064196204,0.00593529764165315
1937,1.04989193499258,0.0062710041977051,0.00513221395321721,0.000167681023843107,0.00221319271493684,0.00177812770573193,0.000386982351245945,0.000935468104173192
1938,4.03541286763036,0.117089065324107,0.0958261413770789,0.00283377177646338,0.000932080862394027,0.000748854265703938,0.000162976699338576,0.000393970173223138
1939,0.714940198411358,0.00065146577513347,0.00878368630637911,0.000187079837683209,0.000692022721178559,0.000630184393169033,7.90138072860156e-05,0.000616574997558782
1940,0.785843837256454,0.000392018731995745,0.00528557247288956,0.000117346292099334,0.000914496839985889,0.000832778489093576,0.000104415469126874,0.000814793892780761
1941,0.456507619272844,0.00167217121853289,0.0225458159043572,0.00052991757276706,0.00717093517060611,0.00653014892523574,0.000818763419596717,0.00638912451860061
1942,1.15950474491825,0.00467750642700518,0.0630666271646707,0.00135520638716879,0.00617975960072422,0.00562754362642964,0.000705592922345014,0.00550601178851648
1943,8.1133793249002,0.0136498824791498,0.18404080519998,0.00395621623687945,0.0181827335685303,0.0165579461040295,0.00207606912627095,0.0162003624484113
1944,12.6155166459405,0.0185435499086654,0.250021922289059,0.00538297475216139,0.0255618687046013,0.0232776904932276,0.00291860441266444,0.0227749879473549
1945,13.6564248425487,0.0141442682421256,0.190706588149866,0.00432424924373637,0.0428691346812918,0.0390383997490753,0.00489471435339165,0.038195330590373
1946,8.75865897249824,0.0122203238548555,0.164766124945584,0.00397822047689312,0.0645748949762664,0.0588045590978108,0.00737303581373722,0.0575346220490306
1947,2.46673794419211,0.00343478546047604,0.046311071381075,0.00103408612050864,0.00865412794692402,0.00788080535759214,0.00098811148377069,0.00771061231726706
1948,3.93730375788312,0.00548246826592273,0.0739198945987262,0.00165056732749162,0.0138133857153987,0.0125790379828038,0.00157718549331026,0.0123073824068168
1949,5.41701353957722,0.00754287507693299,0.101700275061128,0.00227087987620452,0.0190047693766061,0.0173065257691498,0.00216992757474919,0.0169327758661303
1950,2.09264174256952,0.00291387830217797,0.0392877015466425,0.000877261170020812,0.00734176285581612,0.00668571165149595,0.000838268192178913,0.00654132772865123
1951,1.36641171635539,0.0133639594153217,0.141127281018052,0.00136208197712637,0.0438786165705352,0.05645531889452,0.00653998674183997,0.049050907661153
1952,1.0132017336096,0.0045578855755023,0.100241717773035,0.00434582371161087,0.03938559662638,0.019885883117038,0.00306067044345027,0.0313062531089038
1953,3.89769663057193,0.0220167409886903,0.169770254407626,0.0311710742236233,0.033614046212457,0.0197932103220431,0.00342766395332112,0.0135099855736742
1954,2.4307324369879,0.0238514694044145,0.209223905079821,0.0149974036358942,0.0332727868600463,0.0128388391278117,0.00487284118769434,0.0246358560461118
1955,2.39994868474159,0.0128430989100693,0.243895295064477,0.00490111229931185,0.00588672382908511,0.0203281619523686,0.00209365419851506,0.0301987912823306
1956,2.28273362811139,0.0394466609380701,0.230026739070614,0.00735166844896777,0.0143328928012507,0.00677605398412286,0.000333502438701514,0.00821195201537059
1957,3.94860822082545,0.116275913346521,0.354365516946622,0,0.0322490088028141,0.00784595724477384,0.00122284227523888,0.0421193667885137
1958,5.73761782252478,0.0376119325223459,0.349583256259083,0,0.0079342799435495,0.00320970978195293,0.000166751219350757,0.00278146761810939
1959,5.90456047893749,0.0605460377188983,0.3763639161093,0.00313671187155958,0.01049372508663,0.000891586050542482,0.000111167479567171,0.00397352516872771
1960,4.7927934266571,0.0628394482385535,0.420838940503411,0.0247996282345179,0.01748954181105,0.0445793025271241,0.00305710568809721,0.0119205755061831
1961,3.57209925104359,0.0632981303424845,0.54661239658568,0.0174479597855502,0.0281538965738853,0.0126605219177032,0.00127842601502247,0.0135099855736742
1962,5.78142546995223,0.167877650038763,0.635323332339524,0.0248976504805042,0.0277273223833719,0.106812008854989,0.000203807045873147,0.0111258704724376
1963,4.41510046640423,0.110771728099348,0.407209497543925,0.0310730519776371,0.117734476581702,0.050642087670813,0.00244568455047777,0.0553644506842727
1964,2.65687461695122,0.0477029388088289,0.292913467111749,0.00666551272706411,0.0364294358698456,0.0190799414816091,0.000259390785656733,0.00450332852455807
1965,2.39639671332855,0.0394466609380701,0.243417068995723,0.00343077860951829,0.0167217082681258,0.0476106950989685,0.000944923576320956,0.0354968248406342
1966,1.92516850586572,0.0284382904437249,0.291478788905487,0.0147033368979355,0.0249972475640861,0.0197932103220431,0.00264949159635092,0.0177484124203171
1967,2.97655204412449,0.0614634019267603,0.391906263343801,0.00960618010665122,0.0206461908208492,0.071861835673724,0.00683679999338104,0.0205298800384265
1968,3.21216614785591,0.0483909619647255,0.319933239996343,0.00235253390366969,0.0255944514308048,0.00855922608520782,0.00125989810176128,0.00278146761810939
1969,3.72904902788096,0.104350178644313,0.325671952821389,0.031857229945527,0.0726029272253831,0.108060229325749,0.000555837397835857,0.00119205755061831
1970,4.57730716093289,0.205718923613075,0.386645776587509,0.00990024684460993,0.14247577963148,0.312590069320194,0.00941217993668717,0.00105960671166072
1971,3.90243259245598,0.128201648048728,0.109274656710261,0.0317592076995408,0.0902630987126384,0.254102024404607,0.0101347685538738,0.00649009110892192
1972,4.31919723825225,0.237138647732352,0.603999524836145,0.0365622977528664,0.106387603114045,0.173859279855784,0.0138774070326352,0.0121854771840983
1973,5.30427731013434,0.167418967934832,0.255850946783324,0.0460704556135313,0.0366853803841536,0.151569628592222,0.0127842601502247,0.0172186090644867
1974,2.61661894093681,0.38529296730208,0.306064684002481,0.0343077860951829,0.0264475998118317,0.415479099552796,0.0190837506590311,0.0026490167791518
1975,2.09566313369147,0.298143367555181,0.258242077127093,0.0323473411754582,0.0861679864837096,0.558132867639593,0.0188984715264191,0.0264901677915181
1976,2.54557951267608,0.277502672878284,0.282153380564787,0.0274462288761463,0.116028179819649,0.160485489097647,0.0138959349458964,0.0264901677915181
1977,7.15130244491326,0.350891809507251,0.325193726752636,0.151934481278667,0.118587624962729,0.274608503567084,0.0135253766806725,0.0211921342332144
1978,8.01339266504184,0.293251064234652,0.300474747307423,0.0756349648298895,0.107208519549237,0.36953103412088,0.0318603847201575,0.081760313478453
1979,12.8162069134494,0.535941600152985,0.632578314704877,0.168557877930981,0.0902808441989637,0.424567571117606,0.0257333853782302,0.15184058217427
1980,9.26630037979445,0.460100945283137,0.611492370881381,0.123176930400166,0.0677106672751581,0.322356859552257,0.0367619738180679,0.186880716522178
1981,11.0047104911284,0.416618753326472,0.423827470852268,0.0985415286365736,0.048525953756943,0.240588290299977,0.0267137009744627,0.124392476935075
1982,17.3637294683878,4.36101543705669,3.95045578014036,5.47838397690194,1.34961910275512,0.0433059213138717,0.81421885260742,1.67889334064213
1983,20.2841108893339,6.48032517464917,4.62845174420127,3.98795955811216,2.27390884434258,1.82260518660034,6.60653607763242,0.999687227952691
1984,34.5213934951695,6.47571030860647,2.11372334771405,14.4126067275753,5.31524512786838,2.90766181460384,7.5402628523191,5.95307354503669
1985,61.4953347334425,12.6708367542264,2.63450346776498,26.6847803900045,35.7191133045147,2.3913743598583,4.48972371279921,1.33448849899528
1986,49.8395424409265,34.5624755962226,23.6389261137331,44.7813014980546,52.101400865867,3.17132660853056,8.86768896043956,10.5028927099444
1987,48.5420105667227,49.6646262348271,35.8758902344974,66.4408587284279,22.7326583667346,6.72542513913814,36.6179193533005,7.3000398363188
1988,83.80873193976,62.6890574569478,27.3116497849069,72.8903978114699,49.4388815056058,18.7297449459789,26.3279741490284,28.9775965624751
1989,82.2692562374544,33.8035360667275,17.4468574809577,67.1526364041282,36.5662014443443,13.7909457942456,28.6292097252318,24.966195879037
1990,17.8737171394221,38.0613810593325,3.39899415072627,22.6198646206488,54.0211942648416,7.55586422137499,4.00625811195641,6.03946256083611
1991,7.5208852881542,32.7442210411596,28.2948505460412,91.2101878790938,30.3133666184924,3.39130494038072,4.91231426853015,2.7875535944459
1992,2.12746150578892,21.9133284683773,9.01975437255481,43.648492267916,19.5468132070895,0.0400601187058228,7.03150772427589,2.09152930265166
1993,5.79064375517486,8.28646149150451,8.10749534879478,1.91457312677235,0.6999324634436,3.15900676609831,8.68462297925816,3.46604686608464
1994,3.73048962675347,13.4260220989239,10.2604960192566,25.3172038888113,1.54638302035416,0.113670984021397,2.49340915529671,3.26968384387899
1995,11.9770897698515,30.6801916486268,26.8582461226073,22.3887729362108,4.2527162478319,12.6122053428206,1.50571227848679,11.104747192445
1996,2.19318944143987,3.27887087689384,2.80572019887552,2.46170811839244,2.84687045867658,2.2210241191481,4.58355521814942,10.0395098169668
1997,2.52838970216124,3.5738025924909,3.4021166406258,1.68768097869793,2.01591387653493,2.45446941167217,1.71353729937948,6.28045285682199
1998,2.27609257305756,2.61613110641603,2.87981361883621,2.1797971890928,2.18846905327388,3.0386544133346,2.49122828676876,8.40050455136266
1999,1.71983336896763,3.35118333004252,2.85330631458178,2.19181543483479,9.1954443872359,2.20294875006402,3.3685147302196,10.5505106018097
2000,1.16475483288554,4.53223135099232,3.36260563962834,2.59114579351499,2.93943618295332,5.17719299421607,4.05040398034474,16.2155028774937
2001,1.26715040740322,5.40449328100514,2.4433612438179,1.29143151236453,1.53028901460044,1.69906557254098,1.5249924929911,4.85308289380802
2002,1.78434387102364,2.80320519516168,4.32172952639608,0.92785571501904,0.98461660443167,1.78520812444482,1.56971641131695,1.87999686291449
2003,3.6036674225469,2.71928300769093,4.97594243302593,2.60296309041884,1.56250197747218,2.9644823412754,1.91321031008017,9.11379747952158
2004,3.45500384729155,4.45129311374782,3.16227155668084,1.10026495159139,1.37061760540549,0.843365421336637,2.54989137427195,4.04044441217852
2005,4.940403083832,4.28487718922589,2.46838380928942,1.30595763907913,1.02171420993045,1.06034361093965,0.871330273791137,4.53088326134573
2006,2.44070691008611,2.7821606402066,2.49716573370914,0.844415542655188,0.228271994652636,0.449684004713639,0.160447770778993,0.92713571699183
2007,2.61858468773531,7.15038750718396,5.1281695345354,1.62987839130951,0.744254473360005,0.346678508908364,0.30037218913164,1.58857670367349
2008,2.99168002778292,9.92176141309738,1.78641649758816,2.367380184412,0.865165085315704,0.418685088396072,0.31183000254631,1.3343150908947
2009,3.02700554802227,10.941601083723,3.56995040815249,1.84595537697553,0.783097421870039,0.900703901545714,0.146739963355854,1.81988694687781
2010,2.77200686708391,3.53946552844723,3.92541460885839,2.54727825905205,0.668856069160292,1.05964501958997,0.315303660283208,0.569663819979626
2011,1.59297395684528,3.53668801465361,3.12638058655635,1.66878028415918,0.754347428068922,0.436428292648505,0.244269962850406,0.834066950997687
2012,1.33230782971264,1.67944732399373,4.33747336898448,2.55669734351876,0.326138638020775,0.934303651224438,0.31178463984473,1.85391863377425
2013,1.36401052576303,1.08191158604622,3.96280069601536,1.15845999586582,0.449425087213516,0.714389995336533,0.32125999879837,0.569590002298355
2014,0.585426839715739,0.248818532938291,2.17268724895532,1.55306995878786,0.374249137900357,1.15495252964282,0.182339364056324,1.37546728277867
2015,0.74201296806787,0.0141350071220693,0.472561544100714,0.0612465683124232,0.396139174593449,0.0800073456854558,0.0544524185933439,0.0176900610290615

H&L Rockfish
year,1,3,4,5,6,7,8,9
1918,2.16195823482977,0.585883535468191,1.0375748277623,0.0552855262496642,3.23480811854346,1.64138489304909,1.54504430514286,0.46025281895563
1919,5.93187077418389,1.18250215198009,2.09416102756468,0.0855251706354816,0.343930913349413,0.174515144248646,0.164272030846875,0.0489349496458935
1920,2.75431667654588,0.646987210555051,1.14578683802681,0.0483468210159011,0.508046752007676,0.25778971523156,0.242658826171498,0.072285570334871
1921,2.34696379296019,0.367115243928907,0.650145486140105,0.0260611047496087,0.0174438330133774,0.00885123411830707,0.00833171361932814,0.00248193185610442
1922,3.00157447243242,0.843677145408993,1.49411634879822,0.0596608729766462,0.00530892766840936,0.00269382088639654,0.0025357078874232,0.000755361318345263
1923,2.90210997498475,0.365174876740608,0.646709178359949,0.0260739064308626,0.0430507231367797,0.0218445125652048,0.0205623555330736,0.00612531437898795
1924,3.33998124995315,0.352726466285523,0.624663572788308,0.0255935456926044,0.118740375503933,0.0602504542479291,0.0567140721303382,0.0168945391957724
1925,2.82567287139153,0.221189935685798,0.391717970429989,0.0165829383257497,0.185377593238856,0.0940630695551313,0.0885420662489711,0.0263757715242198
1926,3.2809878746577,0.422700544759759,0.748584690255302,0.0320675208396261,0.436557216827726,0.221514969170793,0.208513215316278,0.0621139438004306
1927,3.27991499521519,0.615334632082788,1.08973146751645,0.0469646092076908,0.698211763526565,0.35428198483615,0.333487511310629,0.0993425021252204
1928,3.38511592196069,0.564980406263821,1.00055627480606,0.0424379261770798,0.490925908667603,0.24910237039229,0.234481382399738,0.0698495938808133
1929,4.53303107095786,0.471928387510611,0.835765106449294,0.03700178725282,0.757819818771626,0.384527909106716,0.361958160240028,0.107823615827679
1930,4.04985042527088,0.330981764332411,0.586154630280284,0.025279687040219,0.379551846503361,0.192589682030358,0.181285689121655,0.054003143584184
1931,2.53852968454142,0.338947511306613,0.60026162944378,0.0242669802846155,0.0517948056523908,0.0262813769536747,0.024738799513475,0.00736943411639073
1932,2.92228197601381,0.16640958463007,0.29470429813762,0.0119456727177869,0.0312461233015001,0.0158547007655355,0.0149241139182352,0.00444574015024607
1933,1.32614137933853,0.107801081226771,0.190911130822397,0.00765052177523453,0.00477413296286315,0.0024224589018837,0.0022802734121948,0.000679270013460997
1934,1.59249177036257,0.107312019360015,0.190045023052772,0.0077847774144,0.0357905203844094,0.0181605886100554,0.0170946583758824,0.0050923230359118
1935,2.10132025077914,0.131279783044002,0.232490913354822,0.0112018991494362,0.427279763969786,0.216807465538753,0.20408201718053,0.0607939354184443
1936,2.30063227347712,0.296061813181194,0.524312881694128,0.0240824423548722,0.678749963483969,0.344406807264306,0.324191954287858,0.0965734512253515
1937,1.74823433784571,0.0671430653310094,0.118907513573638,0.00526073223332029,0.106978449925069,0.0542822959365767,0.0510962130588948,0.0152210367172217
1938,6.71959380526689,1.25366185617933,2.22018183777423,0.0889051974078042,0.0450537204423159,0.0228608601807801,0.0215190489339573,0.00641030351047582
1939,1.19048728989217,0.00697518415259721,0.203507941840114,0.00586933995122335,0.0334501001765331,0.0192381321174749,0.0104327918797382,0.010032314982089
1940,1.30855294215197,0.00419730851766966,0.122460654659688,0.0036815580389418,0.0442037666863802,0.0254228806226181,0.0137867658304666,0.0132575420836453
1941,0.760156611267446,0.0179037834820258,0.522360707311423,0.0166253425233551,0.346619399154535,0.199350966371481,0.108107540299569,0.103957685414057
1942,1.93075681639125,0.0500816312209706,1.46118144995216,0.0425174999554575,0.298709235094291,0.171796428086197,0.0931647817449835,0.0895885249583546
1943,13.5100459952178,0.146148036608483,4.26401446664195,0.124120152670408,0.878893482449132,0.505477378044028,0.274119142796555,0.263596706888806
1944,21.0068090391162,0.198544083807502,5.79272130688491,0.168882489746372,1.235576582532,0.710616273510735,0.385365462853767,0.370572685732949
1945,22.7400840469562,0.15144137951429,4.41845301573939,0.135666617844127,2.07215284366436,1.19175577841716,0.646286236718788,0.621477661022265
1946,14.5845375689166,0.130841883864936,3.81744222221312,0.124810501596342,3.12133784013122,1.79517279275132,0.97351780414954,0.936147999929705
1947,4.10750462287726,0.0367759320995418,1.07297443151272,0.0324428492950936,0.418312055234455,0.240583512230515,0.130467848826005,0.125459663103227
1948,6.55622678738728,0.0587002836146636,1.71263921389131,0.051783991676512,0.667693591288826,0.384010136155504,0.208247755330737,0.200253882170165
1949,9.02017508928759,0.0807608698873926,2.35627878095244,0.0712453364664889,0.918627987238229,0.528329855277903,0.286511985171357,0.275513833163399
1950,3.48457591608718,0.0311986270526408,0.910251004248557,0.0275227095374064,0.354876647086321,0.204099951450751,0.110682903264615,0.106434189570986
1951,2.27528929649703,0.143086684654473,3.26975730868453,0.0427332109338612,2.12094787493744,1.72345569868093,0.863524020895264,0.798109163949896
1952,1.68713941199446,0.0488008617629708,2.3224856807207,0.136343483335301,1.9037700820303,0.607071915498273,0.404123517721367,0.509385222140121
1953,6.49027472348335,0.235731221344186,3.9333821649661,0.977944141543809,1.62479233518574,0.604242820564895,0.452580452543375,0.219821483542488
1954,4.04754981996091,0.255375489789535,4.8474780202047,0.470520294516361,1.60829698152903,0.391941289015067,0.64339815685896,0.400850940577479
1955,3.99629005604518,0.137509879117442,5.65077437783862,0.15376480212953,0.284544850578213,0.620573707607189,0.276441033175143,0.491365669094974
1956,3.80110864728915,0.422351771575001,5.32945583478505,0.230647203194295,0.692804853581736,0.20685790253573,0.0440348548420581,0.133616980192493
1957,6.57505048688243,1.24495551272398,8.2102427725067,0,1.55881092055891,0.239519676620319,0.16146113442088,0.685325801632464
1958,9.55403138213861,0.402707503129652,8.09944327490203,0,0.383516972518461,0.0979853222537667,0.0220174274210291,0.0452573642587476
1959,9.83201702491235,0.648260858696513,8.71992046148823,0.098409473362899,0.507232124943771,0.0272181450704908,0.0146782849473527,0.0646533775124966
1960,7.98075093580213,0.672816194253199,9.75035578921174,0.778049898775421,0.845386874906285,1.36090725352454,0.403652836052199,0.19396013253749
1961,5.94810414360549,0.677727261364536,12.6643825762148,0.547402695581126,1.36086667667841,0.386497660000969,0.168800276894556,0.219821483542488
1962,9.62697796924945,1.79745056274942,14.7197132567816,0.781125194818011,1.34024748460753,3.26073377944479,0.0269101890701466,0.18102945703499
1963,7.35183306314381,1.18602270738794,9.43457722103841,0.974868845501219,5.69089701156426,1.54599064000388,0.32292226884176,0.900837060007453
1964,4.42411193180335,0.510750979579071,6.78646922828658,0.20912013089616,1.76087900285358,0.582468304508502,0.034249331543823,0.0732738278474962
1965,3.99037546790106,0.422351771575001,5.63969442807815,0.107635361490671,0.808272329178693,1.45344894676421,0.124765422052498,0.57757017244497
1966,3.20570677411419,0.304486160902908,6.75322937900518,0.461294406388589,1.20828465535386,0.604242820564895,0.349832457911906,0.288785086222485
1967,4.95642486477434,0.658082992919187,9.08001882870343,0.301379012173878,0.997968896230835,2.19378249268156,0.902714524262192,0.334042450481232
1968,5.34875921166778,0.518117580246077,7.41248638975302,0.0738071050221743,1.2371515242531,0.261294192676711,0.166353896069997,0.0452573642587476
1969,6.20945007840043,1.11726776782922,7.54544578687863,0.999471213841943,3.50938649046463,3.29883918254348,0.0733914247367635,0.019396013253749
1970,7.62193258839205,2.20261359943474,8.95813938133829,0.31060490030165,6.88681015167559,9.54268166171406,1.24276145887586,0.0172409006699991
1971,6.49816084100884,1.37264325761875,2.53176852026691,0.996395917799353,4.36302104219927,7.75717134508987,1.33817031103365,0.105600516603744
1972,7.19213918325251,2.53902169656134,13.9939765474709,1.14708542388629,5.14242650247872,5.3075382887457,1.83233923759453,0.19827035770499
1973,8.83245162855571,1.79253949563808,5.92777312185032,1.44538914001758,1.77325051809611,4.62708466198343,1.68800276894556,0.280164635887485
1974,4.35707993283664,4.12529637352326,7.09116784669945,1.07635361490671,1.27838990839487,12.6836556028487,2.51977224929555,0.0431022516749977
1975,3.48960700503206,3.19219362236919,5.98317287065266,1.0148476940549,4.16507679831877,17.0385588141272,2.49530844104996,0.431022516749977
1976,4.23878816995419,2.97119560235902,6.53717035867605,0.861082891925367,5.60842024328072,4.89926611268834,1.83478561841909,0.431022516749977
1977,11.9080374634992,3.75696634017297,7.53436583711816,4.76670886601542,5.73213539570603,8.38318868171115,1.78585800192791,0.344818013399982
1978,13.3435525626417,3.13981218055967,6.96165542194431,2.37292979448254,5.18210690046762,11.2809630530119,4.20676808789372,1.3303251365978
1979,21.340989734516,5.73827743343664,14.6561143451565,5.28824217128628,4.36387880058942,12.9611064864392,3.39777392374421,2.4706038251102
1980,15.429839937635,4.92625851523272,14.167577200318,3.86448527869149,3.27291074997743,9.84084011007424,4.85396204924007,3.0407431693664
1981,18.324564764637,4.46069868410546,9.81959661125486,3.09158773090582,2.34558485531681,7.34462700898224,3.52721242244778,2.02399467210951
1982,3.84548792753887,0.72127943348545,0.000127995202377158,0.00046933679584383,0.000269887495911727,0.0908306963511214,0.000130904781095006,0.000319988703007384
1983,6.34766555232492,0,0,1.06414344617366,3.38384915108932,0.466299856209091,0,0
1984,9.1699590400029,1.6638014324659,0,24.8558688917214,1.51275293818805,0.136079724574637,7.22810137032283,0.0430919127819685
1985,16.9936360048807,0,1.20430556248554,52.3861579704163,0.00653999996185303,0,10.9190370998689,5.25267736858101
1986,158.078180702867,23.5499430240036,120.948670515515,97.6930027715437,61.9656707777878,31.9729722688257,23.2998087871659,37.3924403177008
1987,98.1619415411335,57.5620909781394,164.595642344339,74.4042019593254,37.6385342094761,68.5867668921231,46.1035329511606,6.63543587749574
1988,128.524462180888,21.1995474404251,98.6116394594462,52.4126288073304,37.3471258081458,59.3816479447611,31.9992687054486,23.4209008719455
1989,121.82702086237,20.8712091864739,81.2653542909392,88.9375106567086,26.5940341221725,9.58616736554554,31.5993194862075,39.9902022598306
1990,141.571248629605,65.0436888039389,207.895221001958,243.28649683647,117.722770953212,130.466997961279,186.913839062254,155.113949207041
1991,96.5227094380361,27.5112996855541,152.289217678433,205.670283680874,239.960490435376,125.285700795873,105.869819854561,154.486468857545
1992,28.2475127544978,29.2637375213601,77.3747647219619,146.541774419234,87.0642460495847,91.5792774470696,69.3522599810521,207.934355140865
1993,45.9513433429813,37.1498158765834,220.014093194472,287.132738297732,51.6514137173292,62.5904137945748,98.5815780509409,199.415901371271
1994,90.2773203872742,16.2418784224875,78.2236532858533,127.215186468714,63.5345487221859,35.1565942954138,74.2264895963454,196.808839652156
1995,47.8799225966202,16.1626682303603,93.5167183926819,104.734458848071,80.0270001446292,71.622507744603,49.0844228274615,144.881207985607
1996,28.1986150591439,11.2007836337414,90.0742718549285,65.2267688532641,54.8328230686074,55.5827962697959,34.9480234221914,114.235672903863
1997,25.2946330521112,9.56690232606135,96.3846461138543,58.9865807389956,58.9237904950592,79.3480088782841,38.1713228496224,93.796876715337
1998,35.0829012930349,15.2822887296818,80.652984785467,96.4092710268411,59.3980268578955,67.5477298444386,32.6426687847559,75.3934209350247
1999,27.837970758037,10.3761330527092,60.7810365038861,52.7938213162103,52.2483722634752,53.3305662525595,21.4654955815762,56.3727932754852
2000,25.0162791043514,15.2781296473969,34.027807668468,45.4079264825316,48.2051374468537,10.2062849171066,23.2813031249143,71.0368196788122
2001,24.3312846659574,16.0172435370998,30.4258672014816,52.0247441681227,43.0249515829643,11.2412512328602,22.3837236450875,45.871565156627
2002,0.68620306083883,4.11157577168062,15.0505053610726,27.6467921578767,38.615187691278,28.759953101721,8.0946215783623,22.1069363873103
2003,3.87377941389269,5.46040880601123,7.95917812942016,26.2878781319714,27.6670068547517,5.70951749684559,7.58289800630487,3.13411929044134
2004,1.92405364824648,2.83372933748083,9.19214214959541,22.5666279568784,19.8758790379326,0.779774396090473,8.88918658956852,0.400723328638289
2005,1.86348747779451,3.1375178168465,9.7503829969006,23.280593680203,28.7642716145549,7.80153226032528,5.32690400462219,6.44175983061675
2006,1.12165819414335,0.61040903974872,2.90235357268378,8.35369950695018,20.4144506681396,7.07684492321539,8.19248026109026,8.39411807816793
2007,4.21199575999378,1.86869500322,3.36533502913525,10.2203938855783,7.47368509945614,5.81105408797797,1.2689510084215,7.51383144589135
2008,4.39903001047377,4.97800317302215,7.83699841872966,18.4264715474149,9.84259178054012,6.70792771064341,4.14826598408726,7.0810947293353
2009,2.67309535705997,0.344328343887215,3.09786831326125,17.7035361288948,12.2172493773475,13.9692712673351,0.244939762427081,3.33381046082093
2010,2.72751946499625,2.0556740163308,2.00543676463114,15.1514576582165,13.7406371421477,9.9719616582986,0.777791294790654,17.854885991387
2011,4.01787036007643,4.71883178269863,8.2619208817482,17.1329049703479,7.9850321284011,12.5734255877733,0.276189999461174,19.1070217974186
2012,2.61069227815273,0.48122367651695,6.13390758212465,19.3414283735703,9.91072409772713,12.3395277319506,0.219525447919505,20.0205984614646
2013,3.52555001363158,0.985909999608994,7.13898542690277,15.8358933324814,6.78387248563766,10.3152582588196,0.288690001130104,24.0558207447529
2014,3.50440507209301,1.34776526582241,7.01549634790421,16.3147175859213,12.4191989877224,22.10815795362,1.05154507601261,12.5986025381088
2015,1.37700509554148,0.178229999959469,1.80250526714325,7.55836000159383,6.63498579025269,12.8578104999661,0.282650001764297,3.83614509820938

Combined Fisheries
year,1,3,4,5,6,7,8,9
1918,7.02407473881547,2.28003469909895,2.50793431626555,8.62680537906746,43.4415381328027,6.68149217316913,10.7136661603324,44.8670143568889
1919,18.6597062392092,4.56750787346451,4.38722192485683,8.82627264041931,35.8940579428858,2.77636339844468,4.01527550011371,43.9096265615332
1920,8.93360735843913,2.52217247517965,2.85486769324033,10.5633389968735,43.9090429007923,3.49920661995722,5.09322584789811,53.4580806152339
1921,7.7572102662976,1.45708267730377,2.12961743025698,12.4152669827493,50.3971830313081,3.34968075956996,4.67092353899689,63.0180839246477
1922,9.68078338601539,3.27464047744957,3.44193605066591,10.2237479010027,40.9919199519092,2.71409054520026,3.78078020453827,51.2835440192292
1923,9.32288616045997,1.43545194160944,1.84470921249253,8.90025925589335,36.1193469100269,2.43669353357328,3.41107115915862,45.074973847851
1924,10.6391618489982,1.384387137687,1.73994403552973,8.0701451690354,32.9457825417921,2.31624632736645,3.27642562370121,40.8812012870839
1925,9.01946918351951,0.876986570983035,1.26508400321203,7.25576289793936,29.9195893349258,2.19486690009934,3.13653109012248,36.8984343625339
1926,10.4787967945707,1.6547105589779,2.00040127413867,8.60747953736864,35.934248917945,2.88816753937372,4.21135473861412,43.687964429209
1927,10.4306491744258,2.38881813075514,2.51948873347969,7.58233960475143,32.2828803832326,2.95529543492163,4.41901443131901,38.3502370651923
1928,10.8113249673475,2.2012056497324,2.46792284387455,8.90885549552173,37.1830574944284,3.03472815727539,4.43912212085685,45.0911483915868
1929,14.2897879330818,1.83841011626773,2.05638940387638,7.38250854022289,31.7579714787023,2.99086221517842,4.49454690121784,37.5183280020581
1930,12.7625988701369,1.2945964813404,1.5453221698988,6.47526008122531,27.1592012835983,2.24133336424095,3.28597296236239,32.8738477911595
1931,8.13090321611874,1.32813665213326,1.62933183730949,7.21629177110822,29.2923901945416,1.99602390788921,2.8014027529214,36.5057399049237
1932,9.30869979058748,0.666145721187043,1.07655582090886,7.03024992200124,28.6324528531754,1.92821484680245,2.69803228768276,35.7401794431015
1933,4.38681882971053,0.441730909386046,0.897789726571195,7.08024318984114,28.8179116573329,1.9092725785956,2.66010704504057,36.0500129384602
1934,5.22514840389601,0.441493879598811,0.927672871472368,7.47652187079071,30.519486534263,2.05821479396802,2.88099744036215,38.0881836273806
1935,6.79701167201313,0.533901494436966,1.00675281935128,7.53483274360999,31.7951374660857,2.60372656688581,3.81131848228306,38.5335126916865
1936,7.40001670485761,1.16453950175562,1.50093423951025,7.28990111655222,31.3262316251836,2.86905140441871,4.29045650890989,37.2077781207105
1937,5.73149923293371,0.29040746271644,0.850871700866201,8.08642668456119,33.2381827624503,2.32159881751932,3.27874572067329,41.279534772372
1938,21.0851885730231,4.84049955752303,4.60146463938677,8.72105469591615,34.597845759106,2.33838838388535,3.27509205303877,43.1617434477881
1939,4.06326473296744,0.0654897310159013,1.10043371555336,9.34461066244263,38.16399499436,2.56640357385034,3.55190887045798,47.6774947405645
1940,4.43062188845158,0.0560097556997713,0.963244219200689,9.41230171815483,38.499261350817,2.6029539482972,3.59606238818594,48.0666911352744
1941,2.71039690347471,0.105411969922283,1.61723630771796,8.77626812664877,36.5729586748159,2.88771639065776,3.80305833163004,44.9456367314474
1942,6.27431069258575,0.241178694140798,3.1960356396545,7.72561184218998,31.8457011788756,2.50665742788663,3.30265442095071,39.0696669282957
1943,42.0349331131943,0.660793730075343,8.24518462149786,8.8485353135229,37.0605984294144,3.63111426617373,4.50488446280521,44.0166503146784
1944,65.1446242622524,0.826007191990669,10.8979337996056,8.4911927110061,35.9668302679959,4.05300291952236,4.86859913283287,41.9793541648864
1945,70.481430137274,0.921630181817873,8.5698045892414,8.29299504239909,38.2989377459531,5.28090847816367,6.05551598426925,41.5711761714733
1946,45.4030441214472,0.688525097319086,7.59184135684313,10.1653810418289,48.7445843336226,7.43690998569681,8.3989475444684,52.9345401923365
1947,13.0630631438306,0.24888944874184,2.67035810921404,9.46665000032581,39.4873581781541,3.16208472687061,4.14047963458417,48.0974855822035
1948,20.6180425385708,0.383009097989251,3.82498549680525,9.55531313175528,40.364543565982,3.54818017501336,4.52203758052166,48.3696298142853
1949,28.1906224543966,0.494485607359487,4.92182599142838,8.93050349079088,38.3024343583736,3.74696272068569,4.64174295919506,45.0575875872214
1950,11.1365188953936,0.303472602941784,2.41560882825004,9.40098390208253,39.1330142193371,3.03718639142616,4.0095176919012,47.4620682734099
1951,7.46252363125961,0.735508876828881,6.6798377052771,10.7763208115546,49.6758085411722,7.47812650644817,8.18951593148508,56.9348482756298
1952,5.66095153482877,0.397416129186118,5.02965622148762,11.3768699986775,50.2542691711875,4.56677069283371,6.06571803001981,57.4750343145425
1953,20.5499583113224,1.07760263974411,8.01461794115011,15.668704333262,56.1564864751512,5.01175168951317,6.93045401804834,64.9682347513872
1954,13.037778289859,1.19014220919283,9.69908137791006,14.6960423085952,58.6535438481615,4.60317056152514,8.08078072067283,68.5926899786782
1955,12.7415813930265,0.716128742514701,10.8695600591151,10.461305553535,41.5034480141515,4.32327261519935,5.05587430195546,52.0710895170317
1956,12.1705365053379,1.76630409312654,10.3656597899804,11.4501505151808,45.3838440759533,3.42038803904183,4.19292116126289,54.5709679470059
1957,20.676560562428,4.94742644239071,15.3734079578361,9.40591941644063,42.8385619995248,3.17393630180479,4.30469963717047,50.1885224860651
1958,29.8852035030639,1.73236218391079,15.1845928918176,9.85426751611307,41.4321139742378,2.90302243815909,3.77773957927135,50.016507634354
1959,30.7062003016942,2.89668403972509,16.2224434179268,9.30722752009041,38.2606045757142,2.47656539094639,3.41724318413791,45.6114704918166
1960,25.0239130294998,2.99459464743107,18.1069307294867,12.0895182735717,42.0015054378023,6.23854953277775,5.58528994024886,49.667843664339
1961,18.7066983946604,3.0188652671385,23.2505891751492,10.2921019330613,39.0445399735986,3.33096735208793,4.02957927387934,44.1539475927567
1962,30.0338412039741,7.39630991749554,26.9381524805141,10.5051912943603,36.97962286886,10.8902802626629,3.13944289842929,41.1818412286222
1963,23.0252180948664,4.79148461092799,17.5411063552052,11.3463311907255,49.8649918807514,6.36606038004746,4.66000788642385,45.1220278738331
1964,13.9115555190685,2.18422293676391,12.5895722153987,7.04046529505617,30.945506909503,3.26523575392596,2.53279788643339,32.2429652357521
1965,12.5757892014939,1.87908570711314,10.6005875991712,6.80143408444191,28.5557202359049,5.63041690159454,2.99521046915554,34.3744609716641
1966,10.134329785707,1.4218209188431,12.5992102379675,7.58419030283893,27.7755185019769,3.19624237809953,3.90846127840079,30.816274730252
1967,15.515233883315,2.6531168104922,16.6416178360954,6.47991600206691,25.3101974224855,7.32433653653347,6.41721951409361,28.4735263524708
1968,16.7265764313835,2.18555130205264,13.7294411724137,5.91591212011279,26.158723946074,2.15575883413259,2.8331182156068,27.5306067583749
1969,19.4410172351235,4.53796867651754,14.1723629022979,10.469018212983,38.8512172836492,10.6857841581287,2.92728881768721,34.6352320089192
1970,23.7423692926124,8.70155364978312,16.6093349811402,6.76003288350037,42.3194969399341,27.0574290769663,8.13953267542271,27.7252459454408
1971,20.2661694298154,5.51797966023764,5.09330787900069,8.64839898166563,34.4778948416792,22.2125716850716,8.52049476390624,26.9413243755137
1972,22.4134674082578,9.89288986306885,25.3842969235874,9.32510917781285,37.7057590697892,15.7005322630353,11.0281352586508,28.033432696189
1973,27.399183849042,6.9992114411786,10.9617052517336,8.62888473499093,21.1017063152655,13.3819018097415,9.61768098168625,19.1644969790624
1974,13.544830391398,15.8776658069085,12.9646016255947,6.07361909190927,14.5746206418164,34.6893780144589,13.2711624210571,12.613049170694
1975,10.9238779821107,12.3661957862565,11.0350339498842,7.05775885776148,27.8229369297241,46.7323172925974,13.6319082811691,20.7918648794344
1976,13.2386204403542,11.4744987823524,11.9194079835042,6.60999212118917,32.7136206115717,14.297048764247,10.4964692812661,21.1975850391483
1977,36.8594959076259,14.5972903411641,13.5973051270801,17.8549114673779,28.9594594892927,23.481373669597,9.92336990917467,15.9451767399693
1978,41.2703419556007,12.1068626725012,12.5822636632624,10.071650832062,26.4784692116973,31.264357994329,21.5824507523869,17.3350059618022
1979,91.9541506403062,22.1131042674634,33.4358180252864,20.8009140229668,23.1252349657414,36.3674620913822,17.6339754580482,25.7417673336662
1980,58.9840815658542,18.8943291588639,29.9338799415509,17.0535907957696,21.8018139297158,27.1889585649239,25.8862381074606,26.9692204387428
1981,61.6343223568044,17.1098653092443,19.7506940993637,12.9207459043494,18.9804918537776,22.6686346551901,19.0170975996987,22.805668239675
1982,35.4674615305672,5.66863355460764,5.09852184601872,12.3001864306772,25.8032832127382,1.89181753810765,6.33544626489195,22.8140970815237
1983,27.8744028590826,6.74305618533459,6.29399009085635,8.13525554256811,22.3571221430339,4.70987940241372,10.4755542873415,24.8982688131058
1984,48.4302283457522,10.9022655649441,15.6961457347821,48.7976559027388,37.471161866475,4.5834476367681,22.5828749452203,61.0038825232086
1985,86.1632033478337,14.2043027177973,6.55949779306774,93.6915649622221,99.3009623180165,7.72926755363621,27.5897249284604,48.0121666634039
1986,219.859563335685,58.7025779155429,153.592306772657,159.620493365777,167.141461394957,45.304821630272,39.0899238281536,111.688904794944
1987,154.304413055895,117.413283962336,210.264813045316,180.190083062116,170.111955364245,95.564404794123,97.521803575998,76.6622740246538
1988,216.055993993482,88.9784989986352,129.733349956189,154.721125552383,153.569028921429,85.9925994995472,75.2638420539622,159.279448255725
1989,217.359746682882,68.1118388529822,109.229336915495,294.683916955922,192.190598533987,46.3470444392102,82.9679232503851,167.136377105749
1990,164.651968130171,112.607630355365,240.23860395355,400.436627002507,274.999602672462,161.445665833676,215.631538179277,310.154183329405
1991,115.566421182268,67.6036520916659,205.311564929668,359.460984581267,321.19325856171,138.543961053082,129.8236476102,288.472883966555
1992,33.086377841678,57.612414445793,92.219962650562,250.11367289688,183.86402462315,97.6362067105638,92.1787600786966,319.428547792983
1993,55.4469231296829,64.3051278200255,251.765798774652,377.282878241754,154.490609020483,81.9676793144249,149.180127749665,481.611209197926
1994,95.2277247983255,41.2476200748032,115.113505739114,198.313157761402,183.640084635771,47.2345682320682,97.1745046317224,325.204795365766
1995,60.799531824186,54.6237094383264,139.066701648505,194.413365621951,263.436477093505,104.650295763098,79.2628896737795,265.613790069355
1996,34.3410642701008,21.1957723772891,117.090864382114,101.931863798001,128.695246535285,75.4530452913153,74.0163709869512,228.059792729838
1997,32.9856649811522,18.6819981770095,113.156708046556,87.8742399896817,134.840556553658,97.9008088625665,73.7233230679351,189.696038721883
1998,44.0489775277385,25.7518179679829,110.132232342311,161.251878973154,143.829284389272,111.315296464038,80.3539440421348,160.736770471945
1999,31.4817338425211,19.165103346511,77.8242735636357,78.6974588247783,115.253372241189,78.2315149957863,54.0730909056968,126.6368730661
2000,29.5893988056812,31.6393236309808,56.0087851816176,85.659171458881,127.864117277611,52.1083943324529,72.5609192573457,170.792453207835
2001,29.6382959554535,30.6575171454397,51.6367333616265,93.4227877569317,116.282894322997,55.070535118084,72.1830376963454,136.867960994706
2002,5.09244169773804,16.0414641631896,33.1005607038288,62.1066878005108,105.736599086485,60.7848771785653,39.6021214310439,99.1500107585933
2003,9.800222208366,14.4891128456191,25.3486919727776,59.0534576309957,90.9259782052792,35.9401804637085,35.7885107514596,78.6639512803656
2004,7.49497414536856,13.5328975798337,24.2240741538856,51.2886042229762,77.6440191951541,26.716871016055,35.5508657368821,68.6001883377399
2005,8.90344092329949,15.2213716050375,24.7752888044287,52.5129154830134,86.5168725233092,33.1126723775377,30.0087728772136,75.2297334218186
2006,4.22097222708926,9.77392920863538,15.9235817477681,23.8826278353563,58.3005992019221,40.9429683564244,20.8697485120121,42.120434031348
2007,8.78334004404327,15.5486829166927,19.2372092435949,37.8013404318251,45.6027612803828,36.5929077944334,15.9568481880201,59.2648367618508
2008,9.96633681762381,25.5054696994346,21.4632968826796,64.8527514141479,58.5852796487384,41.2184252436304,25.8407040088104,69.7962578331056
2009,6.9401624276559,18.3466396495699,18.5255931636697,55.1435992622652,46.1688061254065,42.7774738134703,16.5572994743257,56.7675185535973
2010,6.98061783826762,15.6791865598615,16.4924006838983,44.8653735949624,49.0558881160793,42.8785565942703,13.3469800036357,62.7865195459799
2011,7.17009244829894,12.9491912576629,32.3052577020904,52.3332275881667,50.2414728881212,40.8607920950331,10.4641719618799,64.6839076159143
2012,5.45442107915982,6.89219328671805,30.3214031692494,67.2503723609441,58.1221973326335,42.7959993220785,10.1830238602814,66.340272597907
2013,5.2696743770096,6.70839959441993,32.5504598114768,46.0317995164014,52.1246343608278,43.7660875618316,12.1742887042329,63.1648132473256
2014,5.30615043328896,3.56906423878451,25.8587343328562,39.4495501377908,47.028905818813,45.530251980839,11.8571464254646,63.6787277174307
2015,2.14211617997632,0.856317028093789,7.2125388814115,16.1268606230438,19.4320229196646,14.0641714659297,1.43271081177714,14.312840742351

